0.000000000000000000e+00 6.156288701422029108e-01
1.000000000000000000e+00 5.917412357078065677e-01
2.000000000000000000e+00 6.152615159248111532e-01
3.000000000000000000e+00 5.950361501469270120e-01
4.000000000000000000e+00 5.824372191386880671e-01
5.000000000000000000e+00 6.137137951956698201e-01
6.000000000000000000e+00 5.752380525037491532e-01
7.000000000000000000e+00 5.926512123277503097e-01
8.000000000000000000e+00 5.905195718707719754e-01
9.000000000000000000e+00 5.470382747503496068e-01
1.000000000000000000e+01 6.197930741394761522e-01
1.100000000000000000e+01 5.977738101959314543e-01
1.200000000000000000e+01 5.584469719737069626e-01
1.300000000000000000e+01 5.286511824164893403e-01
1.400000000000000000e+01 5.462565839137218937e-01
1.500000000000000000e+01 5.634284946928447280e-01
1.600000000000000000e+01 5.372363735528598028e-01
1.700000000000000000e+01 5.292277122720103755e-01
1.800000000000000000e+01 5.769316963735060533e-01
1.900000000000000000e+01 5.402022761867845135e-01
2.000000000000000000e+01 5.455087970513036177e-01
2.100000000000000000e+01 5.419619159334240210e-01
2.200000000000000000e+01 5.698861219486200946e-01
2.300000000000000000e+01 5.449979226613050898e-01
2.400000000000000000e+01 4.903128024959493292e-01
2.500000000000000000e+01 6.025698799280713169e-01
2.600000000000000000e+01 5.423100287665691965e-01
2.700000000000000000e+01 5.469918022854646233e-01
2.800000000000000000e+01 5.530311377466415879e-01
2.900000000000000000e+01 5.189479261408527222e-01
3.000000000000000000e+01 5.761258166645015777e-01
3.100000000000000000e+01 5.378951990259439597e-01
3.200000000000000000e+01 5.158700182510612686e-01
3.300000000000000000e+01 5.820015516919033738e-01
3.400000000000000000e+01 5.196779096723342928e-01
3.500000000000000000e+01 5.311037677580484617e-01
3.600000000000000000e+01 5.106242968674044036e-01
3.700000000000000000e+01 5.090357022191430714e-01
3.800000000000000000e+01 5.337364491091650676e-01
3.900000000000000000e+01 5.274751101065768832e-01
4.000000000000000000e+01 5.749547404688062358e-01
4.100000000000000000e+01 4.812579091867337233e-01
4.200000000000000000e+01 5.242649232451872532e-01
4.300000000000000000e+01 4.765285053983795982e-01
4.400000000000000000e+01 5.371768708144319948e-01
4.500000000000000000e+01 5.305548138332414343e-01
4.600000000000000000e+01 5.049222029611162288e-01
4.700000000000000000e+01 5.013262436886835038e-01
4.800000000000000000e+01 5.310703564104052310e-01
4.900000000000000000e+01 5.135688023091737886e-01
5.000000000000000000e+01 5.312074870202476706e-01
5.100000000000000000e+01 5.384220549782703369e-01
5.200000000000000000e+01 4.876104735774213217e-01
5.300000000000000000e+01 4.509322194569212461e-01
5.400000000000000000e+01 4.931244188812839990e-01
5.500000000000000000e+01 5.404850601973920643e-01
5.600000000000000000e+01 5.305114621706915612e-01
5.700000000000000000e+01 5.305759965090547370e-01
5.800000000000000000e+01 5.072527103200221710e-01
5.900000000000000000e+01 5.195755101428455314e-01
6.000000000000000000e+01 4.723502158068850765e-01
6.100000000000000000e+01 5.034901201957663330e-01
6.200000000000000000e+01 5.067127983178535411e-01
6.300000000000000000e+01 5.082272553084021816e-01
6.400000000000000000e+01 4.730250485373828084e-01
6.500000000000000000e+01 5.133593189305095672e-01
6.600000000000000000e+01 5.362436301312968334e-01
6.700000000000000000e+01 4.989677342611357758e-01
6.800000000000000000e+01 5.154114979356720916e-01
6.900000000000000000e+01 4.984008102445331434e-01
7.000000000000000000e+01 4.973412990212907614e-01
7.100000000000000000e+01 4.602508745893737485e-01
7.200000000000000000e+01 5.074193127341840581e-01
7.300000000000000000e+01 4.733670883838325683e-01
7.400000000000000000e+01 4.272884784870055741e-01
7.500000000000000000e+01 4.579495519657581504e-01
7.600000000000000000e+01 4.733044973502591457e-01
7.700000000000000000e+01 4.169721539973411661e-01
7.800000000000000000e+01 4.394292808609056022e-01
7.900000000000000000e+01 4.765033244692167824e-01
8.000000000000000000e+01 4.834405104967104405e-01
8.100000000000000000e+01 4.970078654425646447e-01
8.200000000000000000e+01 4.695198503239517707e-01
8.300000000000000000e+01 4.782716421373038873e-01
8.400000000000000000e+01 4.730905310035867228e-01
8.500000000000000000e+01 4.780046982132092337e-01
8.600000000000000000e+01 4.841384442525788478e-01
8.700000000000000000e+01 4.482176851171569831e-01
8.800000000000000000e+01 5.144544465153598756e-01
8.900000000000000000e+01 4.901724556750648443e-01
9.000000000000000000e+01 4.969750016582946683e-01
9.100000000000000000e+01 5.072265099226399565e-01
9.900000000000000000e+01 4.707659980432387647e-01
1.020000000000000000e+02 4.030727075575360474e-01
1.030000000000000000e+02 4.505519516425166571e-01
1.040000000000000000e+02 4.572360194587873350e-01
1.060000000000000000e+02 4.049798666491635779e-01
1.070000000000000000e+02 4.301633604885185536e-01
1.110000000000000000e+02 5.038290078699453334e-01
1.190000000000000000e+02 4.424814015138724965e-01
1.230000000000000000e+02 4.059541614578425217e-01
1.240000000000000000e+02 4.350090346883489500e-01
1.260000000000000000e+02 4.652984245057788515e-01
1.300000000000000000e+02 4.125622327244188314e-01
1.310000000000000000e+02 4.014147212882406834e-01
1.320000000000000000e+02 4.276206588776522155e-01
