0.000000000000000000e+00 4.909498193651147839e-04
1.000000000000000000e+00 2.053214878980784679e-03
2.000000000000000000e+00 -1.273171351779292569e-03
3.000000000000000000e+00 -4.440899996128086155e-03
4.000000000000000000e+00 2.611523403214596837e-03
5.000000000000000000e+00 5.878824618620371884e-04
6.000000000000000000e+00 6.717042257997183838e-03
7.000000000000000000e+00 -5.654463525238470102e-03
8.000000000000000000e+00 1.074290798520779761e-03
9.000000000000000000e+00 2.589523000921381286e-03
1.000000000000000000e+01 -4.100722485279032132e-04
1.100000000000000000e+01 1.111709343503675378e-03
1.200000000000000000e+01 3.988757928125809173e-04
1.300000000000000000e+01 1.285349424260580527e-03
1.400000000000000000e+01 3.868631369352057165e-03
1.500000000000000000e+01 5.649615039027797679e-03
1.600000000000000000e+01 8.256955505905039933e-03
1.700000000000000000e+01 1.391343157374578935e-04
1.800000000000000000e+01 -4.805675931670596278e-03
1.900000000000000000e+01 2.451525401231808600e-03
2.000000000000000000e+01 -8.064885088783233305e-03
2.100000000000000000e+01 -9.987445044513942622e-04
2.200000000000000000e+01 5.432182228652611411e-03
2.300000000000000000e+01 -3.248554456348431117e-03
2.400000000000000000e+01 -9.410665444496647738e-05
2.500000000000000000e+01 -2.654475155545851154e-04
2.600000000000000000e+01 3.224001353798943044e-03
2.700000000000000000e+01 -4.747113437568008590e-03
2.800000000000000000e+01 -1.292077675466872955e-03
2.900000000000000000e+01 5.274660898769045758e-03
3.000000000000000000e+01 -2.541851271148835509e-03
3.100000000000000000e+01 -7.674195154949262597e-03
3.200000000000000000e+01 1.286250106864059509e-02
3.300000000000000000e+01 6.168556506656003129e-03
3.400000000000000000e+01 -5.317631802927779566e-03
3.500000000000000000e+01 4.302058857637007408e-04
3.600000000000000000e+01 1.059967811002332115e-03
3.700000000000000000e+01 7.239874094055936959e-03
3.800000000000000000e+01 7.126998918541078108e-03
3.900000000000000000e+01 -1.757606882634817113e-03
4.000000000000000000e+01 -3.050903991591020006e-03
4.100000000000000000e+01 -5.116276421663882093e-03
4.200000000000000000e+01 -3.376458104049588757e-04
4.300000000000000000e+01 -4.871082184582691682e-03
4.400000000000000000e+01 -5.386239978834089434e-03
4.500000000000000000e+01 -2.225146447327780181e-03
4.600000000000000000e+01 3.794137829798085331e-04
4.700000000000000000e+01 1.937305285302182980e-03
4.800000000000000000e+01 -4.439994471571604741e-03
4.900000000000000000e+01 -3.500385573122322558e-03
5.000000000000000000e+01 3.483879561101784449e-03
5.100000000000000000e+01 3.022205507658429213e-03
5.200000000000000000e+01 -7.097849842027606319e-03
5.300000000000000000e+01 1.341140766631572240e-04
5.400000000000000000e+01 2.916885058069257006e-03
5.500000000000000000e+01 9.235733654984155114e-04
5.600000000000000000e+01 3.245393987865761477e-03
5.700000000000000000e+01 -2.564300080489726580e-04
5.800000000000000000e+01 7.968823826478932480e-04
5.900000000000000000e+01 3.432000813787318503e-03
6.000000000000000000e+01 -1.154390015494609865e-03
6.100000000000000000e+01 1.023542826632801279e-04
6.200000000000000000e+01 -5.837138392329001280e-03
6.300000000000000000e+01 5.945100320480587418e-03
6.400000000000000000e+01 3.118851053327527031e-03
6.500000000000000000e+01 1.329292466477352769e-03
6.600000000000000000e+01 -3.248859326903649541e-04
6.700000000000000000e+01 -2.905494356874563540e-03
6.800000000000000000e+01 -5.225287633025450969e-03
6.900000000000000000e+01 4.104393418508770625e-03
7.000000000000000000e+01 -6.318585438762667518e-03
7.100000000000000000e+01 8.202173279821731861e-03
7.200000000000000000e+01 -3.329233829101321471e-03
7.300000000000000000e+01 -6.785308337370077499e-03
7.400000000000000000e+01 3.222645354247284828e-03
7.500000000000000000e+01 -2.279478555623587217e-03
7.600000000000000000e+01 -5.617937908994833328e-03
7.700000000000000000e+01 -6.545416439712537296e-03
7.800000000000000000e+01 -5.216693374922328971e-03
7.900000000000000000e+01 1.989049013024988318e-03
8.000000000000000000e+01 -6.649649578539789524e-04
8.100000000000000000e+01 2.113983189031690742e-03
8.200000000000000000e+01 -8.191513857359187427e-04
8.300000000000000000e+01 -2.333784662697905004e-03
8.400000000000000000e+01 -2.345161107388883442e-04
8.500000000000000000e+01 2.416610468837997530e-03
8.600000000000000000e+01 -7.781731479587193807e-03
8.700000000000000000e+01 -3.152499024035440318e-03
8.800000000000000000e+01 -2.754639528291159215e-03
8.900000000000000000e+01 6.397751636843795062e-04
9.000000000000000000e+01 -1.327851949821277520e-03
9.100000000000000000e+01 1.230398160959994850e-03
9.200000000000000000e+01 -7.644547459809904362e-03
9.300000000000000000e+01 6.381099177915431839e-03
9.400000000000000000e+01 5.449872275660929549e-03
9.500000000000000000e+01 -1.527925074973263565e-03
9.600000000000000000e+01 1.388989461094553013e-02
9.700000000000000000e+01 -1.025406129077097162e-02
9.800000000000000000e+01 -1.457964945954823115e-03
9.900000000000000000e+01 1.247341524395690140e-02
1.000000000000000000e+02 5.706755925872323242e-03
1.010000000000000000e+02 -4.624022885630828424e-03
1.020000000000000000e+02 8.638826643631017030e-04
1.030000000000000000e+02 -4.955597810628957142e-03
1.040000000000000000e+02 -7.149642502594775149e-03
1.050000000000000000e+02 -3.530805439618017478e-03
1.060000000000000000e+02 -2.585251502892289225e-03
1.070000000000000000e+02 -5.126590787771727505e-03
1.080000000000000000e+02 -7.031841966602770744e-04
1.090000000000000000e+02 4.345614300554856424e-03
1.100000000000000000e+02 1.663033719533372297e-03
1.110000000000000000e+02 8.656952640626902964e-03
1.120000000000000000e+02 -3.001752362718277181e-03
1.130000000000000000e+02 -2.603143864175437409e-03
1.140000000000000000e+02 -2.153338795376267645e-04
1.150000000000000000e+02 -2.113047843967512038e-03
1.160000000000000000e+02 -9.896183291485224215e-03
1.170000000000000000e+02 -2.230636710132422734e-03
1.180000000000000000e+02 -5.075877233210839001e-03
1.190000000000000000e+02 1.391811338905900265e-03
1.200000000000000000e+02 2.225741988533973693e-03
1.210000000000000000e+02 -1.731722233330112602e-03
1.220000000000000000e+02 6.488081586336584897e-03
1.230000000000000000e+02 3.301946567474661927e-03
1.240000000000000000e+02 1.000000000000000000e+00
