0.000000000000000000e+00 1.640966518119570594e+01
1.000000000000000000e+00 1.619227314844685850e+01
2.000000000000000000e+00 1.646270924597862617e+01
3.000000000000000000e+00 1.696805453012940745e+01
4.000000000000000000e+00 1.701068640246552022e+01
5.000000000000000000e+00 1.687360225522088086e+01
6.000000000000000000e+00 1.753137507047358312e+01
7.000000000000000000e+00 1.747231292803390446e+01
8.000000000000000000e+00 1.777709170215097956e+01
9.000000000000000000e+00 1.810324630104742027e+01
1.000000000000000000e+01 1.755321874744736377e+01
1.100000000000000000e+01 1.769544734867520930e+01
1.200000000000000000e+01 1.801174675366946332e+01
1.300000000000000000e+01 1.667546877351834667e+01
1.400000000000000000e+01 1.621853762652108344e+01
1.500000000000000000e+01 1.574981171813840852e+01
1.600000000000000000e+01 1.548327696891050920e+01
2.600000000000000000e+01 2.226197915430307717e+01
2.700000000000000000e+01 1.919905720828079154e+01
2.800000000000000000e+01 2.326167689713011555e+01
2.900000000000000000e+01 2.539202787962322105e+01
3.000000000000000000e+01 2.560132756229335982e+01
3.100000000000000000e+01 1.482753597322660433e+01
3.200000000000000000e+01 1.450160195901131210e+01
3.300000000000000000e+01 1.477503535557392844e+01
3.400000000000000000e+01 1.740864391729715521e+01
3.500000000000000000e+01 1.573504618766058805e+01
3.600000000000000000e+01 1.444593099487827104e+01
3.700000000000000000e+01 1.479537319836254028e+01
3.800000000000000000e+01 1.437673390661026751e+01
3.900000000000000000e+01 1.440955888493206771e+01
4.000000000000000000e+01 1.463367173025193502e+01
4.100000000000000000e+01 1.441676343236147240e+01
4.200000000000000000e+01 1.491765445307233406e+01
4.300000000000000000e+01 1.477155446463054567e+01
4.400000000000000000e+01 1.493048525447868258e+01
4.500000000000000000e+01 1.503611292104902120e+01
5.800000000000000000e+01 2.192222965123152889e+01
5.900000000000000000e+01 2.577787750292357671e+01
7.500000000000000000e+01 2.469811699335255994e+01
7.600000000000000000e+01 1.903267879780225513e+01
7.800000000000000000e+01 2.146893784701482488e+01
7.900000000000000000e+01 1.631985678516405258e+01
8.000000000000000000e+01 1.634810982934133250e+01
8.100000000000000000e+01 1.787037527576732998e+01
9.200000000000000000e+01 2.187957613106295796e+01
9.300000000000000000e+01 1.965679266646264622e+01
9.400000000000000000e+01 2.332209118858192198e+01
9.700000000000000000e+01 1.712785631310564938e+01
9.800000000000000000e+01 2.200578623003430323e+01
1.000000000000000000e+02 1.647488395554510276e+01
1.030000000000000000e+02 1.833611874062939151e+01
1.040000000000000000e+02 1.558688712336767068e+01
1.050000000000000000e+02 1.584046913472202078e+01
1.060000000000000000e+02 1.616864790292797593e+01
1.080000000000000000e+02 1.829856406945453529e+01
1.090000000000000000e+02 1.700998798643720988e+01
1.100000000000000000e+02 1.612342999511592367e+01
1.110000000000000000e+02 1.635018109074276538e+01
1.150000000000000000e+02 1.653056813211824405e+01
1.160000000000000000e+02 2.365805096864250956e+01
1.170000000000000000e+02 1.594124998208162758e+01
1.180000000000000000e+02 1.716588189293236866e+01
1.190000000000000000e+02 1.622874047771168904e+01
1.200000000000000000e+02 1.700503647819932240e+01
1.210000000000000000e+02 1.646533495398426439e+01
1.220000000000000000e+02 1.771453149124759463e+01
1.230000000000000000e+02 1.628234689912694222e+01
1.240000000000000000e+02 1.580692317456182927e+01
1.250000000000000000e+02 1.588308212030047351e+01
1.260000000000000000e+02 1.614030745356946639e+01
1.270000000000000000e+02 1.625105672212945152e+01
1.280000000000000000e+02 1.589294966160074196e+01
