0.000000000000000000e+00 -8.765630021198117552e-06
1.000000000000000000e+00 -2.164999856929399372e-04
2.000000000000000000e+00 -3.095957597698068215e-04
3.000000000000000000e+00 -4.349546735695827425e-04
4.000000000000000000e+00 -8.310379021323535936e-04
5.000000000000000000e+00 -1.537109414464484479e-03
6.000000000000000000e+00 -2.167536302028827584e-03
7.000000000000000000e+00 -3.554767582968181884e-03
8.000000000000000000e+00 -6.450118491320805565e-03
9.000000000000000000e+00 -7.248014618265896485e-03
1.000000000000000000e+01 -8.386184255266923571e-03
1.100000000000000000e+01 -1.015219208074796993e-02
1.200000000000000000e+01 -1.256501875179520363e-03
1.300000000000000000e+01 -1.081580157320066217e-03
1.400000000000000000e+01 -8.174344240035246942e-04
1.500000000000000000e+01 -7.251717721362670741e-04
1.600000000000000000e+01 -5.917217514248525930e-04
1.700000000000000000e+01 -4.022645399046001903e-04
1.800000000000000000e+01 -2.879442873007706234e-04
1.900000000000000000e+01 -2.184506908963449877e-04
2.000000000000000000e+01 -1.771626663893338736e-04
2.100000000000000000e+01 -1.297670859180041628e-04
2.200000000000000000e+01 -5.937740657180511696e-05
2.300000000000000000e+01 -5.017554622720522443e-05
