0.000000000000000000e+00 3.766037325269271374e-01
1.000000000000000000e+00 4.151490050702774659e-01
2.000000000000000000e+00 4.471982747993975549e-01
3.000000000000000000e+00 4.707140826526041155e-01
4.000000000000000000e+00 4.968607985087036272e-01
5.000000000000000000e+00 5.067509729630508275e-01
6.000000000000000000e+00 5.421490078719118921e-01
7.000000000000000000e+00 5.709555036461709809e-01
8.000000000000000000e+00 5.909997397978735689e-01
9.000000000000000000e+00 6.191606850034548915e-01
1.000000000000000000e+01 6.551817782511979438e-01
1.100000000000000000e+01 6.909986974217620093e-01
1.200000000000000000e+01 7.316296997200790742e-01
1.300000000000000000e+01 7.477361875069126196e-01
1.400000000000000000e+01 7.614371377686769415e-01
1.500000000000000000e+01 7.825414144073495892e-01
1.600000000000000000e+01 7.851515672135336299e-01
1.700000000000000000e+01 7.928336429634426086e-01
1.800000000000000000e+01 7.800718953386638344e-01
1.900000000000000000e+01 7.788391073047996604e-01
2.000000000000000000e+01 8.085924656819500900e-01
2.100000000000000000e+01 8.047840768815890389e-01
2.200000000000000000e+01 8.125766467849450114e-01
2.300000000000000000e+01 8.191945842059374927e-01
2.400000000000000000e+01 8.211553258418978762e-01
2.500000000000000000e+01 8.095768049280145373e-01
2.600000000000000000e+01 8.031320784952479253e-01
2.700000000000000000e+01 7.836079490205974940e-01
2.800000000000000000e+01 7.891711845785150947e-01
2.900000000000000000e+01 7.922612749952051558e-01
3.000000000000000000e+01 8.073259342799593563e-01
3.100000000000000000e+01 7.968103914561938117e-01
3.200000000000000000e+01 7.907853979476161532e-01
3.300000000000000000e+01 8.144417575464765191e-01
3.400000000000000000e+01 8.149583716088907304e-01
3.500000000000000000e+01 8.091348535527392860e-01
3.600000000000000000e+01 8.106157342341718808e-01
3.700000000000000000e+01 8.064810058920162117e-01
3.800000000000000000e+01 7.987084514586216821e-01
3.900000000000000000e+01 7.962841514537234433e-01
4.000000000000000000e+01 8.024415008992876741e-01
4.100000000000000000e+01 8.116839216576141602e-01
4.200000000000000000e+01 8.167640270346167020e-01
4.300000000000000000e+01 8.055359219793860603e-01
4.400000000000000000e+01 8.185899140894139503e-01
4.500000000000000000e+01 8.194912719939689838e-01
4.600000000000000000e+01 8.005935720672521239e-01
4.700000000000000000e+01 8.075982428506982558e-01
4.800000000000000000e+01 8.059508121383337498e-01
4.900000000000000000e+01 8.097124537866865479e-01
5.000000000000000000e+01 8.055227007407010920e-01
5.100000000000000000e+01 7.831693137719176745e-01
5.200000000000000000e+01 7.864691721157582860e-01
5.300000000000000000e+01 7.870533036740128274e-01
5.400000000000000000e+01 7.816821771518900341e-01
5.500000000000000000e+01 7.854733233859217956e-01
5.600000000000000000e+01 7.675274255199570073e-01
5.700000000000000000e+01 7.703866892444144465e-01
5.800000000000000000e+01 7.688649940485299261e-01
5.900000000000000000e+01 7.660382932970537517e-01
6.000000000000000000e+01 7.639494734446804491e-01
6.100000000000000000e+01 7.861771050881609657e-01
6.200000000000000000e+01 7.878014546655092154e-01
6.300000000000000000e+01 7.843258391888665582e-01
6.400000000000000000e+01 7.655954856720902368e-01
6.500000000000000000e+01 7.711862899178451025e-01
6.600000000000000000e+01 7.943943936275373874e-01
6.700000000000000000e+01 7.948831263178459672e-01
6.800000000000000000e+01 7.929811233406061088e-01
6.900000000000000000e+01 7.988705753213859451e-01
7.000000000000000000e+01 7.952674347949130196e-01
7.100000000000000000e+01 8.028707131387883278e-01
7.200000000000000000e+01 8.013828276011504270e-01
7.300000000000000000e+01 8.139169197675001355e-01
7.400000000000000000e+01 8.148416000306603069e-01
7.500000000000000000e+01 8.175562242412950376e-01
7.600000000000000000e+01 8.108512329525815465e-01
7.700000000000000000e+01 8.051824092554352719e-01
7.800000000000000000e+01 8.056982690982970041e-01
7.900000000000000000e+01 8.146394930754936592e-01
8.000000000000000000e+01 8.215322533860135445e-01
8.100000000000000000e+01 8.127391348006332006e-01
8.200000000000000000e+01 8.022695252676358413e-01
8.300000000000000000e+01 8.028438341101723497e-01
8.400000000000000000e+01 8.100796190315925349e-01
8.500000000000000000e+01 8.140122967978218327e-01
8.600000000000000000e+01 8.014184213153223713e-01
8.700000000000000000e+01 7.973397986272718896e-01
8.800000000000000000e+01 7.913800752909654346e-01
8.900000000000000000e+01 7.989435968963912726e-01
9.000000000000000000e+01 7.868163385813288224e-01
9.100000000000000000e+01 7.941918926825556335e-01
9.200000000000000000e+01 7.917758386346924748e-01
9.300000000000000000e+01 7.875276085673686977e-01
9.400000000000000000e+01 7.957630556157307966e-01
9.500000000000000000e+01 7.713577463329033268e-01
9.600000000000000000e+01 7.762248484391979231e-01
9.700000000000000000e+01 7.826675450709115189e-01
9.800000000000000000e+01 7.921657300691637982e-01
9.900000000000000000e+01 7.925300407081931064e-01
1.000000000000000000e+02 7.939653774306091316e-01
1.010000000000000000e+02 8.177375051229217595e-01
1.020000000000000000e+02 8.353617931610555214e-01
1.030000000000000000e+02 8.448167017918812860e-01
1.040000000000000000e+02 8.425059092785159853e-01
1.050000000000000000e+02 8.578174401175294728e-01
1.060000000000000000e+02 8.627108155445093463e-01
1.070000000000000000e+02 8.487284202253183585e-01
1.080000000000000000e+02 8.546712742640156790e-01
1.090000000000000000e+02 8.580496731857173431e-01
1.100000000000000000e+02 8.842727358158783968e-01
1.110000000000000000e+02 8.903019256392344927e-01
1.120000000000000000e+02 8.962724244908378823e-01
1.130000000000000000e+02 8.856252011647897104e-01
1.140000000000000000e+02 8.752455208799898578e-01
1.150000000000000000e+02 8.757464848542760860e-01
1.160000000000000000e+02 8.760027938613910159e-01
1.170000000000000000e+02 8.639450865349985742e-01
1.180000000000000000e+02 8.686695427062528507e-01
1.190000000000000000e+02 8.712182770980156921e-01
1.200000000000000000e+02 8.704277369234385553e-01
1.210000000000000000e+02 8.767028319345144816e-01
1.220000000000000000e+02 8.994738627057117242e-01
1.230000000000000000e+02 9.026944990833634108e-01
1.240000000000000000e+02 9.010736893372672807e-01
1.250000000000000000e+02 8.974339896838104957e-01
1.260000000000000000e+02 8.993849843396373167e-01
1.270000000000000000e+02 8.946585088801101149e-01
1.280000000000000000e+02 9.102171215050286479e-01
1.290000000000000000e+02 9.217935370034686660e-01
1.300000000000000000e+02 9.233971378963020671e-01
1.310000000000000000e+02 9.220466031524220396e-01
1.320000000000000000e+02 9.301257752953776547e-01
1.330000000000000000e+02 9.288120314814046763e-01
1.340000000000000000e+02 9.297758579078452268e-01
1.350000000000000000e+02 9.228170680056752007e-01
