0.000000000000000000e+00 4.116773991972863533e-01
1.000000000000000000e+00 4.347242912648931479e-01
2.000000000000000000e+00 4.646903806642209145e-01
3.000000000000000000e+00 4.805085584031946744e-01
4.000000000000000000e+00 5.054098280050979275e-01
5.000000000000000000e+00 5.296572368369609762e-01
6.000000000000000000e+00 5.394765274891459850e-01
7.000000000000000000e+00 5.662619600972208511e-01
8.000000000000000000e+00 5.966848064524565842e-01
9.000000000000000000e+00 6.291951981706294106e-01
1.000000000000000000e+01 6.595504991455803934e-01
1.100000000000000000e+01 7.026236483602846805e-01
1.200000000000000000e+01 7.124670038033068531e-01
1.300000000000000000e+01 7.420332468049622987e-01
1.400000000000000000e+01 7.716836777226483424e-01
1.500000000000000000e+01 8.010314062488074205e-01
1.600000000000000000e+01 7.823232971381327561e-01
1.700000000000000000e+01 7.668130289686053702e-01
1.800000000000000000e+01 7.749789924622328963e-01
1.900000000000000000e+01 7.790958488966636120e-01
2.000000000000000000e+01 7.747680688095183177e-01
2.100000000000000000e+01 8.003422274391159830e-01
2.200000000000000000e+01 7.917206949427253448e-01
2.300000000000000000e+01 7.800237089037617144e-01
2.400000000000000000e+01 7.713865064749758638e-01
2.500000000000000000e+01 7.638404790347327333e-01
2.600000000000000000e+01 7.559093736201893954e-01
2.700000000000000000e+01 7.682721021980232212e-01
2.800000000000000000e+01 7.652863259232187687e-01
2.900000000000000000e+01 7.535007650865723772e-01
3.000000000000000000e+01 7.401653736570940056e-01
3.100000000000000000e+01 7.535633145687877787e-01
3.200000000000000000e+01 7.688268590999193242e-01
3.300000000000000000e+01 7.676480100029295928e-01
3.400000000000000000e+01 7.551158740504302358e-01
3.500000000000000000e+01 7.626282975082648852e-01
3.600000000000000000e+01 7.593494060574611515e-01
3.700000000000000000e+01 7.676957588472580474e-01
3.800000000000000000e+01 7.850590672390119762e-01
3.900000000000000000e+01 7.881850199718648531e-01
4.000000000000000000e+01 7.949829833121792033e-01
4.100000000000000000e+01 7.932285321531495903e-01
4.200000000000000000e+01 8.010323193152190102e-01
4.300000000000000000e+01 7.974232185890092195e-01
4.400000000000000000e+01 8.030009609589809916e-01
4.500000000000000000e+01 8.124249698604474323e-01
4.600000000000000000e+01 8.187083329743547466e-01
4.700000000000000000e+01 8.188666573327503251e-01
4.800000000000000000e+01 8.268231552569127452e-01
4.900000000000000000e+01 8.379543585111594028e-01
5.000000000000000000e+01 8.302667922219697516e-01
5.100000000000000000e+01 8.174987476844891576e-01
5.200000000000000000e+01 8.131068512712229523e-01
5.300000000000000000e+01 8.157398698244830992e-01
5.400000000000000000e+01 8.240087975303798107e-01
5.500000000000000000e+01 8.103224569322621251e-01
5.600000000000000000e+01 8.182939684271559599e-01
5.700000000000000000e+01 8.141348087444224557e-01
5.800000000000000000e+01 8.090270485992596683e-01
5.900000000000000000e+01 8.066298879787718867e-01
6.000000000000000000e+01 8.010831935540855264e-01
6.100000000000000000e+01 7.932487555165478321e-01
6.200000000000000000e+01 7.939856618878220473e-01
6.300000000000000000e+01 7.817789275283517636e-01
6.400000000000000000e+01 7.800693736980817139e-01
6.500000000000000000e+01 7.905301320947272226e-01
6.600000000000000000e+01 8.044626259823194347e-01
6.700000000000000000e+01 7.855921897218073324e-01
6.800000000000000000e+01 7.617481117114253131e-01
6.900000000000000000e+01 7.619007879419180673e-01
7.000000000000000000e+01 7.607758143206265755e-01
7.100000000000000000e+01 7.616988632286949557e-01
7.200000000000000000e+01 7.577057356776578656e-01
7.300000000000000000e+01 7.706249081756065822e-01
7.400000000000000000e+01 7.804786733880993976e-01
7.500000000000000000e+01 7.944227342623418897e-01
7.600000000000000000e+01 8.058717357602505071e-01
7.700000000000000000e+01 8.060297314615946229e-01
7.800000000000000000e+01 8.167249678496529830e-01
7.900000000000000000e+01 8.172381752075886796e-01
8.000000000000000000e+01 8.182108571795646546e-01
8.100000000000000000e+01 8.176884434220035303e-01
8.200000000000000000e+01 8.370248190401394783e-01
8.300000000000000000e+01 8.487277058977962252e-01
8.400000000000000000e+01 8.524308509631670638e-01
8.500000000000000000e+01 8.619161641064535528e-01
8.600000000000000000e+01 8.580026613020673709e-01
8.700000000000000000e+01 8.532460356559369297e-01
8.800000000000000000e+01 8.384507103493036295e-01
8.900000000000000000e+01 8.253049188236047939e-01
9.000000000000000000e+01 8.150959357749436585e-01
9.100000000000000000e+01 8.082683050793904034e-01
9.200000000000000000e+01 7.974874670548446343e-01
9.300000000000000000e+01 7.849783927537593575e-01
9.400000000000000000e+01 7.930920826379422861e-01
9.500000000000000000e+01 7.932436959410946731e-01
9.600000000000000000e+01 8.000853113426080743e-01
9.700000000000000000e+01 8.040730933747568532e-01
9.800000000000000000e+01 8.112260563711117811e-01
9.900000000000000000e+01 7.901108212327911939e-01
1.000000000000000000e+02 7.747353328940079775e-01
1.010000000000000000e+02 7.653360519574986531e-01
1.020000000000000000e+02 7.511012455594247017e-01
1.030000000000000000e+02 7.537260256587743346e-01
1.040000000000000000e+02 7.458090171764454324e-01
1.050000000000000000e+02 7.380255861377497117e-01
1.060000000000000000e+02 7.201008505801554938e-01
1.070000000000000000e+02 7.154455756053932358e-01
1.080000000000000000e+02 7.026272954860982578e-01
1.090000000000000000e+02 6.738734675673115904e-01
1.100000000000000000e+02 6.619500738810728535e-01
1.110000000000000000e+02 6.448366405797067991e-01
1.120000000000000000e+02 6.050503159406269704e-01
1.130000000000000000e+02 5.854945826121986663e-01
1.140000000000000000e+02 5.943289022032990365e-01
1.150000000000000000e+02 6.024219489006730210e-01
1.160000000000000000e+02 5.932453483205194500e-01
1.170000000000000000e+02 6.001251781832813714e-01
1.180000000000000000e+02 5.946932088542428163e-01
1.190000000000000000e+02 5.926082124514457927e-01
1.200000000000000000e+02 5.933369879114126499e-01
1.210000000000000000e+02 5.870576206798825414e-01
1.220000000000000000e+02 5.846406263175152329e-01
1.230000000000000000e+02 5.955170691920578241e-01
1.240000000000000000e+02 6.032558964957963621e-01
1.250000000000000000e+02 5.973309715643686513e-01
1.260000000000000000e+02 5.916011859123369021e-01
1.270000000000000000e+02 6.181113377990655744e-01
1.280000000000000000e+02 6.033211092627805971e-01
1.290000000000000000e+02 6.055135344942261799e-01
1.300000000000000000e+02 5.927840438866683881e-01
1.310000000000000000e+02 6.023076847691262170e-01
1.320000000000000000e+02 6.100465038668293483e-01
1.330000000000000000e+02 6.025566318507747932e-01
1.340000000000000000e+02 6.116355938712518814e-01
1.350000000000000000e+02 6.076588641714856243e-01
