0.000000000000000000e+00 -8.511000000000000227e+02
3.125000000000000065e-04 -6.871000000000000227e+02
6.250000000000000130e-04 -1.169999999999999929e+01
9.374999999999999653e-04 8.432999999999999545e+02
1.250000000000000026e-03 3.826000000000000227e+02
1.562500000000000087e-03 -5.622000000000000455e+02
1.874999999999999931e-03 -5.387999999999999545e+02
2.187500000000000208e-03 4.763000000000000114e+02
2.500000000000000052e-03 6.637000000000000455e+02
2.812499999999999896e-03 -8.590000000000000568e+01
3.125000000000000173e-03 -5.856000000000000227e+02
3.437500000000000017e-03 -1.288000000000000114e+02
3.749999999999999861e-03 -3.123000000000000114e+02
4.062500000000000139e-03 6.363999999999999773e+02
4.375000000000000416e-03 5.079999999999999716e+01
4.687499999999999827e-03 1.288000000000000114e+02
5.000000000000000104e-03 -1.561999999999999886e+02
5.312500000000000382e-03 -3.006000000000000227e+02
5.624999999999999792e-03 1.523000000000000114e+02
5.937500000000000069e-03 2.146999999999999886e+02
6.250000000000000347e-03 1.523000000000000114e+02
6.562499999999999757e-03 7.420000000000000284e+01
6.875000000000000035e-03 -2.185999999999999943e+02
7.187500000000000312e-03 -2.499000000000000057e+02
7.499999999999999722e-03 2.146999999999999886e+02
7.812500000000000000e-03 3.123000000000000114e+02
8.125000000000000278e-03 -9.370000000000000284e+01
8.437500000000000555e-03 -2.499000000000000057e+02
8.750000000000000833e-03 1.795999999999999943e+02
9.062499999999999375e-03 -1.640000000000000000e+02
9.374999999999999653e-03 3.240000000000000000e+02
9.687499999999999931e-03 -5.470000000000000284e+01
1.000000000000000021e-02 -1.718000000000000114e+02
1.031250000000000049e-02 -3.899999999999999911e+00
1.062500000000000076e-02 -2.655000000000000000e+02
1.093750000000000104e-02 2.616000000000000227e+02
1.124999999999999958e-02 1.288000000000000114e+02
1.156249999999999986e-02 1.169999999999999929e+01
1.187500000000000014e-02 -5.860000000000000142e+01
1.218750000000000042e-02 -4.646000000000000227e+02
1.250000000000000069e-02 6.558999999999999773e+02
1.281250000000000097e-02 2.966999999999999886e+02
1.312499999999999951e-02 9.370000000000000284e+01
1.343749999999999979e-02 -3.436000000000000227e+02
1.375000000000000007e-02 -4.060000000000000000e+02
1.406250000000000035e-02 2.966999999999999886e+02
1.437500000000000062e-02 4.411999999999999886e+02
1.468750000000000090e-02 1.092999999999999972e+02
1.499999999999999944e-02 -2.146999999999999886e+02
1.531249999999999972e-02 -3.475000000000000000e+02
1.562500000000000000e-02 1.559999999999999964e+01
1.593750000000000028e-02 3.123000000000000114e+02
1.625000000000000056e-02 4.679999999999999716e+01
1.656250000000000083e-02 3.670000000000000000e+02
1.687500000000000111e-02 -7.420000000000000284e+01
1.718750000000000139e-02 -3.513999999999999773e+02
1.750000000000000167e-02 3.083999999999999773e+02
1.781250000000000194e-02 1.092999999999999972e+02
1.812499999999999875e-02 2.185999999999999943e+02
1.843749999999999903e-02 8.979999999999999716e+01
1.874999999999999931e-02 -5.622000000000000455e+02
1.906249999999999958e-02 1.405000000000000000e+02
1.937499999999999986e-02 1.365999999999999943e+02
1.968750000000000014e-02 2.108000000000000114e+02
2.000000000000000042e-02 3.318000000000000114e+02
2.031250000000000069e-02 -3.475000000000000000e+02
2.062500000000000097e-02 -1.913000000000000114e+02
2.093750000000000125e-02 3.631000000000000227e+02
2.125000000000000153e-02 2.225000000000000000e+02
2.156250000000000180e-02 -4.289999999999999858e+01
2.187500000000000208e-02 -1.365999999999999943e+02
2.218749999999999889e-02 5.470000000000000284e+01
2.249999999999999917e-02 3.396000000000000227e+02
2.281249999999999944e-02 7.420000000000000284e+01
2.312499999999999972e-02 2.030000000000000000e+02
2.343750000000000000e-02 -1.169999999999999929e+01
2.375000000000000028e-02 -4.176999999999999886e+02
2.406250000000000056e-02 2.771999999999999886e+02
2.437500000000000083e-02 3.900000000000000000e+01
2.468750000000000111e-02 4.528999999999999773e+02
2.500000000000000139e-02 -1.561999999999999886e+02
2.531250000000000167e-02 -1.718000000000000114e+02
2.562500000000000194e-02 -4.679999999999999716e+01
2.593750000000000222e-02 2.108000000000000114e+02
2.624999999999999903e-02 4.216000000000000227e+02
2.656249999999999931e-02 -6.640000000000000568e+01
2.687499999999999958e-02 -3.278999999999999773e+02
2.718749999999999986e-02 7.809999999999999432e+01
2.750000000000000014e-02 1.210000000000000000e+02
2.781250000000000042e-02 2.850000000000000000e+02
2.812500000000000069e-02 2.655000000000000000e+02
2.843750000000000097e-02 -1.169999999999999929e+01
2.875000000000000125e-02 -1.523000000000000114e+02
2.906250000000000153e-02 -1.756999999999999886e+02
2.937500000000000180e-02 2.733000000000000114e+02
2.968750000000000208e-02 2.146999999999999886e+02
2.999999999999999889e-02 -3.900000000000000000e+01
3.031249999999999917e-02 2.771999999999999886e+02
3.062499999999999944e-02 -3.240000000000000000e+02
3.093749999999999972e-02 -2.264000000000000057e+02
