0.000000000000000000e+00 8.901000000000000227e+02
3.125000000000000065e-04 8.822999999999999545e+02
6.250000000000000130e-04 9.212999999999999545e+02
9.374999999999999653e-04 9.487000000000000455e+02
1.250000000000000026e-03 8.316000000000000227e+02
1.562500000000000087e-03 8.706000000000000227e+02
1.874999999999999931e-03 7.378999999999999773e+02
2.187500000000000208e-03 8.276000000000000227e+02
2.500000000000000052e-03 7.652000000000000455e+02
2.812499999999999896e-03 7.612999999999999545e+02
3.125000000000000173e-03 7.143999999999999773e+02
3.437500000000000017e-03 1.089200000000000045e+03
3.749999999999999861e-03 8.237000000000000455e+02
4.062500000000000139e-03 7.535000000000000000e+02
4.375000000000000416e-03 8.745000000000000000e+02
4.687499999999999827e-03 8.978999999999999773e+02
5.000000000000000104e-03 9.096000000000000227e+02
5.312500000000000382e-03 8.511000000000000227e+02
5.624999999999999792e-03 7.730000000000000000e+02
5.937500000000000069e-03 8.316000000000000227e+02
6.250000000000000347e-03 7.612999999999999545e+02
6.562499999999999757e-03 8.081000000000000227e+02
6.875000000000000035e-03 9.798999999999999773e+02
7.187500000000000312e-03 9.916000000000000227e+02
7.499999999999999722e-03 8.355000000000000000e+02
7.812500000000000000e-03 9.916000000000000227e+02
8.125000000000000278e-03 1.007200000000000045e+03
8.437500000000000555e-03 9.331000000000000227e+02
8.750000000000000833e-03 1.108700000000000045e+03
9.062499999999999375e-03 1.026799999999999955e+03
9.374999999999999653e-03 9.135000000000000000e+02
9.687499999999999931e-03 9.682000000000000455e+02
1.000000000000000021e-02 1.007200000000000045e+03
1.031250000000000049e-02 1.097000000000000000e+03
1.062500000000000076e-02 1.058000000000000000e+03
1.093750000000000104e-02 9.798999999999999773e+02
1.124999999999999958e-02 9.877000000000000455e+02
1.156249999999999986e-02 1.108700000000000045e+03
1.187500000000000014e-02 1.058000000000000000e+03
1.218750000000000042e-02 1.303900000000000091e+03
1.250000000000000069e-02 1.393700000000000045e+03
1.281250000000000097e-02 1.077500000000000000e+03
1.312499999999999951e-02 1.268799999999999955e+03
1.343749999999999979e-02 1.245400000000000091e+03
1.375000000000000007e-02 1.237599999999999909e+03
1.406250000000000035e-02 1.241500000000000000e+03
1.437500000000000062e-02 1.171200000000000045e+03
1.468750000000000090e-02 1.147799999999999955e+03
1.499999999999999944e-02 1.167299999999999955e+03
1.531249999999999972e-02 1.237599999999999909e+03
1.562500000000000000e-02 1.331299999999999955e+03
1.593750000000000028e-02 1.206299999999999955e+03
1.625000000000000056e-02 1.198500000000000000e+03
1.656250000000000083e-02 1.249299999999999955e+03
1.687500000000000111e-02 1.327400000000000091e+03
1.718750000000000139e-02 1.202400000000000091e+03
1.750000000000000167e-02 1.335200000000000045e+03
1.781250000000000194e-02 1.179000000000000000e+03
1.812499999999999875e-02 1.218000000000000000e+03
1.843749999999999903e-02 1.315599999999999909e+03
1.874999999999999931e-02 1.218000000000000000e+03
1.906249999999999958e-02 1.175099999999999909e+03
1.937499999999999986e-02 1.163400000000000091e+03
1.968750000000000014e-02 1.136099999999999909e+03
2.000000000000000042e-02 1.038500000000000000e+03
2.031250000000000069e-02 1.100900000000000091e+03
2.062500000000000097e-02 1.104799999999999955e+03
2.093750000000000125e-02 1.147799999999999955e+03
2.125000000000000153e-02 1.136099999999999909e+03
2.156250000000000180e-02 9.721000000000000227e+02
2.187500000000000208e-02 1.085299999999999955e+03
2.218749999999999889e-02 1.061900000000000091e+03
2.249999999999999917e-02 8.706000000000000227e+02
2.281249999999999944e-02 9.565000000000000000e+02
2.312499999999999972e-02 1.143900000000000091e+03
2.343750000000000000e-02 1.015000000000000000e+03
2.375000000000000028e-02 9.837999999999999545e+02
2.406250000000000056e-02 1.104799999999999955e+03
2.437500000000000083e-02 9.642999999999999545e+02
2.468750000000000111e-02 1.081400000000000091e+03
2.500000000000000139e-02 9.292000000000000455e+02
2.531250000000000167e-02 9.642999999999999545e+02
2.562500000000000194e-02 1.015000000000000000e+03
2.593750000000000222e-02 8.276000000000000227e+02
2.624999999999999903e-02 8.120000000000000000e+02
2.656249999999999931e-02 9.057000000000000455e+02
2.687499999999999958e-02 9.447999999999999545e+02
2.718749999999999986e-02 8.940000000000000000e+02
2.750000000000000014e-02 9.603999999999999773e+02
2.781250000000000042e-02 8.237000000000000455e+02
2.812500000000000069e-02 7.378999999999999773e+02
2.843750000000000097e-02 9.916000000000000227e+02
2.875000000000000125e-02 8.511000000000000227e+02
2.906250000000000153e-02 8.706000000000000227e+02
2.937500000000000180e-02 8.511000000000000227e+02
2.968750000000000208e-02 7.417999999999999545e+02
2.999999999999999889e-02 7.963999999999999773e+02
3.031249999999999917e-02 7.691000000000000227e+02
3.062499999999999944e-02 8.627999999999999545e+02
3.093749999999999972e-02 8.120000000000000000e+02
