1.000000000000000000e+00 1.861802999999999884e+05
2.000000000000000000e+00 1.204482283583079698e+04
3.000000000000000000e+00 1.283756095391914459e+04
4.000000000000000000e+00 1.286806370978395171e+04
5.000000000000000000e+00 1.302342770464733621e+04
6.000000000000000000e+00 1.279536396325898568e+04
7.000000000000000000e+00 1.403428321199736638e+04
8.000000000000000000e+00 1.354812144192444975e+04
9.000000000000000000e+00 1.400985430143517806e+04
1.000000000000000000e+01 1.395464261681523021e+04
1.100000000000000000e+01 1.464774137859075199e+04
1.200000000000000000e+01 1.313949593153054775e+04
1.300000000000000000e+01 1.472331858285735871e+04
1.400000000000000000e+01 1.437616827297922828e+04
1.500000000000000000e+01 1.436220100662789264e+04
1.600000000000000000e+01 1.462782030395070797e+04
1.700000000000000000e+01 1.572602172022024388e+04
1.800000000000000000e+01 1.654924113945938007e+04
1.900000000000000000e+01 1.733159248434923575e+04
2.000000000000000000e+01 1.692617066981750031e+04
2.100000000000000000e+01 1.769105094233289128e+04
2.200000000000000000e+01 1.850356067066831383e+04
2.300000000000000000e+01 2.082506431351691208e+04
2.400000000000000000e+01 2.117284407808249307e+04
2.500000000000000000e+01 2.118941528525973990e+04
2.600000000000000000e+01 2.299899715483056934e+04
2.700000000000000000e+01 2.487669390030244176e+04
2.800000000000000000e+01 2.776882685305817358e+04
2.900000000000000000e+01 2.903085874020058691e+04
3.000000000000000000e+01 3.138637248480287963e+04
3.100000000000000000e+01 3.445196710205491399e+04
3.200000000000000000e+01 3.876547320383969782e+04
3.300000000000000000e+01 4.372602190114755649e+04
3.400000000000000000e+01 5.123669523933748860e+04
3.500000000000000000e+01 6.313086487938274513e+04
3.600000000000000000e+01 7.749712390773992229e+04
3.700000000000000000e+01 1.064277514255692513e+05
3.800000000000000000e+01 1.693680761322352337e+05
3.900000000000000000e+01 4.099194169205301441e+05
4.000000000000000000e+01 9.101030586437793681e+05
4.100000000000000000e+01 2.134735802526912303e+05
4.200000000000000000e+01 1.215136234105728799e+05
4.300000000000000000e+01 8.365269495446175279e+04
4.400000000000000000e+01 6.476019871077837888e+04
4.500000000000000000e+01 5.091286272250962065e+04
4.600000000000000000e+01 4.237152393255307834e+04
4.700000000000000000e+01 3.726797216319676954e+04
4.800000000000000000e+01 3.183640012931558158e+04
4.900000000000000000e+01 2.949861151077754039e+04
5.000000000000000000e+01 2.495115736821032624e+04
5.100000000000000000e+01 2.229753757144093106e+04
5.200000000000000000e+01 2.101703526079842413e+04
5.300000000000000000e+01 1.886171463971846242e+04
5.400000000000000000e+01 1.739105295667573955e+04
5.500000000000000000e+01 1.792533622387837386e+04
5.600000000000000000e+01 1.605251696287842606e+04
5.700000000000000000e+01 1.483139824898874576e+04
5.800000000000000000e+01 1.411362765989203581e+04
5.900000000000000000e+01 1.347948282399999880e+04
6.000000000000000000e+01 1.196466085681300137e+04
6.100000000000000000e+01 1.264824127609839707e+04
6.200000000000000000e+01 1.002438736964144482e+04
6.300000000000000000e+01 1.246111253555837175e+04
6.400000000000000000e+01 9.642383088826270978e+03
6.500000000000000000e+01 9.310814221757813357e+03
6.600000000000000000e+01 8.772356258284204159e+03
6.700000000000000000e+01 7.205828114783399542e+03
6.800000000000000000e+01 7.666688908844736943e+03
6.900000000000000000e+01 7.206475291240503793e+03
7.000000000000000000e+01 6.480278450171109398e+03
7.100000000000000000e+01 6.775086117332966751e+03
7.200000000000000000e+01 5.807849078353324330e+03
7.300000000000000000e+01 5.011469302336080546e+03
7.400000000000000000e+01 4.249276049194785628e+03
7.500000000000000000e+01 3.062001186084868550e+03
7.600000000000000000e+01 2.880651978575553585e+03
7.700000000000000000e+01 7.484143250890842864e+03
7.800000000000000000e+01 4.384009975533217221e+04
7.900000000000000000e+01 3.748935217388415913e+04
8.000000000000000000e+01 1.947919221320069846e+04
8.100000000000000000e+01 1.638713252921035382e+04
8.200000000000000000e+01 1.159403962185713863e+04
8.300000000000000000e+01 1.018856130220012892e+04
8.400000000000000000e+01 1.043908757552980023e+04
8.500000000000000000e+01 8.773752291614031492e+03
8.600000000000000000e+01 8.103379631311014236e+03
8.700000000000000000e+01 8.213746982808524990e+03
8.800000000000000000e+01 8.171718858100552097e+03
8.900000000000000000e+01 8.567939420029504618e+03
9.000000000000000000e+01 8.145995916811119059e+03
9.100000000000000000e+01 7.086189511095251873e+03
9.200000000000000000e+01 8.163334990080218631e+03
9.300000000000000000e+01 6.861944312141349656e+03
9.400000000000000000e+01 6.818317361699431785e+03
9.500000000000000000e+01 7.187089118449483067e+03
9.600000000000000000e+01 7.234247816710801089e+03
9.700000000000000000e+01 7.916498113693586674e+03
9.800000000000000000e+01 6.915544161051627270e+03
9.900000000000000000e+01 7.367517320262254543e+03
1.000000000000000000e+02 6.940695589095638752e+03
1.010000000000000000e+02 8.119268378641894742e+03
1.020000000000000000e+02 7.151078218703491075e+03
1.030000000000000000e+02 5.652312887881762435e+03
1.040000000000000000e+02 5.133711554231611444e+03
1.050000000000000000e+02 5.089312363431357880e+03
1.060000000000000000e+02 5.426291615069474574e+03
1.070000000000000000e+02 6.731109857191106130e+03
1.080000000000000000e+02 4.718727761770039251e+03
1.090000000000000000e+02 4.562008630797773549e+03
1.100000000000000000e+02 5.771231168405045537e+03
1.110000000000000000e+02 4.641251364325142276e+03
1.120000000000000000e+02 5.191629925959610773e+03
1.130000000000000000e+02 5.984442006506838879e+03
1.140000000000000000e+02 5.200783521023766298e+03
1.150000000000000000e+02 4.975034921075457532e+03
1.160000000000000000e+02 5.605690421023652561e+03
1.170000000000000000e+02 3.265770234139533568e+04
1.180000000000000000e+02 8.695268804942812494e+03
1.190000000000000000e+02 8.604332855397624371e+03
1.200000000000000000e+02 7.301967925822719735e+03
1.210000000000000000e+02 7.918839084141788589e+03
1.220000000000000000e+02 9.091036588040766219e+03
1.230000000000000000e+02 5.733118159179028225e+03
1.240000000000000000e+02 6.107701228723248278e+03
1.250000000000000000e+02 9.267369609971005048e+03
1.260000000000000000e+02 7.202038979041719358e+03
1.270000000000000000e+02 1.017553904639810571e+04
1.280000000000000000e+02 8.320876023187172905e+03
1.290000000000000000e+02 8.924809649659515344e+03
1.300000000000000000e+02 8.304406130897310504e+03
1.310000000000000000e+02 1.188023277595609215e+04
1.320000000000000000e+02 1.675658959853630950e+04
1.330000000000000000e+02 6.976969764093183585e+03
1.340000000000000000e+02 8.712416812875042524e+03
1.350000000000000000e+02 9.592584420027127635e+03
1.360000000000000000e+02 1.302354728326849363e+04
1.370000000000000000e+02 1.584910751052928936e+04
1.380000000000000000e+02 2.206477181512743118e+04
1.390000000000000000e+02 3.514280226336143824e+04
1.400000000000000000e+02 1.009775687722033617e+05
1.410000000000000000e+02 5.832361166844120453e+04
1.420000000000000000e+02 1.859637618449618822e+04
1.430000000000000000e+02 1.128671438379509163e+04
1.440000000000000000e+02 6.771141340605881851e+03
1.450000000000000000e+02 4.218837597918307438e+03
1.460000000000000000e+02 4.640578083952054840e+03
1.470000000000000000e+02 2.724730093331560056e+03
1.480000000000000000e+02 6.758368789673717401e+03
1.490000000000000000e+02 8.987172969323673897e+03
1.500000000000000000e+02 1.222644698378412431e+04
1.510000000000000000e+02 9.730851891614589476e+03
1.520000000000000000e+02 1.093144792307461466e+04
1.530000000000000000e+02 1.913191466945879074e+04
1.540000000000000000e+02 3.095310847760281831e+04
1.550000000000000000e+02 6.334937667631609656e+04
1.560000000000000000e+02 2.088123126539491641e+05
1.570000000000000000e+02 3.750050985909984593e+04
1.580000000000000000e+02 2.512991560205164933e+04
1.590000000000000000e+02 1.550566751345165903e+04
1.600000000000000000e+02 1.051804273594440019e+04
1.610000000000000000e+02 5.269264453163623330e+03
1.620000000000000000e+02 6.433370876811374728e+03
1.630000000000000000e+02 6.823981898846696822e+03
1.640000000000000000e+02 4.466698910501157116e+03
1.650000000000000000e+02 3.690848157365338466e+03
1.660000000000000000e+02 3.290848442800374414e+03
1.670000000000000000e+02 9.823478666198317342e+02
1.680000000000000000e+02 1.764427252087278475e+03
1.690000000000000000e+02 2.704480079953167660e+03
1.700000000000000000e+02 9.104507308902072964e+02
1.710000000000000000e+02 1.057341286635231154e+04
1.720000000000000000e+02 2.314297802530094941e+03
1.730000000000000000e+02 2.257191084840611893e+03
1.740000000000000000e+02 5.852520101840672169e+02
1.750000000000000000e+02 1.411692809494624953e+03
1.760000000000000000e+02 1.709628186842660170e+03
1.770000000000000000e+02 1.648008991372095807e+03
1.780000000000000000e+02 3.982220453148549950e+03
1.790000000000000000e+02 5.273350558014123089e+04
1.800000000000000000e+02 3.931382791565823027e+03
1.810000000000000000e+02 3.226954235336180318e+03
1.820000000000000000e+02 4.277607699217162008e+03
1.830000000000000000e+02 2.143995488906145056e+03
1.840000000000000000e+02 1.344717950720160616e+03
1.850000000000000000e+02 3.628473925498120025e+03
1.860000000000000000e+02 3.170588893526219636e+03
1.870000000000000000e+02 3.582975928390084391e+03
1.880000000000000000e+02 6.227216143689154705e+03
1.890000000000000000e+02 7.415551264993506265e+03
1.900000000000000000e+02 1.076844754235579603e+04
1.910000000000000000e+02 1.264403693260929867e+04
1.920000000000000000e+02 1.697881388459660957e+04
1.930000000000000000e+02 3.287829642930011323e+04
1.940000000000000000e+02 8.700757170618283271e+04
1.950000000000000000e+02 7.623092633536193171e+04
1.960000000000000000e+02 3.917608140864960296e+04
1.970000000000000000e+02 2.916528793313025017e+04
1.980000000000000000e+02 1.809518411709157954e+04
1.990000000000000000e+02 1.717873314179244335e+04
2.000000000000000000e+02 9.399490990642747420e+03
2.010000000000000000e+02 1.034551073310910033e+04
2.020000000000000000e+02 3.367694854874878365e+04
2.030000000000000000e+02 1.774750444514219635e+04
2.040000000000000000e+02 5.510458007275712589e+03
2.050000000000000000e+02 1.297949674350092391e+04
2.060000000000000000e+02 1.200837103709408439e+04
2.070000000000000000e+02 3.636734192442404947e+03
2.080000000000000000e+02 5.558064053908443384e+03
2.090000000000000000e+02 1.087847653129040737e+04
2.100000000000000000e+02 2.875322732033293869e+04
2.110000000000000000e+02 3.780890248462453201e+03
2.120000000000000000e+02 1.132370298493369228e+04
2.130000000000000000e+02 9.119841007400858871e+03
2.140000000000000000e+02 4.087189185232910859e+03
2.150000000000000000e+02 1.293201910941175993e+04
2.160000000000000000e+02 1.541911298041064765e+04
2.170000000000000000e+02 2.597179757209285526e+04
2.180000000000000000e+02 8.320693033177539473e+04
2.190000000000000000e+02 1.172670058394789157e+04
2.200000000000000000e+02 4.710355744387447885e+03
2.210000000000000000e+02 6.248718054765737179e+03
2.220000000000000000e+02 4.952617634039292170e+03
2.230000000000000000e+02 5.212104458434201661e+03
2.240000000000000000e+02 3.141496604698463671e+03
2.250000000000000000e+02 2.630070403772716418e+03
2.260000000000000000e+02 1.799176061850003862e+03
2.270000000000000000e+02 1.942427915886896244e+03
2.280000000000000000e+02 1.874129640777369104e+03
2.290000000000000000e+02 2.472455062005522450e+03
2.300000000000000000e+02 8.474663979695840226e+02
2.310000000000000000e+02 4.602359142429245367e+03
2.320000000000000000e+02 7.431628269188153354e+03
2.330000000000000000e+02 5.063347374920660513e+04
2.340000000000000000e+02 9.183222259866683089e+03
2.350000000000000000e+02 6.616066855230257715e+03
2.360000000000000000e+02 1.622347994843152264e+03
2.370000000000000000e+02 3.008760634590784775e+03
2.380000000000000000e+02 3.310146115712470873e+03
2.390000000000000000e+02 1.014102002769453861e+03
2.400000000000000000e+02 1.235689939373795369e+03
2.410000000000000000e+02 8.116194903399537907e+03
2.420000000000000000e+02 1.416344049438426055e+03
2.430000000000000000e+02 1.370569895535061505e+03
2.440000000000000000e+02 2.188234060157304611e+03
2.450000000000000000e+02 1.166067546908707300e+03
2.460000000000000000e+02 1.433723248735220750e+03
2.470000000000000000e+02 2.609048155962178043e+03
2.480000000000000000e+02 7.623986192739796024e+03
2.490000000000000000e+02 7.377205743709257149e+03
2.500000000000000000e+02 1.542795904803342637e+03
2.510000000000000000e+02 4.892954955399496612e+03
2.520000000000000000e+02 4.273467989830811348e+03
2.530000000000000000e+02 6.957444778803703684e+02
2.540000000000000000e+02 9.023868576812610627e+02
2.550000000000000000e+02 2.468395520811249753e+03
2.560000000000000000e+02 2.006158283739459421e+03
2.570000000000000000e+02 1.078548814044040000e+03
2.580000000000000000e+02 1.385723602271603795e+03
2.590000000000000000e+02 7.479324368248792325e+02
2.600000000000000000e+02 2.041493284914297419e+03
2.610000000000000000e+02 4.599103961716584308e+03
2.620000000000000000e+02 2.892078713042435538e+03
2.630000000000000000e+02 3.315496994889451344e+03
2.640000000000000000e+02 2.267320571562078840e+03
2.650000000000000000e+02 4.167227823034449102e+03
2.660000000000000000e+02 3.788945739151469297e+03
2.670000000000000000e+02 2.320524832327817876e+03
2.680000000000000000e+02 3.057476384136110937e+03
2.690000000000000000e+02 2.804026941147810248e+03
2.700000000000000000e+02 2.585613877328053150e+03
2.710000000000000000e+02 6.721396154073005164e+03
2.720000000000000000e+02 1.927236611388669553e+04
2.730000000000000000e+02 4.242797244712388419e+03
2.740000000000000000e+02 7.080452780998714388e+02
2.750000000000000000e+02 6.820328957731242099e+02
2.760000000000000000e+02 3.266112633438523062e+03
2.770000000000000000e+02 4.668800585745826538e+03
2.780000000000000000e+02 2.936770358173015666e+03
2.790000000000000000e+02 2.346826205640918033e+03
2.800000000000000000e+02 8.406119167202643439e+03
2.810000000000000000e+02 2.393741165352799271e+03
2.820000000000000000e+02 2.191487514998766528e+03
2.830000000000000000e+02 5.264017714682386213e+02
2.840000000000000000e+02 1.721012154633419186e+03
2.850000000000000000e+02 2.054204419119892464e+03
2.860000000000000000e+02 8.100882845981917626e+02
2.870000000000000000e+02 4.468450784050783113e+03
2.880000000000000000e+02 2.470784837090356177e+03
2.890000000000000000e+02 5.005075344240844061e+03
2.900000000000000000e+02 3.357106825978626148e+03
2.910000000000000000e+02 2.840537675066119391e+03
2.920000000000000000e+02 3.782865852306109446e+03
2.930000000000000000e+02 4.672183234000354787e+03
2.940000000000000000e+02 3.381453835151482508e+03
2.950000000000000000e+02 1.359647232087482735e+04
2.960000000000000000e+02 2.331012863345767983e+03
2.970000000000000000e+02 1.960439892086148575e+03
2.980000000000000000e+02 1.064939852981609647e+03
2.990000000000000000e+02 3.242178006180263310e+03
3.000000000000000000e+02 2.680527761334062689e+03
3.010000000000000000e+02 1.730360611217848373e+03
3.020000000000000000e+02 1.654775452739024786e+03
3.030000000000000000e+02 2.153951232889938183e+03
3.040000000000000000e+02 2.178610902191525838e+03
3.050000000000000000e+02 1.546298460880155744e+03
3.060000000000000000e+02 1.229604933983869842e+03
3.070000000000000000e+02 2.287656391765609897e+03
3.080000000000000000e+02 1.017500227029612233e+03
3.090000000000000000e+02 2.276300367676104997e+03
3.100000000000000000e+02 2.937555730191134899e+03
3.110000000000000000e+02 6.161526856184063945e+03
3.120000000000000000e+02 3.636481890365478648e+03
3.130000000000000000e+02 3.853187374652715789e+03
3.140000000000000000e+02 2.602359424997238420e+03
3.150000000000000000e+02 2.013788178980722250e+03
3.160000000000000000e+02 4.937933729051801492e+03
3.170000000000000000e+02 3.006907174024782307e+03
3.180000000000000000e+02 4.935682623641215287e+03
3.190000000000000000e+02 2.705344021004508249e+03
3.200000000000000000e+02 2.799137079110864761e+02
3.210000000000000000e+02 1.033145465964995992e+03
3.220000000000000000e+02 1.405542285474288747e+03
3.230000000000000000e+02 2.350261635431321338e+03
3.240000000000000000e+02 9.315632927658563176e+02
3.250000000000000000e+02 5.596777795496221870e+02
3.260000000000000000e+02 6.243687973949126899e+03
3.270000000000000000e+02 1.217632548702003078e+03
3.280000000000000000e+02 7.984880026709108733e+02
3.290000000000000000e+02 7.431566915409729290e+02
3.300000000000000000e+02 2.387822211571007301e+03
3.310000000000000000e+02 2.661679091107373097e+03
3.320000000000000000e+02 1.388983298423943324e+03
3.330000000000000000e+02 4.974473065014248277e+03
3.340000000000000000e+02 1.815498932636370955e+04
3.350000000000000000e+02 3.828524207918075717e+03
3.360000000000000000e+02 5.271251162073278465e+03
3.370000000000000000e+02 4.319863781450016177e+03
3.380000000000000000e+02 6.059908008499955940e+02
3.390000000000000000e+02 6.986121007357421149e+03
3.400000000000000000e+02 1.936480077931498499e+03
3.410000000000000000e+02 9.522428066167082079e+02
3.420000000000000000e+02 9.570084741774413487e+03
3.430000000000000000e+02 4.355393353876916080e+03
3.440000000000000000e+02 1.079150808271165943e+03
3.450000000000000000e+02 1.782383299835015350e+03
3.460000000000000000e+02 1.455758926467381798e+03
3.470000000000000000e+02 5.023186629406587599e+03
3.480000000000000000e+02 4.679864028725858589e+03
3.490000000000000000e+02 1.625608012915306244e+04
3.500000000000000000e+02 9.326320115096199515e+03
3.510000000000000000e+02 3.013563736870894445e+03
3.520000000000000000e+02 3.900863992386864538e+03
3.530000000000000000e+02 2.897196994425466528e+03
3.540000000000000000e+02 1.772465484531766833e+03
3.550000000000000000e+02 3.822831641741209751e+03
3.560000000000000000e+02 2.740465817580135081e+03
3.570000000000000000e+02 1.993274198122695088e+04
3.580000000000000000e+02 4.237278481372449278e+03
3.590000000000000000e+02 3.541621339118158176e+03
3.600000000000000000e+02 2.586733085642951210e+03
3.610000000000000000e+02 1.956546611946597295e+03
3.620000000000000000e+02 9.815319710769092580e+02
3.630000000000000000e+02 1.608351812559308883e+03
3.640000000000000000e+02 2.204190626362788862e+03
3.650000000000000000e+02 2.526359052574045108e+03
3.660000000000000000e+02 1.944588330717991312e+03
3.670000000000000000e+02 2.192158611609148466e+03
3.680000000000000000e+02 7.338597162999719785e+02
3.690000000000000000e+02 1.953988013414295892e+03
3.700000000000000000e+02 2.542917160197637713e+03
3.710000000000000000e+02 4.916582988197015993e+02
3.720000000000000000e+02 2.473033571443949768e+03
3.730000000000000000e+02 8.944560485651619501e+02
3.740000000000000000e+02 1.687674768709317277e+03
3.750000000000000000e+02 9.070877350616646027e+02
3.760000000000000000e+02 1.177923303591749345e+03
3.770000000000000000e+02 1.443257759112932035e+03
3.780000000000000000e+02 1.289663548183562170e+03
3.790000000000000000e+02 1.525903582769374907e+03
3.800000000000000000e+02 5.465384549100081131e+03
3.810000000000000000e+02 5.326067317474275114e+03
3.820000000000000000e+02 3.853888680813443557e+02
3.830000000000000000e+02 7.234476297267518930e+03
3.840000000000000000e+02 6.312203243116500744e+03
3.850000000000000000e+02 2.868343041448596978e+03
3.860000000000000000e+02 1.056325784184628901e+03
3.870000000000000000e+02 2.597777828210413645e+03
3.880000000000000000e+02 5.183321594316635128e+03
3.890000000000000000e+02 3.127705930231738421e+03
3.900000000000000000e+02 1.557207081279325621e+03
3.910000000000000000e+02 3.159028492637946215e+02
3.920000000000000000e+02 1.076163158312208907e+03
3.930000000000000000e+02 1.557584384451865390e+03
3.940000000000000000e+02 2.697158790627878261e+03
3.950000000000000000e+02 1.940188327052580689e+03
3.960000000000000000e+02 3.448053766399791584e+03
3.970000000000000000e+02 4.836626326708951638e+02
3.980000000000000000e+02 3.885991341962239403e+03
3.990000000000000000e+02 2.040814238977065997e+02
4.000000000000000000e+02 4.365531966424680377e+02
4.010000000000000000e+02 3.502553088003654011e+03
4.020000000000000000e+02 1.207246856344185744e+03
4.030000000000000000e+02 5.276111824373323316e+02
4.040000000000000000e+02 4.539335415777083654e+03
4.050000000000000000e+02 2.600753779336735988e+03
4.060000000000000000e+02 2.229354553578241848e+03
4.070000000000000000e+02 1.001286611829369122e+03
4.080000000000000000e+02 3.284515185118957561e+03
4.090000000000000000e+02 3.077829287847160231e+03
4.100000000000000000e+02 1.671409561793793728e+03
4.110000000000000000e+02 5.827740642458418733e+03
4.120000000000000000e+02 3.768548388716208137e+03
4.130000000000000000e+02 2.013435484832160682e+03
4.140000000000000000e+02 2.897534914449230655e+03
4.150000000000000000e+02 3.778380130218186878e+03
4.160000000000000000e+02 2.234521848257841611e+03
4.170000000000000000e+02 3.352500632237682566e+03
4.180000000000000000e+02 6.573701677814979121e+03
4.190000000000000000e+02 1.482879734283675816e+03
4.200000000000000000e+02 7.369098673329740450e+03
4.210000000000000000e+02 3.979398525348194653e+03
4.220000000000000000e+02 4.502793782240382825e+03
4.230000000000000000e+02 1.892749832733915127e+03
4.240000000000000000e+02 3.866145104430231640e+03
4.250000000000000000e+02 2.111523106092665330e+03
4.260000000000000000e+02 5.572302823204423476e+03
4.270000000000000000e+02 6.769812235556144515e+03
4.280000000000000000e+02 2.643144041008267322e+03
4.290000000000000000e+02 1.909939484632160429e+03
4.300000000000000000e+02 4.057986986965999222e+03
4.310000000000000000e+02 4.290736220612719080e+03
4.320000000000000000e+02 5.258795282434412002e+03
4.330000000000000000e+02 5.196961722204345278e+03
4.340000000000000000e+02 9.508170520778583523e+03
4.350000000000000000e+02 5.875479716839101457e+03
4.360000000000000000e+02 4.018079486096831715e+03
4.370000000000000000e+02 1.292137854714612786e+03
4.380000000000000000e+02 5.571752736415563731e+02
4.390000000000000000e+02 6.503474342856007979e+02
4.400000000000000000e+02 2.538785647470037929e+03
4.410000000000000000e+02 1.590770396283339778e+03
4.420000000000000000e+02 3.197385257506221024e+03
4.430000000000000000e+02 2.503399713344627799e+03
4.440000000000000000e+02 1.633789422464164772e+03
4.450000000000000000e+02 1.892696048419604722e+03
4.460000000000000000e+02 3.026688560990309611e+02
4.470000000000000000e+02 4.939347918982105512e+03
4.480000000000000000e+02 4.144250206737670851e+03
4.490000000000000000e+02 2.382465975866049575e+03
4.500000000000000000e+02 7.528641162456108304e+02
4.510000000000000000e+02 6.535735436400035496e+02
4.520000000000000000e+02 9.963400133896944908e+02
4.530000000000000000e+02 2.811315636148478461e+03
4.540000000000000000e+02 1.509987772630548761e+03
4.550000000000000000e+02 4.308276239706562592e+03
4.560000000000000000e+02 2.845808994113544031e+03
4.570000000000000000e+02 4.053989627734037185e+03
4.580000000000000000e+02 6.698467359697017855e+03
4.590000000000000000e+02 9.230057920731282138e+03
4.600000000000000000e+02 5.385064762203858663e+03
4.610000000000000000e+02 4.267298287029048879e+03
4.620000000000000000e+02 2.562523443589874205e+03
4.630000000000000000e+02 6.476283044423823867e+02
4.640000000000000000e+02 4.645373324534963103e+03
4.650000000000000000e+02 3.571531079194061022e+03
4.660000000000000000e+02 2.792406939814761245e+03
4.670000000000000000e+02 1.540316171069737265e+03
4.680000000000000000e+02 8.464661504029820662e+02
4.690000000000000000e+02 2.761428731693609734e+03
4.700000000000000000e+02 1.774028194550920716e+03
4.710000000000000000e+02 2.025118375842102978e+03
4.720000000000000000e+02 1.952173829809642484e+03
4.730000000000000000e+02 9.575721836119302679e+03
4.740000000000000000e+02 1.960105346759582744e+03
4.750000000000000000e+02 4.546910173211215806e+03
4.760000000000000000e+02 1.233549784237445692e+03
4.770000000000000000e+02 1.419557043298094641e+03
4.780000000000000000e+02 4.382852148369735005e+03
4.790000000000000000e+02 2.911607482799385252e+03
4.800000000000000000e+02 7.187108862820202830e+02
4.810000000000000000e+02 5.860709665258326822e+03
4.820000000000000000e+02 5.500992931487850228e+02
4.830000000000000000e+02 3.114992164691469043e+03
4.840000000000000000e+02 1.630065734835677858e+03
4.850000000000000000e+02 2.327134100918231979e+03
4.860000000000000000e+02 2.268022647325952221e+03
4.870000000000000000e+02 2.050799867677597206e+02
4.880000000000000000e+02 2.060030472254539291e+03
4.890000000000000000e+02 1.768228937057328494e+03
4.900000000000000000e+02 2.124628759692655876e+03
4.910000000000000000e+02 2.433424200716724499e+03
4.920000000000000000e+02 1.223945702425489117e+03
4.930000000000000000e+02 1.669160586019911079e+03
4.940000000000000000e+02 5.666030214974946830e+03
4.950000000000000000e+02 4.431075312757187021e+03
4.960000000000000000e+02 1.666485144118349490e+04
4.970000000000000000e+02 7.255595890137577953e+03
4.980000000000000000e+02 8.303186548991005111e+03
4.990000000000000000e+02 3.761576942939994296e+03
5.000000000000000000e+02 5.288939061258045513e+03
5.010000000000000000e+02 3.313651611567817781e+03
5.020000000000000000e+02 5.359290384001473285e+03
5.030000000000000000e+02 3.317855651427101748e+03
5.040000000000000000e+02 6.490538640233557089e+03
5.050000000000000000e+02 3.938255465417363212e+03
5.060000000000000000e+02 3.969587587015454119e+03
5.070000000000000000e+02 3.493054138899308327e+03
5.080000000000000000e+02 3.112663354299654657e+03
5.090000000000000000e+02 1.890552114436538318e+02
5.100000000000000000e+02 1.958216150895089186e+03
5.110000000000000000e+02 3.132234598835780162e+03
5.120000000000000000e+02 3.795795341320975695e+03
5.130000000000000000e+02 4.077791474167916476e+03
5.140000000000000000e+02 1.767933887009757200e+03
5.150000000000000000e+02 2.294294451051267515e+03
5.160000000000000000e+02 1.756946572232446897e+03
5.170000000000000000e+02 1.810983502734237845e+03
5.180000000000000000e+02 2.777253932525896744e+03
5.190000000000000000e+02 3.339054248383176855e+03
5.200000000000000000e+02 5.794822758502004035e+03
5.210000000000000000e+02 9.326644979263771802e+02
5.220000000000000000e+02 5.476096387804444930e+03
5.230000000000000000e+02 1.268595984506281411e+03
5.240000000000000000e+02 4.162013070624529973e+03
5.250000000000000000e+02 1.711798903906067062e+04
5.260000000000000000e+02 3.996067031562507509e+03
5.270000000000000000e+02 4.075199496217266187e+03
5.280000000000000000e+02 1.747591659247971165e+03
5.290000000000000000e+02 2.464329824845919575e+03
5.300000000000000000e+02 1.914688714351387944e+03
5.310000000000000000e+02 1.592986038511627157e+03
5.320000000000000000e+02 3.471982607306742466e+03
5.330000000000000000e+02 3.650638715954264171e+03
5.340000000000000000e+02 5.472329955147564760e+03
5.350000000000000000e+02 7.667793393448198003e+03
5.360000000000000000e+02 7.250612699256892483e+03
5.370000000000000000e+02 6.107564421901469359e+03
5.380000000000000000e+02 5.076682620581510491e+03
5.390000000000000000e+02 5.173737551054488904e+03
5.400000000000000000e+02 3.551665993122278906e+03
5.410000000000000000e+02 3.592913622163603122e+03
5.420000000000000000e+02 4.571436243797219504e+03
5.430000000000000000e+02 2.751673500920729111e+03
5.440000000000000000e+02 6.493476470534397777e+03
5.450000000000000000e+02 4.984580689846169662e+03
5.460000000000000000e+02 2.955830425757320427e+03
5.470000000000000000e+02 2.018196223173695671e+03
5.480000000000000000e+02 6.440486187561386942e+03
5.490000000000000000e+02 4.102738382449566416e+03
5.500000000000000000e+02 2.888423223886110645e+04
5.510000000000000000e+02 4.465614680913715347e+03
5.520000000000000000e+02 4.809079772454510930e+03
5.530000000000000000e+02 3.049701048758896377e+03
5.540000000000000000e+02 1.675234397235636152e+03
5.550000000000000000e+02 4.215566272861393372e+03
5.560000000000000000e+02 5.555406411254801242e+03
5.570000000000000000e+02 1.576690203598146581e+03
5.580000000000000000e+02 2.770482520137372831e+03
5.590000000000000000e+02 1.247352006004782424e+03
5.600000000000000000e+02 7.976796518114765604e+02
5.610000000000000000e+02 3.646206128578259722e+03
5.620000000000000000e+02 6.970572311077024779e+02
5.630000000000000000e+02 5.390131262959384912e+03
5.640000000000000000e+02 1.986269273922385310e+03
5.650000000000000000e+02 5.745540634451899678e+03
5.660000000000000000e+02 1.633281321981996189e+04
5.670000000000000000e+02 7.835843179747979775e+03
5.680000000000000000e+02 9.863000577273845693e+02
5.690000000000000000e+02 6.180948436123076135e+03
5.700000000000000000e+02 6.801178614615642800e+03
5.710000000000000000e+02 4.198975384378359195e+03
5.720000000000000000e+02 3.991478706770784356e+03
5.730000000000000000e+02 5.697829870411757838e+03
5.740000000000000000e+02 1.122498989596057436e+04
5.750000000000000000e+02 4.399997431712946309e+03
5.760000000000000000e+02 7.009627231134832073e+03
5.770000000000000000e+02 4.629434578924215202e+03
5.780000000000000000e+02 5.320439798010703271e+03
5.790000000000000000e+02 3.927124593751723296e+03
5.800000000000000000e+02 1.159980432266030766e+04
5.810000000000000000e+02 1.079708950668176658e+04
5.820000000000000000e+02 8.484920380777679384e+03
5.830000000000000000e+02 1.187312007878329314e+04
5.840000000000000000e+02 9.552377591699370896e+03
5.850000000000000000e+02 6.142502950231632894e+03
5.860000000000000000e+02 8.685085649251526775e+03
5.870000000000000000e+02 1.758617068344802829e+04
5.880000000000000000e+02 1.400737062709506063e+04
5.890000000000000000e+02 7.542519355520342651e+04
5.900000000000000000e+02 1.180132130684852018e+04
5.910000000000000000e+02 8.220221610799302653e+03
5.920000000000000000e+02 3.120906230114355822e+03
5.930000000000000000e+02 5.188295341897445724e+03
5.940000000000000000e+02 7.943435017573181540e+03
5.950000000000000000e+02 9.117113624025879517e+02
5.960000000000000000e+02 7.612602495376731895e+03
5.970000000000000000e+02 1.728840818979560572e+04
5.980000000000000000e+02 4.697474328585829426e+03
5.990000000000000000e+02 6.599474665370276853e+03
6.000000000000000000e+02 3.201303709220452220e+03
6.010000000000000000e+02 5.082614116712090436e+03
6.020000000000000000e+02 1.064255738725379342e+04
6.030000000000000000e+02 5.592978643181851112e+03
6.040000000000000000e+02 9.222685826423152321e+03
6.050000000000000000e+02 3.994030960422775388e+04
6.060000000000000000e+02 1.160113806683097573e+04
6.070000000000000000e+02 1.759624160662549184e+04
6.080000000000000000e+02 5.744408187567142932e+02
6.090000000000000000e+02 5.832368610833610546e+03
6.100000000000000000e+02 9.163025565713302058e+03
6.110000000000000000e+02 7.870268483986183128e+03
6.120000000000000000e+02 1.018668395183947905e+04
6.130000000000000000e+02 1.874041899139873567e+04
6.140000000000000000e+02 1.479700732125824470e+04
6.150000000000000000e+02 3.732882350884363859e+03
6.160000000000000000e+02 3.713770954063323188e+03
6.170000000000000000e+02 7.050032614744743114e+03
6.180000000000000000e+02 1.255687820622348772e+04
6.190000000000000000e+02 1.275531042538259317e+04
6.200000000000000000e+02 2.903596169564566662e+04
6.210000000000000000e+02 9.548338633570356251e+03
6.220000000000000000e+02 3.480435816518463253e+04
6.230000000000000000e+02 9.923802411043972825e+03
6.240000000000000000e+02 1.685277903497680745e+04
6.250000000000000000e+02 1.901628761817781196e+04
6.260000000000000000e+02 4.448185034291659395e+04
6.270000000000000000e+02 9.353979808027895342e+04
6.280000000000000000e+02 9.425061571130722587e+04
6.290000000000000000e+02 2.404733455388236689e+04
6.300000000000000000e+02 2.923550474487455358e+04
6.310000000000000000e+02 5.519756192849078616e+03
6.320000000000000000e+02 1.326008648363629254e+04
6.330000000000000000e+02 2.900326005487529983e+04
6.340000000000000000e+02 9.489877220403855972e+03
6.350000000000000000e+02 7.664818486159391796e+03
6.360000000000000000e+02 1.017768107874360248e+04
6.370000000000000000e+02 8.751042380202296044e+03
6.380000000000000000e+02 1.245545610691662296e+04
6.390000000000000000e+02 9.866823776302950137e+03
6.400000000000000000e+02 1.109081058091058367e+04
6.410000000000000000e+02 1.267232059988786204e+04
6.420000000000000000e+02 2.653347151973091604e+04
6.430000000000000000e+02 2.390145442103917958e+04
6.440000000000000000e+02 5.501532118643759895e+04
6.450000000000000000e+02 1.415454421806810205e+04
6.460000000000000000e+02 2.735191877087407556e+04
6.470000000000000000e+02 1.505646742250932766e+04
6.480000000000000000e+02 1.624180184040211134e+04
6.490000000000000000e+02 1.016017530996374808e+04
6.500000000000000000e+02 2.002818543151135600e+04
6.510000000000000000e+02 2.198006368390439093e+04
6.520000000000000000e+02 2.063797609917865339e+04
6.530000000000000000e+02 1.669292917188697538e+04
6.540000000000000000e+02 3.708428590067711411e+03
6.550000000000000000e+02 1.992281033490947812e+04
6.560000000000000000e+02 1.850270376224819483e+04
6.570000000000000000e+02 1.686152692892882260e+04
6.580000000000000000e+02 3.411510250572978839e+04
6.590000000000000000e+02 4.842721627908783557e+04
6.600000000000000000e+02 2.612677864095278346e+04
6.610000000000000000e+02 2.936228612069129667e+04
6.620000000000000000e+02 1.887791946584743346e+04
6.630000000000000000e+02 1.370306054600030438e+04
6.640000000000000000e+02 1.777425261433543346e+04
6.650000000000000000e+02 3.903904053628218389e+04
6.660000000000000000e+02 1.630689585180294525e+05
6.670000000000000000e+02 3.556681543755743041e+04
6.680000000000000000e+02 5.789277252359496742e+03
6.690000000000000000e+02 1.303085637494883667e+04
6.700000000000000000e+02 9.003719962469405800e+03
6.710000000000000000e+02 1.587222788783807118e+03
6.720000000000000000e+02 3.054915398539977468e+04
6.730000000000000000e+02 2.808663711951440291e+03
6.740000000000000000e+02 1.587588184387414913e+04
6.750000000000000000e+02 1.629275155559002451e+04
6.760000000000000000e+02 1.653727420818038581e+03
6.770000000000000000e+02 2.270666893026483376e+04
6.780000000000000000e+02 1.483339076718356773e+04
6.790000000000000000e+02 2.553993168144157607e+04
6.800000000000000000e+02 2.084684020165418769e+04
6.810000000000000000e+02 3.947144329938924056e+04
6.820000000000000000e+02 4.449397480913859908e+04
6.830000000000000000e+02 4.950567404506234743e+04
6.840000000000000000e+02 1.639160478439330473e+04
6.850000000000000000e+02 2.391375253332202192e+04
6.860000000000000000e+02 1.261565822796028260e+04
6.870000000000000000e+02 9.615846805221905015e+03
6.880000000000000000e+02 2.516522358981224534e+04
6.890000000000000000e+02 3.237150946292204389e+04
6.900000000000000000e+02 5.091184450676661072e+04
6.910000000000000000e+02 2.712180200890460037e+04
6.920000000000000000e+02 2.831824776572590054e+04
6.930000000000000000e+02 1.163259809851690079e+04
6.940000000000000000e+02 4.871085520047727186e+03
6.950000000000000000e+02 2.122508559752643851e+04
6.960000000000000000e+02 1.445760032754429449e+04
6.970000000000000000e+02 2.003900289153959966e+04
6.980000000000000000e+02 2.732669531227454354e+04
6.990000000000000000e+02 1.499271882165359420e+04
7.000000000000000000e+02 3.604102746968388146e+03
7.010000000000000000e+02 5.020972192104943133e+03
7.020000000000000000e+02 6.114657520066316465e+03
7.030000000000000000e+02 1.037350616515605725e+04
7.040000000000000000e+02 4.466656319481554419e+03
7.050000000000000000e+02 5.545792464402041333e+03
7.060000000000000000e+02 5.675235412409391756e+03
7.070000000000000000e+02 1.506161401207732888e+04
7.080000000000000000e+02 2.122478831455557156e+04
7.090000000000000000e+02 1.227261115691914893e+04
7.100000000000000000e+02 4.363812800959386368e+04
7.110000000000000000e+02 3.168660843420130186e+04
7.120000000000000000e+02 8.635444111471013457e+03
7.130000000000000000e+02 1.094684645367745543e+04
7.140000000000000000e+02 1.164402926358137665e+04
7.150000000000000000e+02 1.500583524319030585e+04
7.160000000000000000e+02 1.186816114819293489e+03
7.170000000000000000e+02 9.406565165325688213e+03
7.180000000000000000e+02 1.055256220668005153e+04
7.190000000000000000e+02 4.282887934770738866e+03
7.200000000000000000e+02 3.526829900893554623e+03
7.210000000000000000e+02 7.451569624756949452e+03
7.220000000000000000e+02 1.164120477483224386e+04
7.230000000000000000e+02 5.224970111752497360e+03
7.240000000000000000e+02 7.788439126506249522e+03
7.250000000000000000e+02 1.034085894418345924e+04
7.260000000000000000e+02 5.631855983796840519e+03
7.270000000000000000e+02 7.850186270737502127e+03
7.280000000000000000e+02 1.194229887061560112e+04
7.290000000000000000e+02 6.518025602733661799e+03
7.300000000000000000e+02 1.573863862743470418e+04
7.310000000000000000e+02 1.350262608469774750e+04
7.320000000000000000e+02 1.234031254184427235e+04
7.330000000000000000e+02 3.340364921955522004e+04
7.340000000000000000e+02 3.861815513259447471e+04
7.350000000000000000e+02 2.807927893619723909e+04
7.360000000000000000e+02 7.341800330744048551e+03
7.370000000000000000e+02 7.331542397493433782e+03
7.380000000000000000e+02 6.587776235503701173e+03
7.390000000000000000e+02 1.221162036259982233e+04
7.400000000000000000e+02 5.648152645347818179e+03
7.410000000000000000e+02 1.047788166669287784e+04
7.420000000000000000e+02 5.100201916487406379e+03
7.430000000000000000e+02 6.746111942449621893e+03
7.440000000000000000e+02 1.715446450268906119e+04
7.450000000000000000e+02 1.034381650958625141e+04
7.460000000000000000e+02 5.351370528924870996e+03
7.470000000000000000e+02 1.693435229655634612e+04
7.480000000000000000e+02 1.404297957337453227e+04
7.490000000000000000e+02 8.111530666395662411e+04
7.500000000000000000e+02 2.513150437823799439e+04
7.510000000000000000e+02 4.470635114301543217e+04
7.520000000000000000e+02 1.907351405715182409e+04
7.530000000000000000e+02 6.639427254344729590e+04
7.540000000000000000e+02 2.177267545265081571e+04
7.550000000000000000e+02 1.490005343112862465e+04
7.560000000000000000e+02 1.561998957753886498e+04
7.570000000000000000e+02 3.317446345732913323e+04
7.580000000000000000e+02 1.832553741504119898e+04
7.590000000000000000e+02 2.543801756737408869e+04
7.600000000000000000e+02 2.264257928054190779e+04
7.610000000000000000e+02 1.567623399697628884e+04
7.620000000000000000e+02 7.921167029745496620e+03
7.630000000000000000e+02 1.301483188028515542e+03
7.640000000000000000e+02 2.201019125217871624e+04
7.650000000000000000e+02 1.368922124075097599e+04
7.660000000000000000e+02 4.302161397285353814e+03
7.670000000000000000e+02 1.370180593199861141e+04
7.680000000000000000e+02 1.457934965070984435e+04
7.690000000000000000e+02 1.172520235043861248e+04
7.700000000000000000e+02 2.259777806979351590e+04
7.710000000000000000e+02 8.576284339951509537e+03
7.720000000000000000e+02 3.604743557091512048e+04
7.730000000000000000e+02 1.647156410051026978e+04
7.740000000000000000e+02 8.160595142622331878e+03
7.750000000000000000e+02 6.606287417702900711e+03
7.760000000000000000e+02 1.438880911104036932e+04
7.770000000000000000e+02 2.464780867201320507e+04
7.780000000000000000e+02 1.145454023696205877e+04
7.790000000000000000e+02 1.006558295004474530e+04
7.800000000000000000e+02 5.563495114902784735e+03
7.810000000000000000e+02 9.294181691078405493e+03
7.820000000000000000e+02 2.810238267507738783e+04
7.830000000000000000e+02 8.911342896416741496e+03
7.840000000000000000e+02 3.678710908851269778e+04
7.850000000000000000e+02 9.797898239768201165e+03
7.860000000000000000e+02 2.128739203427905886e+04
7.870000000000000000e+02 8.369157808704936542e+03
7.880000000000000000e+02 5.066796798501717421e+04
7.890000000000000000e+02 3.418064183099498769e+04
7.900000000000000000e+02 2.947298599445018044e+04
7.910000000000000000e+02 2.903579569333136169e+04
7.920000000000000000e+02 3.378650441652136942e+04
7.930000000000000000e+02 1.646518752050540934e+04
7.940000000000000000e+02 1.434987604034879041e+04
7.950000000000000000e+02 2.836385324310842043e+04
7.960000000000000000e+02 2.507472532084181876e+04
7.970000000000000000e+02 1.018307509080029558e+04
7.980000000000000000e+02 3.849294479558719468e+04
7.990000000000000000e+02 4.834996700799995597e+04
8.000000000000000000e+02 4.781518162979885528e+04
8.010000000000000000e+02 9.530214732628015554e+03
8.020000000000000000e+02 1.140942158343578922e+04
8.030000000000000000e+02 3.997033853051963524e+04
8.040000000000000000e+02 4.313307819259171083e+03
8.050000000000000000e+02 2.279787805802100047e+04
8.060000000000000000e+02 8.127456216129269706e+03
8.070000000000000000e+02 5.847764909399153112e+03
8.080000000000000000e+02 1.022708465396239262e+04
8.090000000000000000e+02 1.111969461442850843e+04
8.100000000000000000e+02 9.172869953090887066e+03
8.110000000000000000e+02 3.909539376267293846e+04
8.120000000000000000e+02 1.757467784802523965e+04
8.130000000000000000e+02 1.675575596115289227e+04
8.140000000000000000e+02 2.144699330122395168e+03
8.150000000000000000e+02 1.603772379471826389e+04
8.160000000000000000e+02 2.959335231760075476e+04
8.170000000000000000e+02 1.364057007646144848e+04
8.180000000000000000e+02 1.387707697382641709e+04
8.190000000000000000e+02 1.223220466888656847e+04
8.200000000000000000e+02 5.494324800110864999e+03
8.210000000000000000e+02 1.566957273073628130e+04
8.220000000000000000e+02 2.031096911797260327e+04
8.230000000000000000e+02 5.683193856677460280e+04
8.240000000000000000e+02 4.009297837405165774e+04
8.250000000000000000e+02 2.543787627939275990e+04
8.260000000000000000e+02 9.313757403846640955e+04
8.270000000000000000e+02 1.199392971199210733e+05
8.280000000000000000e+02 1.215363057235251035e+05
8.290000000000000000e+02 4.788422884169447934e+04
8.300000000000000000e+02 1.337675959875172121e+05
8.310000000000000000e+02 7.539192072969554283e+04
8.320000000000000000e+02 2.449877526007144479e+04
8.330000000000000000e+02 3.323593959982755769e+04
8.340000000000000000e+02 4.662446717649043421e+04
8.350000000000000000e+02 7.346032505625070189e+04
8.360000000000000000e+02 3.055173405699506839e+04
8.370000000000000000e+02 2.878119559384173408e+04
8.380000000000000000e+02 3.002828060965437180e+04
8.390000000000000000e+02 8.740593215054774191e+03
8.400000000000000000e+02 3.198091331893437018e+04
8.410000000000000000e+02 2.394143918091611704e+04
8.420000000000000000e+02 5.361836971955052286e+04
8.430000000000000000e+02 3.188214681217791440e+04
8.440000000000000000e+02 1.232860073867946448e+04
8.450000000000000000e+02 8.113761953881311456e+03
8.460000000000000000e+02 6.673585020418867316e+03
8.470000000000000000e+02 1.639033327985775031e+04
8.480000000000000000e+02 1.847816242284691180e+04
8.490000000000000000e+02 3.268017730194830074e+04
8.500000000000000000e+02 8.038119785752498137e+04
8.510000000000000000e+02 1.256325304183834305e+04
8.520000000000000000e+02 3.143681316759263154e+03
8.530000000000000000e+02 2.032154044361528577e+04
8.540000000000000000e+02 2.066265832356805549e+04
8.550000000000000000e+02 2.630803684817129033e+04
8.560000000000000000e+02 2.001246543957901304e+04
8.570000000000000000e+02 1.282674997047376200e+04
8.580000000000000000e+02 1.183558964092576207e+04
8.590000000000000000e+02 8.754119241152729956e+03
8.600000000000000000e+02 1.501610139807747873e+04
8.610000000000000000e+02 2.122950961113313315e+04
8.620000000000000000e+02 8.913602578030775476e+03
8.630000000000000000e+02 3.394579497013289074e+04
8.640000000000000000e+02 2.590455991827576509e+04
8.650000000000000000e+02 1.031738075207788061e+05
8.660000000000000000e+02 2.785356010539063209e+04
8.670000000000000000e+02 3.240272020776031422e+04
8.680000000000000000e+02 2.108722114726057407e+04
8.690000000000000000e+02 3.922898079402610892e+04
8.700000000000000000e+02 1.043394925430006515e+04
8.710000000000000000e+02 8.382587400084012188e+03
8.720000000000000000e+02 8.130913118549672618e+03
8.730000000000000000e+02 4.833238020496184618e+04
8.740000000000000000e+02 2.590532609781099745e+04
8.750000000000000000e+02 5.222989232470790739e+04
8.760000000000000000e+02 2.819089308094471562e+04
8.770000000000000000e+02 4.336668921478909033e+04
8.780000000000000000e+02 5.081304357449903364e+03
8.790000000000000000e+02 1.654644143859677570e+04
8.800000000000000000e+02 5.197622010149141715e+03
8.810000000000000000e+02 5.309622810948855658e+03
8.820000000000000000e+02 7.122335598172844584e+03
8.830000000000000000e+02 1.486684571468414106e+04
8.840000000000000000e+02 1.552319567005578210e+04
8.850000000000000000e+02 1.430750066636963311e+03
8.860000000000000000e+02 1.375952759317919663e+04
8.870000000000000000e+02 1.180107349724265760e+03
8.880000000000000000e+02 9.840267353014682158e+03
8.890000000000000000e+02 2.050753801025252687e+04
8.900000000000000000e+02 1.980256983422602570e+04
8.910000000000000000e+02 9.116377324308419702e+03
8.920000000000000000e+02 1.937455594723271588e+03
8.930000000000000000e+02 7.857349016877442409e+03
8.940000000000000000e+02 1.273237921555413413e+04
8.950000000000000000e+02 5.736162433381793562e+03
8.960000000000000000e+02 9.915037539239987382e+03
8.970000000000000000e+02 9.249165822337232385e+03
8.980000000000000000e+02 1.540596241195962284e+04
8.990000000000000000e+02 1.981256088209067457e+04
9.000000000000000000e+02 2.507544417507700928e+04
9.010000000000000000e+02 1.610292407883391752e+04
9.020000000000000000e+02 2.837660853616854729e+04
9.030000000000000000e+02 3.118642797093655827e+04
9.040000000000000000e+02 3.369363904583839758e+04
9.050000000000000000e+02 2.493485053717406845e+04
9.060000000000000000e+02 2.756714771004418435e+04
9.070000000000000000e+02 3.837161358802428731e+04
9.080000000000000000e+02 4.885573017607602378e+04
9.090000000000000000e+02 3.352533330591371850e+03
9.100000000000000000e+02 2.693365652004485310e+04
9.110000000000000000e+02 5.302934528110532483e+03
9.120000000000000000e+02 1.484012505903734564e+04
9.130000000000000000e+02 8.588689148779050811e+03
9.140000000000000000e+02 2.495813056157983374e+04
9.150000000000000000e+02 1.247025344908616353e+04
9.160000000000000000e+02 1.048437694835164439e+04
9.170000000000000000e+02 1.739644236771519354e+04
9.180000000000000000e+02 8.044626498202020230e+03
9.190000000000000000e+02 5.414557081129021390e+04
9.200000000000000000e+02 2.006301821022924560e+04
9.210000000000000000e+02 7.086707792221222007e+03
9.220000000000000000e+02 6.818885288965109794e+03
9.230000000000000000e+02 2.848286031515036029e+03
9.240000000000000000e+02 2.737179346558303223e+03
9.250000000000000000e+02 2.855075531235941526e+03
9.260000000000000000e+02 4.680154745225431725e+03
9.270000000000000000e+02 9.756018784530879202e+03
9.280000000000000000e+02 7.360454865428515404e+03
9.290000000000000000e+02 1.349788946309360472e+04
9.300000000000000000e+02 6.398439279993379387e+03
9.310000000000000000e+02 9.651127563170906797e+03
9.320000000000000000e+02 2.592788030031386734e+04
9.330000000000000000e+02 1.631103575534812626e+04
9.340000000000000000e+02 2.477454975155813736e+04
9.350000000000000000e+02 1.286870842428189826e+04
9.360000000000000000e+02 9.011817532190656493e+03
9.370000000000000000e+02 7.101555764436680874e+03
9.380000000000000000e+02 6.215752406607399280e+03
9.390000000000000000e+02 2.346841201424015890e+04
9.400000000000000000e+02 1.104232444213867529e+04
9.410000000000000000e+02 6.559231381384058295e+03
9.420000000000000000e+02 3.085225018850273409e+04
9.430000000000000000e+02 3.131713517538387896e+04
9.440000000000000000e+02 2.756340286819051107e+04
9.450000000000000000e+02 4.641143230128017422e+03
9.460000000000000000e+02 1.392113466490114661e+04
9.470000000000000000e+02 6.946396785426482893e+03
9.480000000000000000e+02 6.583428643595465473e+03
9.490000000000000000e+02 1.651035616879895679e+04
9.500000000000000000e+02 1.176692096089077677e+04
9.510000000000000000e+02 1.218995979141444877e+04
9.520000000000000000e+02 4.167352590693208185e+03
9.530000000000000000e+02 1.267908820207874851e+04
9.540000000000000000e+02 1.132245527217687777e+04
9.550000000000000000e+02 1.301219576232323743e+04
9.560000000000000000e+02 6.060775441036568736e+03
9.570000000000000000e+02 5.295447260089914380e+03
9.580000000000000000e+02 3.950793173267577913e+03
9.590000000000000000e+02 1.532897679012139179e+03
9.600000000000000000e+02 1.990728277135877079e+03
9.610000000000000000e+02 6.777915615892256938e+03
9.620000000000000000e+02 7.789560487173343972e+03
9.630000000000000000e+02 4.464218038915422767e+03
9.640000000000000000e+02 5.787592193836754632e+03
9.650000000000000000e+02 1.783709833791730853e+04
9.660000000000000000e+02 2.477951129787416357e+04
9.670000000000000000e+02 6.041788073797712059e+03
9.680000000000000000e+02 4.117756571132841600e+03
9.690000000000000000e+02 9.251705999612888263e+03
9.700000000000000000e+02 7.386736534140020922e+03
9.710000000000000000e+02 4.030088497043057032e+03
9.720000000000000000e+02 3.145605101342990565e+03
9.730000000000000000e+02 8.743628413010532086e+02
9.740000000000000000e+02 5.483527333465510310e+03
9.750000000000000000e+02 4.475521335589408409e+03
9.760000000000000000e+02 3.839017764658678971e+03
9.770000000000000000e+02 8.511363198987759461e+03
9.780000000000000000e+02 1.548917856905128247e+03
9.790000000000000000e+02 2.347251151489528638e+03
9.800000000000000000e+02 5.236094073547892549e+03
9.810000000000000000e+02 7.700250590597730479e+03
9.820000000000000000e+02 1.839433743768920249e+04
9.830000000000000000e+02 2.133825550338238099e+04
9.840000000000000000e+02 1.028972513484603041e+04
9.850000000000000000e+02 2.673504713327079116e+03
9.860000000000000000e+02 1.106792932300014581e+04
9.870000000000000000e+02 3.599230690194662657e+03
9.880000000000000000e+02 5.803630960751144812e+03
9.890000000000000000e+02 1.034634157732335370e+04
9.900000000000000000e+02 4.233461622616610839e+03
9.910000000000000000e+02 4.973536163723771097e+03
9.920000000000000000e+02 1.462868438147427150e+04
9.930000000000000000e+02 7.813533877126421430e+03
9.940000000000000000e+02 8.810463314900551268e+03
9.950000000000000000e+02 4.080112051181753031e+03
9.960000000000000000e+02 6.767544403650971617e+03
9.970000000000000000e+02 5.282600388820984335e+03
9.980000000000000000e+02 6.986140561322942631e+03
9.990000000000000000e+02 4.452406717856059004e+03
1.000000000000000000e+03 8.738583732979968772e+03
1.001000000000000000e+03 6.173944464242115828e+03
1.002000000000000000e+03 6.154257579272986732e+03
1.003000000000000000e+03 2.009437100569706445e+03
1.004000000000000000e+03 5.082511204911228560e+03
1.005000000000000000e+03 1.187321241671481766e+04
1.006000000000000000e+03 1.367638256428473505e+04
1.007000000000000000e+03 7.451374619234866259e+03
1.008000000000000000e+03 1.216089341018458072e+04
1.009000000000000000e+03 6.862941422721562049e+03
1.010000000000000000e+03 2.422653259784877719e+03
1.011000000000000000e+03 1.267548410054300803e+04
1.012000000000000000e+03 1.087531720497048263e+04
1.013000000000000000e+03 8.703739925269597734e+03
1.014000000000000000e+03 2.571328643843833106e+03
1.015000000000000000e+03 1.743710615737552507e+04
1.016000000000000000e+03 1.185108437584133571e+04
1.017000000000000000e+03 1.014791334237575211e+04
1.018000000000000000e+03 6.765876986129907891e+03
1.019000000000000000e+03 7.629226725293700838e+03
1.020000000000000000e+03 8.302289433211652067e+03
1.021000000000000000e+03 7.819788819832708668e+02
1.022000000000000000e+03 5.654250983687400549e+03
1.023000000000000000e+03 4.920499152867938392e+03
1.024000000000000000e+03 8.447313933391251339e+03
1.025000000000000000e+03 8.228979489164974439e+03
1.026000000000000000e+03 7.758875998706886094e+03
1.027000000000000000e+03 4.626219608362017425e+03
1.028000000000000000e+03 2.160683531844196750e+03
1.029000000000000000e+03 1.883452346288119315e+03
1.030000000000000000e+03 8.081901702324108555e+03
1.031000000000000000e+03 2.676519235270301579e+03
1.032000000000000000e+03 7.505981215508356399e+03
1.033000000000000000e+03 2.391043232552664222e+02
1.034000000000000000e+03 1.286420571247114140e+03
1.035000000000000000e+03 2.565367675978130137e+03
1.036000000000000000e+03 2.903204967456731083e+03
1.037000000000000000e+03 2.921439456130806775e+03
1.038000000000000000e+03 2.069981342227136793e+03
1.039000000000000000e+03 1.391510975605270687e+04
1.040000000000000000e+03 1.311689571382024042e+04
1.041000000000000000e+03 7.132833628889545253e+03
1.042000000000000000e+03 2.621018871007704547e+03
1.043000000000000000e+03 4.755817195774749962e+03
1.044000000000000000e+03 3.464310423252251439e+03
1.045000000000000000e+03 2.230848922919631877e+04
1.046000000000000000e+03 9.694681285243390448e+03
1.047000000000000000e+03 6.229610454669798855e+03
1.048000000000000000e+03 3.587862383985071574e+03
1.049000000000000000e+03 5.958512865495516053e+03
1.050000000000000000e+03 2.509450591340213577e+03
1.051000000000000000e+03 2.266473548896241937e+03
1.052000000000000000e+03 1.612415790183109721e+03
1.053000000000000000e+03 1.047767990353929918e+03
1.054000000000000000e+03 1.691646676335484017e+03
1.055000000000000000e+03 3.860104373194196796e+03
1.056000000000000000e+03 8.737582182106074470e+03
1.057000000000000000e+03 1.371008013548034614e+04
1.058000000000000000e+03 3.608455779641989466e+03
1.059000000000000000e+03 5.300232672516472121e+03
1.060000000000000000e+03 2.983558948017312559e+03
1.061000000000000000e+03 5.970623966472842767e+03
1.062000000000000000e+03 5.242322248838760061e+03
1.063000000000000000e+03 1.431874284156219801e+03
1.064000000000000000e+03 3.655625868226496095e+03
1.065000000000000000e+03 1.357432094549350268e+03
1.066000000000000000e+03 5.808547267907328205e+03
1.067000000000000000e+03 5.464012213266209073e+03
1.068000000000000000e+03 3.208698112718695938e+03
1.069000000000000000e+03 9.157606910712074750e+03
1.070000000000000000e+03 1.480710060020660194e+03
1.071000000000000000e+03 1.022979907097261275e+04
1.072000000000000000e+03 1.004176477865509150e+04
1.073000000000000000e+03 1.112123037800366910e+04
1.074000000000000000e+03 3.246143081277533383e+03
1.075000000000000000e+03 4.947293493544108969e+03
1.076000000000000000e+03 5.293744160074516003e+03
1.077000000000000000e+03 4.215513624381470436e+03
1.078000000000000000e+03 7.769095096914992610e+03
1.079000000000000000e+03 2.118562127480886829e+03
1.080000000000000000e+03 1.977432539669715197e+03
1.081000000000000000e+03 4.075485035299666833e+03
1.082000000000000000e+03 3.257488875096620632e+03
1.083000000000000000e+03 7.207600501092351806e+03
1.084000000000000000e+03 1.589282723109293329e+04
1.085000000000000000e+03 1.980087463029188075e+04
1.086000000000000000e+03 5.862753226024157630e+04
1.087000000000000000e+03 6.362674451389813476e+04
1.088000000000000000e+03 3.947567615577521792e+04
1.089000000000000000e+03 2.706871452348500679e+04
1.090000000000000000e+03 2.482621876421196066e+04
1.091000000000000000e+03 9.543251342720262983e+03
1.092000000000000000e+03 1.211879501703811184e+04
1.093000000000000000e+03 5.014281758071731929e+03
1.094000000000000000e+03 6.967640578968697810e+03
1.095000000000000000e+03 2.933925820184726945e+03
1.096000000000000000e+03 8.952166966781547671e+03
1.097000000000000000e+03 6.113544640935793723e+03
1.098000000000000000e+03 4.579683474795474467e+03
1.099000000000000000e+03 6.046095379130305446e+03
1.100000000000000000e+03 1.123146331389611260e+04
1.101000000000000000e+03 2.231212831027444190e+04
1.102000000000000000e+03 3.390188058282891143e+04
1.103000000000000000e+03 1.407630260887089753e+04
1.104000000000000000e+03 6.337019225475193707e+03
1.105000000000000000e+03 5.028333153106489590e+03
1.106000000000000000e+03 2.409540673800597233e+03
1.107000000000000000e+03 9.223839866932879886e+03
1.108000000000000000e+03 1.167877106904191714e+04
1.109000000000000000e+03 9.926332618237420320e+03
1.110000000000000000e+03 1.125082521508555692e+04
1.111000000000000000e+03 9.747981984830912552e+03
1.112000000000000000e+03 4.135899808240495076e+03
1.113000000000000000e+03 1.030376052620495284e+04
1.114000000000000000e+03 1.094299175682503483e+04
1.115000000000000000e+03 4.257567255001725425e+04
1.116000000000000000e+03 5.172701825589980581e+04
1.117000000000000000e+03 1.718932032978572242e+05
1.118000000000000000e+03 1.344396595498862152e+05
1.119000000000000000e+03 1.533129995572445623e+05
1.120000000000000000e+03 8.750556607727466326e+04
1.121000000000000000e+03 1.480189605905382268e+04
1.122000000000000000e+03 2.254121040939554587e+04
1.123000000000000000e+03 1.123680886323440609e+04
1.124000000000000000e+03 1.570536985502714924e+04
1.125000000000000000e+03 2.908350188928537682e+04
1.126000000000000000e+03 8.343604406166665285e+03
1.127000000000000000e+03 2.315259865007629560e+04
1.128000000000000000e+03 1.624504672940295677e+04
1.129000000000000000e+03 1.746228838852499393e+04
1.130000000000000000e+03 1.275042543384683268e+04
1.131000000000000000e+03 2.935180343872465528e+04
1.132000000000000000e+03 1.086113559531903775e+04
1.133000000000000000e+03 4.911767434176347160e+04
1.134000000000000000e+03 6.998932186817312322e+04
1.135000000000000000e+03 2.277958188489967870e+04
1.136000000000000000e+03 2.191056699012203899e+04
1.137000000000000000e+03 2.056602718450047541e+04
1.138000000000000000e+03 2.280629448165565191e+04
1.139000000000000000e+03 2.319483699851657730e+04
1.140000000000000000e+03 1.630809796088879921e+04
1.141000000000000000e+03 1.372781627596115140e+04
1.142000000000000000e+03 1.545594979255793623e+04
1.143000000000000000e+03 5.779493651887234591e+03
1.144000000000000000e+03 2.279283727180430651e+04
1.145000000000000000e+03 2.220170281495386735e+04
1.146000000000000000e+03 6.834866201417101547e+04
1.147000000000000000e+03 3.646127964942561084e+04
1.148000000000000000e+03 3.596872806087636127e+04
1.149000000000000000e+03 1.181350581984283235e+04
1.150000000000000000e+03 6.285400054892711341e+04
1.151000000000000000e+03 3.698046114486161969e+04
1.152000000000000000e+03 2.285877799123803197e+04
1.153000000000000000e+03 7.150949382655434420e+03
1.154000000000000000e+03 1.054141826000735637e+04
1.155000000000000000e+03 7.997734112406301392e+03
1.156000000000000000e+03 2.085101044642570196e+04
1.157000000000000000e+03 1.232526046731576935e+04
1.158000000000000000e+03 1.652277425095673607e+04
1.159000000000000000e+03 9.282469198215298093e+03
1.160000000000000000e+03 9.210268713781126280e+03
1.161000000000000000e+03 4.260406348429778154e+04
1.162000000000000000e+03 7.862302442002802309e+03
1.163000000000000000e+03 1.819914493516418224e+04
1.164000000000000000e+03 1.227115873653317794e+04
1.165000000000000000e+03 7.979426571522995800e+03
1.166000000000000000e+03 1.916754877935023978e+04
1.167000000000000000e+03 1.890432297984890829e+04
1.168000000000000000e+03 9.226127137481911632e+03
1.169000000000000000e+03 6.899628221006872081e+03
1.170000000000000000e+03 1.403660479676545583e+04
1.171000000000000000e+03 3.983083246285059431e+03
1.172000000000000000e+03 6.954283312233133074e+03
1.173000000000000000e+03 4.727690898892819860e+03
1.174000000000000000e+03 3.865668940951976765e+03
1.175000000000000000e+03 1.798178438593398596e+03
1.176000000000000000e+03 5.160819697453869594e+03
1.177000000000000000e+03 1.785501943057958124e+04
1.178000000000000000e+03 4.080411148489244624e+03
1.179000000000000000e+03 5.328095110583798260e+02
1.180000000000000000e+03 3.160535549744889977e+03
1.181000000000000000e+03 5.334116365081940785e+03
1.182000000000000000e+03 3.583880117337671436e+03
1.183000000000000000e+03 2.900560755108560897e+03
1.184000000000000000e+03 6.501119481667805303e+03
1.185000000000000000e+03 6.140493695353672592e+03
1.186000000000000000e+03 5.840647154144538945e+03
1.187000000000000000e+03 3.260080800526512576e+03
1.188000000000000000e+03 4.158615070567982912e+03
1.189000000000000000e+03 3.943274342015903585e+03
1.190000000000000000e+03 2.639563454669545990e+03
1.191000000000000000e+03 6.291583599460186633e+03
1.192000000000000000e+03 1.882087786935122722e+03
1.193000000000000000e+03 3.651143626420321652e+03
1.194000000000000000e+03 1.058920286279084576e+04
1.195000000000000000e+03 7.427471307867661380e+03
1.196000000000000000e+03 6.547255113199612424e+03
1.197000000000000000e+03 5.938256944772017050e+03
1.198000000000000000e+03 1.008472036943110311e+03
1.199000000000000000e+03 2.418626980921239465e+03
1.200000000000000000e+03 9.099446048220783268e+03
1.201000000000000000e+03 2.399266547450711187e+03
1.202000000000000000e+03 8.842131249289089965e+02
1.203000000000000000e+03 3.805053857613018863e+03
1.204000000000000000e+03 1.747141207912933623e+03
1.205000000000000000e+03 1.866631774352347520e+03
1.206000000000000000e+03 4.048836958905013944e+03
1.207000000000000000e+03 2.750688407680333512e+03
1.208000000000000000e+03 3.125041775891710586e+03
1.209000000000000000e+03 3.766377647186731338e+03
1.210000000000000000e+03 4.044353455594408388e+03
1.211000000000000000e+03 1.367377599883876974e+04
1.212000000000000000e+03 1.086301520376323424e+04
1.213000000000000000e+03 6.416428578552067847e+03
1.214000000000000000e+03 3.324371150932603541e+03
1.215000000000000000e+03 7.007675124060969210e+03
1.216000000000000000e+03 1.853213869676705599e+03
1.217000000000000000e+03 1.648267344486145021e+03
1.218000000000000000e+03 9.201899870958521888e+02
1.219000000000000000e+03 2.517019030083866710e+03
1.220000000000000000e+03 2.236930200098273417e+03
1.221000000000000000e+03 3.076862289966969911e+03
1.222000000000000000e+03 1.572583699084378395e+03
1.223000000000000000e+03 4.302268070120842822e+03
1.224000000000000000e+03 4.756410738623249017e+03
1.225000000000000000e+03 3.062682860627039190e+03
1.226000000000000000e+03 1.944675775021522213e+03
1.227000000000000000e+03 3.566205050328065681e+03
1.228000000000000000e+03 1.109043783197682160e+03
1.229000000000000000e+03 7.143462540728381100e+03
1.230000000000000000e+03 1.077698075042644177e+03
1.231000000000000000e+03 1.890292871562029404e+03
1.232000000000000000e+03 5.297157745311948247e+02
1.233000000000000000e+03 5.951324169660365442e+02
1.234000000000000000e+03 1.885833848373075398e+03
1.235000000000000000e+03 1.322385918413744321e+03
1.236000000000000000e+03 1.550678314919211516e+03
1.237000000000000000e+03 2.481459219643606502e+03
1.238000000000000000e+03 3.020646742656385413e+03
1.239000000000000000e+03 2.624875948792749568e+03
1.240000000000000000e+03 1.465255645822523547e+03
1.241000000000000000e+03 3.561391950387809175e+03
1.242000000000000000e+03 7.584679768839030203e+02
1.243000000000000000e+03 3.104154666542684481e+03
1.244000000000000000e+03 1.296262317556630660e+04
1.245000000000000000e+03 1.254241430689339722e+03
1.246000000000000000e+03 3.431047374636969835e+03
1.247000000000000000e+03 2.786096666319351698e+03
1.248000000000000000e+03 2.302995113705852873e+03
1.249000000000000000e+03 1.613260587771422706e+03
1.250000000000000000e+03 2.335308901606132622e+03
1.251000000000000000e+03 9.170391263858446109e+02
1.252000000000000000e+03 3.124404566648398031e+03
1.253000000000000000e+03 2.618368052532559432e+03
1.254000000000000000e+03 2.464380189896198772e+03
1.255000000000000000e+03 4.174816295788161369e+03
1.256000000000000000e+03 9.720329887264056197e+02
1.257000000000000000e+03 2.192048904187607150e+03
1.258000000000000000e+03 4.035719166782111188e+03
1.259000000000000000e+03 2.926041932894279853e+03
1.260000000000000000e+03 4.681145871207691016e+03
1.261000000000000000e+03 3.828305525993329411e+03
1.262000000000000000e+03 1.890979497943495517e+03
1.263000000000000000e+03 2.658258048441086430e+03
1.264000000000000000e+03 3.675410597621701982e+03
1.265000000000000000e+03 2.053168582373470599e+03
1.266000000000000000e+03 3.096532329491792098e+03
1.267000000000000000e+03 4.336361904135549594e+03
1.268000000000000000e+03 1.498679205350340681e+03
1.269000000000000000e+03 1.902696703474459719e+04
1.270000000000000000e+03 1.119780533441537773e+04
1.271000000000000000e+03 6.434083659690101740e+03
1.272000000000000000e+03 7.400028034594321980e+03
1.273000000000000000e+03 8.450147872648016346e+03
1.274000000000000000e+03 2.839253651767211522e+03
1.275000000000000000e+03 3.882885435720477290e+03
1.276000000000000000e+03 5.805742153513070662e+03
1.277000000000000000e+03 1.339172127880641028e+03
1.278000000000000000e+03 4.043940134746066633e+03
1.279000000000000000e+03 1.797559855829079879e+03
1.280000000000000000e+03 1.276276546187909162e+03
1.281000000000000000e+03 2.941269920231355627e+03
1.282000000000000000e+03 1.606422133200551116e+03
1.283000000000000000e+03 4.186692006366011810e+03
1.284000000000000000e+03 1.305062686812120319e+03
1.285000000000000000e+03 4.071553463843528789e+03
1.286000000000000000e+03 2.060932742068907828e+03
1.287000000000000000e+03 2.843701723159608719e+03
1.288000000000000000e+03 7.649993601532322828e+03
1.289000000000000000e+03 6.291289861415617679e+02
1.290000000000000000e+03 3.807232583929960583e+03
1.291000000000000000e+03 3.222118907368412238e+03
1.292000000000000000e+03 3.553742405894915919e+03
1.293000000000000000e+03 1.588631078688411435e+03
1.294000000000000000e+03 4.388013131477890056e+03
1.295000000000000000e+03 2.093928784462854765e+03
1.296000000000000000e+03 1.001919831399405098e+03
1.297000000000000000e+03 3.974618416252294992e+03
1.298000000000000000e+03 1.436446005532366598e+03
1.299000000000000000e+03 3.992681445639648700e+03
1.300000000000000000e+03 6.659355529879480855e+02
1.301000000000000000e+03 6.746067995165738466e+03
1.302000000000000000e+03 4.860413269970990768e+03
1.303000000000000000e+03 3.151491903417614139e+03
1.304000000000000000e+03 4.243097615901594509e+03
1.305000000000000000e+03 3.839052366367283412e+03
1.306000000000000000e+03 8.907225587525987066e+03
1.307000000000000000e+03 2.724710033527991527e+03
1.308000000000000000e+03 2.830569579514503403e+03
1.309000000000000000e+03 1.508290564970278865e+03
1.310000000000000000e+03 4.896080119420876144e+03
1.311000000000000000e+03 3.949436803967196738e+03
1.312000000000000000e+03 1.176024162262985556e+03
1.313000000000000000e+03 5.191350953386820947e+03
1.314000000000000000e+03 4.770894511844297995e+03
1.315000000000000000e+03 2.336506814447661782e+03
1.316000000000000000e+03 2.274676024283512561e+03
1.317000000000000000e+03 1.168985881845538279e+04
1.318000000000000000e+03 1.294213830941406923e+04
1.319000000000000000e+03 9.436786222593227649e+03
1.320000000000000000e+03 3.033099079454459115e+03
1.321000000000000000e+03 1.127798096763309513e+04
1.322000000000000000e+03 1.337234433074217122e+04
1.323000000000000000e+03 3.453755136566177953e+03
1.324000000000000000e+03 3.750632146551571623e+03
1.325000000000000000e+03 6.194525641344923315e+03
1.326000000000000000e+03 3.024035058448403106e+03
1.327000000000000000e+03 1.140054855480083461e+03
1.328000000000000000e+03 5.026020787942477000e+03
1.329000000000000000e+03 5.391553442260363227e+03
1.330000000000000000e+03 4.624679323935274624e+03
1.331000000000000000e+03 6.980422317721309810e+03
1.332000000000000000e+03 5.903223552136973012e+03
1.333000000000000000e+03 5.929040188107055656e+03
1.334000000000000000e+03 1.257032412732556986e+04
1.335000000000000000e+03 1.235923893210617643e+04
1.336000000000000000e+03 7.393018283467056790e+03
1.337000000000000000e+03 8.923760425777931232e+03
1.338000000000000000e+03 3.660175274406762583e+03
1.339000000000000000e+03 7.296753149395011860e+03
1.340000000000000000e+03 6.787941961217012249e+03
1.341000000000000000e+03 4.974293172744035473e+03
1.342000000000000000e+03 4.202332312404931145e+03
1.343000000000000000e+03 5.205986634201962261e+03
1.344000000000000000e+03 4.338657833325787578e+03
1.345000000000000000e+03 6.005451087379306045e+03
1.346000000000000000e+03 5.482519461084879367e+03
1.347000000000000000e+03 7.071807467034351248e+03
1.348000000000000000e+03 9.340001754315466314e+03
1.349000000000000000e+03 1.408694328069897165e+04
1.350000000000000000e+03 7.320088977236653591e+03
1.351000000000000000e+03 1.820259734976751497e+04
1.352000000000000000e+03 6.359394096477823950e+03
1.353000000000000000e+03 1.139745582313461273e+04
1.354000000000000000e+03 7.360058576350767908e+03
1.355000000000000000e+03 1.221869453544102544e+04
1.356000000000000000e+03 4.836779754754660644e+03
1.357000000000000000e+03 5.957717670686371093e+03
1.358000000000000000e+03 1.792773872592878661e+03
1.359000000000000000e+03 6.551313491789448562e+03
1.360000000000000000e+03 1.312711793761201079e+04
1.361000000000000000e+03 3.092485612056466834e+03
1.362000000000000000e+03 5.784155961054859290e+03
1.363000000000000000e+03 3.804475780065595700e+03
1.364000000000000000e+03 9.301284902983152278e+03
1.365000000000000000e+03 5.993419121147172518e+03
1.366000000000000000e+03 1.320215262413609707e+04
1.367000000000000000e+03 4.310758992321909318e+03
1.368000000000000000e+03 6.498837711137221959e+03
1.369000000000000000e+03 8.760662723749575889e+03
1.370000000000000000e+03 6.271947984831967915e+03
1.371000000000000000e+03 2.391589013774097111e+03
1.372000000000000000e+03 4.205097503482807042e+03
1.373000000000000000e+03 4.982831158394402337e+03
1.374000000000000000e+03 2.121810796845611094e+03
1.375000000000000000e+03 5.180379697582479821e+03
1.376000000000000000e+03 1.002819949746256862e+04
1.377000000000000000e+03 1.093874369582677173e+04
1.378000000000000000e+03 2.626563848814371522e+04
1.379000000000000000e+03 2.833854294644215042e+04
1.380000000000000000e+03 2.225547438788721411e+04
1.381000000000000000e+03 2.995400656582938245e+04
1.382000000000000000e+03 1.458863761966706079e+04
1.383000000000000000e+03 6.198613971323249643e+03
1.384000000000000000e+03 1.604486149313389615e+04
1.385000000000000000e+03 1.233650250047901318e+04
1.386000000000000000e+03 6.948383850229201016e+03
1.387000000000000000e+03 5.011567883493307818e+03
1.388000000000000000e+03 6.917810362897550476e+03
1.389000000000000000e+03 5.970764882677567584e+03
1.390000000000000000e+03 3.604282030242056862e+03
1.391000000000000000e+03 1.201785272689886915e+04
1.392000000000000000e+03 5.300195016880360527e+03
1.393000000000000000e+03 2.022004626839781122e+04
1.394000000000000000e+03 1.256368065204498453e+04
1.395000000000000000e+03 2.013867341564816525e+04
1.396000000000000000e+03 1.117286016901060430e+04
1.397000000000000000e+03 1.162660770225536362e+04
1.398000000000000000e+03 1.101647416017728574e+04
1.399000000000000000e+03 2.753992490753569655e+04
1.400000000000000000e+03 9.118834715438701096e+03
1.401000000000000000e+03 6.594526087913928677e+03
1.402000000000000000e+03 3.698648158508516190e+03
1.403000000000000000e+03 8.520117097033920800e+03
1.404000000000000000e+03 1.353251983870071672e+04
1.405000000000000000e+03 6.491318090903178927e+03
1.406000000000000000e+03 1.086663403886323977e+04
1.407000000000000000e+03 8.129822002319834610e+03
1.408000000000000000e+03 8.929192079635808113e+03
1.409000000000000000e+03 1.445920899308604021e+04
1.410000000000000000e+03 1.744196718395407879e+04
1.411000000000000000e+03 1.335588652666617782e+04
1.412000000000000000e+03 4.478130382376958551e+03
1.413000000000000000e+03 5.829634263812164136e+03
1.414000000000000000e+03 6.187598868016031702e+03
1.415000000000000000e+03 4.945136909656930584e+03
1.416000000000000000e+03 2.374623502889285646e+03
1.417000000000000000e+03 1.051772987575059415e+04
1.418000000000000000e+03 5.186713188459435514e+03
1.419000000000000000e+03 1.643354161814398594e+03
1.420000000000000000e+03 6.520933982592159737e+03
1.421000000000000000e+03 8.047583370168699730e+03
1.422000000000000000e+03 4.826259787583504476e+03
1.423000000000000000e+03 5.449297856455927104e+03
1.424000000000000000e+03 8.997270769725109858e+03
1.425000000000000000e+03 8.564276078064282046e+03
1.426000000000000000e+03 6.495004903955729787e+03
1.427000000000000000e+03 1.096606466033718061e+04
1.428000000000000000e+03 1.623855658957138075e+04
1.429000000000000000e+03 6.168258943329450631e+03
1.430000000000000000e+03 1.434879051946406616e+04
1.431000000000000000e+03 1.032324867952621571e+04
1.432000000000000000e+03 5.879566622322677176e+03
1.433000000000000000e+03 1.878365499438161714e+04
1.434000000000000000e+03 1.232996573885539874e+04
1.435000000000000000e+03 9.126445342884768252e+03
1.436000000000000000e+03 4.974421489558019857e+03
1.437000000000000000e+03 1.887585532484498253e+04
1.438000000000000000e+03 2.654990367800418244e+04
1.439000000000000000e+03 2.137655848260269704e+04
1.440000000000000000e+03 3.691799999597098940e+04
1.441000000000000000e+03 2.662843031985063863e+04
1.442000000000000000e+03 1.551317217864338272e+04
1.443000000000000000e+03 2.171935099006688233e+03
1.444000000000000000e+03 2.621312614261543786e+03
1.445000000000000000e+03 2.323300321035001252e+04
1.446000000000000000e+03 1.026331797120987358e+04
1.447000000000000000e+03 3.110224348431974067e+04
1.448000000000000000e+03 1.102727975102698292e+04
1.449000000000000000e+03 1.092382735257337117e+04
1.450000000000000000e+03 1.882434481364875319e+04
1.451000000000000000e+03 1.891612039697759246e+04
1.452000000000000000e+03 3.387518256584071787e+04
1.453000000000000000e+03 1.029859555573542893e+05
1.454000000000000000e+03 5.412465709428159607e+04
1.455000000000000000e+03 2.926748742795311409e+04
1.456000000000000000e+03 2.215452360185092039e+04
1.457000000000000000e+03 5.388122017563006375e+04
1.458000000000000000e+03 4.955628643938315508e+04
1.459000000000000000e+03 1.157689832850917082e+04
1.460000000000000000e+03 1.536313623575856400e+04
1.461000000000000000e+03 3.107423712151311520e+03
1.462000000000000000e+03 7.052070801823170768e+03
1.463000000000000000e+03 4.587216439883069688e+04
1.464000000000000000e+03 9.707155556090225218e+03
1.465000000000000000e+03 1.840193386152931635e+04
1.466000000000000000e+03 1.572862190076038314e+04
1.467000000000000000e+03 1.835361836841782861e+04
1.468000000000000000e+03 3.611707098614896677e+04
1.469000000000000000e+03 1.844040360183294615e+04
1.470000000000000000e+03 4.175143468636932812e+04
1.471000000000000000e+03 4.769793518239320292e+03
1.472000000000000000e+03 1.311662588127481467e+04
1.473000000000000000e+03 2.029633594496675505e+04
1.474000000000000000e+03 3.481329091056446941e+03
1.475000000000000000e+03 9.449006801089475630e+03
1.476000000000000000e+03 1.250606182398801684e+04
1.477000000000000000e+03 3.657371453095485776e+04
1.478000000000000000e+03 2.980690640367960441e+04
1.479000000000000000e+03 1.986911052885742174e+04
1.480000000000000000e+03 7.495070238081980278e+03
1.481000000000000000e+03 5.923095875386719854e+04
1.482000000000000000e+03 4.360938604062419472e+04
1.483000000000000000e+03 5.249232688443431107e+04
1.484000000000000000e+03 2.524299680108805842e+04
1.485000000000000000e+03 1.018182170432810526e+05
1.486000000000000000e+03 3.701767615457246575e+04
1.487000000000000000e+03 4.538901077951328625e+04
1.488000000000000000e+03 8.666377017841658017e+03
1.489000000000000000e+03 9.027278502481725809e+03
1.490000000000000000e+03 3.937884902781380515e+04
1.491000000000000000e+03 4.077484084411527147e+04
1.492000000000000000e+03 4.339059170507008821e+04
1.493000000000000000e+03 2.514660839756737914e+04
1.494000000000000000e+03 1.228918687604149636e+04
1.495000000000000000e+03 1.325113881912156467e+04
1.496000000000000000e+03 3.749734446781528095e+04
1.497000000000000000e+03 1.663137082550947889e+04
1.498000000000000000e+03 1.966912901500776570e+04
1.499000000000000000e+03 4.147266318741864961e+04
1.500000000000000000e+03 6.004452168089706538e+04
1.501000000000000000e+03 5.511725253399115900e+04
1.502000000000000000e+03 4.019135469685801945e+04
1.503000000000000000e+03 2.228233747052868785e+04
1.504000000000000000e+03 2.987878985272561113e+04
1.505000000000000000e+03 3.099698659531777230e+04
1.506000000000000000e+03 2.479696210986809820e+04
1.507000000000000000e+03 1.951926468216556532e+04
1.508000000000000000e+03 1.152637091140651319e+04
1.509000000000000000e+03 2.089991035291512890e+04
1.510000000000000000e+03 1.663848902466117579e+04
1.511000000000000000e+03 1.589848022743287765e+04
1.512000000000000000e+03 1.010342902858218258e+04
1.513000000000000000e+03 5.264971505601570971e+04
1.514000000000000000e+03 4.049183094133299892e+04
1.515000000000000000e+03 3.645946263561334490e+04
1.516000000000000000e+03 2.700596961607545018e+04
1.517000000000000000e+03 3.928064779995131539e+04
1.518000000000000000e+03 9.668749380933352222e+04
1.519000000000000000e+03 7.070911107026919490e+04
1.520000000000000000e+03 4.473816993120454572e+04
1.521000000000000000e+03 4.957869860255211097e+04
1.522000000000000000e+03 2.045584383859036461e+04
1.523000000000000000e+03 1.284068179628859252e+04
1.524000000000000000e+03 9.437785317980613399e+03
1.525000000000000000e+03 1.601060080665790520e+04
1.526000000000000000e+03 2.575772450833327457e+04
1.527000000000000000e+03 3.064428459762669081e+04
1.528000000000000000e+03 1.621001147372254309e+04
1.529000000000000000e+03 5.178904643042363023e+04
1.530000000000000000e+03 9.855185703759026364e+04
1.531000000000000000e+03 4.877005177917676338e+04
1.532000000000000000e+03 9.023182850727322511e+04
1.533000000000000000e+03 1.103256756413576077e+05
1.534000000000000000e+03 2.865141416180368833e+04
1.535000000000000000e+03 7.829183524561484228e+04
1.536000000000000000e+03 4.439448014350292215e+04
1.537000000000000000e+03 2.424739262236013383e+04
1.538000000000000000e+03 2.332383375841870293e+04
1.539000000000000000e+03 1.091154624792464165e+04
1.540000000000000000e+03 3.356525319392929669e+04
1.541000000000000000e+03 1.389692262984325862e+04
1.542000000000000000e+03 1.202240383677350292e+04
1.543000000000000000e+03 1.041989409995409369e+04
1.544000000000000000e+03 3.766379858510578197e+04
1.545000000000000000e+03 1.258413806838453274e+04
1.546000000000000000e+03 2.043566202102995885e+04
1.547000000000000000e+03 2.273245654863333039e+04
1.548000000000000000e+03 1.776711913563183043e+04
1.549000000000000000e+03 1.100346070968406457e+04
1.550000000000000000e+03 3.366438058329097839e+04
1.551000000000000000e+03 2.707101654872599465e+04
1.552000000000000000e+03 5.661925273213614855e+04
1.553000000000000000e+03 2.194579626773557175e+04
1.554000000000000000e+03 2.061717112365051435e+04
1.555000000000000000e+03 6.690457434440104407e+03
1.556000000000000000e+03 1.750632525897380037e+04
1.557000000000000000e+03 1.389364902526228070e+04
1.558000000000000000e+03 1.101970668420231596e+04
1.559000000000000000e+03 7.661060318927643493e+03
1.560000000000000000e+03 1.561577228676820596e+04
1.561000000000000000e+03 7.504274757486010458e+03
1.562000000000000000e+03 2.122794952999352245e+04
1.563000000000000000e+03 4.550033321745190187e+04
1.564000000000000000e+03 5.630986463544006983e+04
1.565000000000000000e+03 2.492575908297541901e+04
1.566000000000000000e+03 1.120907975264955894e+04
1.567000000000000000e+03 2.316298552587617814e+04
1.568000000000000000e+03 1.708962152361890185e+04
1.569000000000000000e+03 5.604326572986972315e+04
1.570000000000000000e+03 2.523408379450659140e+03
1.571000000000000000e+03 1.040408094139415152e+04
1.572000000000000000e+03 4.868240214192628628e+03
1.573000000000000000e+03 9.173037750754923763e+03
1.574000000000000000e+03 1.178782089419613294e+04
1.575000000000000000e+03 8.358071640718337221e+03
1.576000000000000000e+03 9.470610645053977350e+03
1.577000000000000000e+03 1.028226207288857040e+04
1.578000000000000000e+03 1.672487773267363445e+04
1.579000000000000000e+03 2.040478204601640755e+04
1.580000000000000000e+03 2.151808925639828885e+04
1.581000000000000000e+03 1.033244411877749371e+04
1.582000000000000000e+03 1.274228215414755323e+04
1.583000000000000000e+03 5.215252807019420288e+03
1.584000000000000000e+03 2.588313650787890947e+04
1.585000000000000000e+03 3.217056561329126907e+03
1.586000000000000000e+03 6.111401399072924505e+03
1.587000000000000000e+03 7.783240386188192133e+03
1.588000000000000000e+03 2.953461357782650794e+03
1.589000000000000000e+03 5.067769888881499355e+03
1.590000000000000000e+03 1.759970484426842813e+04
1.591000000000000000e+03 1.836409266297845897e+04
1.592000000000000000e+03 1.813967675563956436e+04
1.593000000000000000e+03 1.238981073075866698e+04
1.594000000000000000e+03 1.034819209737168239e+04
1.595000000000000000e+03 1.106592370075129475e+04
1.596000000000000000e+03 8.138807491942303386e+03
1.597000000000000000e+03 6.786193748763549593e+03
1.598000000000000000e+03 8.465542376303581477e+03
1.599000000000000000e+03 6.978657620179228616e+03
1.600000000000000000e+03 1.133670451234817301e+04
1.601000000000000000e+03 5.341499999999985448e+03
