0.000000000000000000e+00 -4.497455069035711404e+02
3.125000000000000065e-04 1.136070016132456203e+03
6.250000000000000130e-04 1.425183339727206203e+03
9.374999999999999653e-04 3.661043547546084937e+02
1.250000000000000026e-03 -1.590902170513238616e+03
1.562500000000000087e-03 -1.771188986898649773e+03
1.874999999999999931e-03 7.432391831686048818e+02
2.187500000000000208e-03 2.286307532000310857e+03
2.500000000000000052e-03 5.878901772376973440e+02
2.812499999999999896e-03 -1.824927458230186176e+03
3.125000000000000173e-03 -1.692659282767823242e+03
3.437500000000000017e-03 1.526997660632788154e+02
3.749999999999999861e-03 2.230678039445959257e+03
4.062500000000000139e-03 1.492087459792257505e+03
4.375000000000000416e-03 -1.282990156621031019e+03
4.687499999999999827e-03 -2.320510489363403849e+03
5.000000000000000104e-03 -2.181951783870650843e+02
5.312500000000000382e-03 2.209111925796849846e+03
5.624999999999999792e-03 2.444592266665422812e+03
5.937500000000000069e-03 -7.714425822322046997e+02
6.250000000000000347e-03 -3.055583686231293996e+03
6.562499999999999757e-03 -1.175371806507314432e+03
6.875000000000000035e-03 2.556060479129541363e+03
7.187500000000000312e-03 2.938622960408699328e+03
7.499999999999999722e-03 -6.977578016691364837e+02
7.812500000000000000e-03 -2.840770251516647477e+03
8.125000000000000278e-03 -1.732181933871105002e+03
8.437500000000000555e-03 1.513395064835182893e+03
8.750000000000000833e-03 3.187544719893295678e+03
9.062499999999999375e-03 3.933507721709343059e+02
9.374999999999999653e-03 -2.616087667800183226e+03
9.687499999999999931e-03 -2.553622021064164528e+03
1.000000000000000021e-02 5.442782654543512990e+02
1.031250000000000049e-02 3.362149931058798757e+03
1.062500000000000076e-02 2.011011125642243314e+03
1.093750000000000104e-02 -1.840832158908852762e+03
1.124999999999999958e-02 -3.407350634923575853e+03
1.156249999999999986e-02 -4.833793737192198705e+02
1.187500000000000014e-02 3.521882900942977358e+03
1.218750000000000042e-02 2.711989124189801259e+03
1.250000000000000069e-02 -1.314768479789010144e+03
1.281250000000000097e-02 -3.352414755789191986e+03
1.312499999999999951e-02 -1.182760139487319293e+03
1.343749999999999979e-02 2.536861081992587515e+03
1.375000000000000007e-02 2.956714202407035827e+03
1.406250000000000035e-02 -2.175171415705301285e+02
1.437500000000000062e-02 -3.159813524797019454e+03
1.468750000000000090e-02 -2.215606643620812520e+03
1.499999999999999944e-02 1.327174996228020063e+03
1.531249999999999972e-02 3.523946875541438203e+03
1.562500000000000000e-02 6.448729987248965472e+02
1.593750000000000028e-02 -3.017491664444980415e+03
1.625000000000000056e-02 -2.627427105978901636e+03
1.656250000000000083e-02 8.849458290584757378e+02
1.687500000000000111e-02 3.147227318473925607e+03
1.718750000000000139e-02 8.302584534628596202e+02
1.750000000000000167e-02 -2.360017559732768405e+03
1.781250000000000194e-02 -1.849367922361652518e+03
1.812499999999999875e-02 9.284231776530152729e+02
1.843749999999999903e-02 2.277577915730092627e+03
1.874999999999999931e-02 5.342420126140087859e+02
1.906249999999999958e-02 -1.701168355842836718e+03
1.937499999999999986e-02 -1.465736545696571966e+03
1.968750000000000014e-02 8.536938843925285028e+02
2.000000000000000042e-02 1.694555073524873023e+03
2.031250000000000069e-02 3.033548263958330153e+02
2.062500000000000097e-02 -2.054729014882137108e+03
2.093750000000000125e-02 -1.133309332272991242e+03
2.125000000000000153e-02 1.376193270265408501e+03
2.156250000000000180e-02 1.247331331271348745e+03
2.187500000000000208e-02 -7.776005574092251891e+02
2.218749999999999889e-02 -1.535393732202544243e+03
2.249999999999999917e-02 -4.483690876526368356e+02
2.281249999999999944e-02 2.059570589639105037e+03
2.312499999999999972e-02 8.471623645798093776e+02
2.343750000000000000e-02 -1.531322721906258948e+03
2.375000000000000028e-02 -1.281753721652022023e+03
2.406250000000000056e-02 1.854711679668676254e+02
2.437500000000000083e-02 1.963330567127971790e+03
2.468750000000000111e-02 9.110913965733994928e+02
2.500000000000000139e-02 -1.453064823451720713e+03
2.531250000000000167e-02 -1.654376065426948344e+03
2.562500000000000194e-02 4.745131773000308613e+02
2.593750000000000222e-02 2.061416238262108436e+03
2.624999999999999903e-02 7.117883990693140959e+02
2.656249999999999931e-02 -1.958872581064267024e+03
2.687499999999999958e-02 -1.702486042750787647e+03
2.718749999999999986e-02 7.063120775120174812e+02
2.750000000000000014e-02 2.511883942738370934e+03
2.781250000000000042e-02 8.365890448016189112e+02
2.812500000000000069e-02 -2.253410121605770655e+03
2.843750000000000097e-02 -1.999736143388655137e+03
2.875000000000000125e-02 5.617486038411637992e+02
2.906250000000000153e-02 2.478294366519213327e+03
2.937500000000000180e-02 1.131941097834062248e+03
2.968750000000000208e-02 -1.418170904481384241e+03
2.999999999999999889e-02 -2.407965514455963330e+03
3.031249999999999917e-02 -5.290237299338245975e+02
3.062499999999999944e-02 2.318123196947401539e+03
3.093749999999999972e-02 1.721465274231781223e+03
