0.000000000000000000e+00 4.500163274516724243e+01
3.125000000000000065e-04 -1.738602720672506337e+02
6.250000000000000130e-04 -8.465418393101914774e+01
9.374999999999999653e-04 -6.935880580166637799e+01
1.250000000000000026e-03 -8.569303014249534112e-01
1.562500000000000087e-03 -1.334617173010769591e+02
1.874999999999999931e-03 -4.474677635797004172e+01
2.187500000000000208e-03 -6.202608626599070618e+01
2.500000000000000052e-03 1.017401496281261188e+02
2.812499999999999896e-03 8.087763827588487686e+01
3.125000000000000173e-03 -5.611916910389729196e+01
3.437500000000000017e-03 9.604297117739439216e+01
3.749999999999999861e-03 -9.983725268812794695e+01
4.062500000000000139e-03 -1.291122348244062721e+02
4.375000000000000416e-03 3.208249279132215293e+01
4.687499999999999827e-03 4.322353904291481541e+01
5.000000000000000104e-03 1.047897526029542803e+01
5.312500000000000382e-03 2.773900653148762885e+01
5.624999999999999792e-03 -2.277720733721062629e+02
5.937500000000000069e-03 -3.133582883639560279e+01
6.250000000000000347e-03 -1.253572003432347088e+02
6.562499999999999757e-03 -1.248307912131766528e+02
6.875000000000000035e-03 -4.602318994428588894e+01
7.187500000000000312e-03 -8.382130753337753148e+00
7.499999999999999722e-03 -3.694071228785926753e+00
7.812500000000000000e-03 -1.132394673733973036e+02
8.125000000000000278e-03 2.421142069494105442e+01
8.437500000000000555e-03 -5.567512418297585697e+01
8.750000000000000833e-03 -1.372755012279701532e+02
9.062499999999999375e-03 -6.108273474686782123e+01
9.374999999999999653e-03 -9.691847489103511748e+01
9.687499999999999931e-03 1.137720213385150316e+02
1.000000000000000021e-02 -1.000233568200648726e+01
1.031250000000000049e-02 -1.492331014841995511e+02
1.062500000000000076e-02 4.572026890367749985e+01
1.093750000000000104e-02 3.066590327632244595e+01
1.124999999999999958e-02 5.622836291252792051e+00
1.156249999999999986e-02 -2.446804138500234771e+01
1.187500000000000014e-02 -7.477680491420788655e+01
1.218750000000000042e-02 -1.575384713158901775e+02
1.250000000000000069e-02 3.768792027378530207e+01
1.281250000000000097e-02 -1.334649364779221230e+02
1.312499999999999951e-02 -3.435667997479488633e+01
1.343749999999999979e-02 1.376034325162101766e+02
1.375000000000000007e-02 -2.258695281210046062e+02
1.406250000000000035e-02 -6.180789691324099522e+01
1.437500000000000062e-02 2.767855647523107976e+01
1.468750000000000090e-02 -1.289331261806768225e+02
1.499999999999999944e-02 -2.258140889595847796e+02
1.531249999999999972e-02 -5.769447630647682246e+01
1.562500000000000000e-02 -9.921454979927499096e+01
1.593750000000000028e-02 8.301561836724246746e+00
1.625000000000000056e-02 -2.091192675404508350e+02
1.656250000000000083e-02 -1.992238395625663827e+02
1.687500000000000111e-02 8.704071537000994851e+01
1.718750000000000139e-02 -6.825525111113051935e+01
1.750000000000000167e-02 -1.235236899943373068e+01
1.781250000000000194e-02 -1.122312209443272764e+02
1.812499999999999875e-02 7.480791504036778861e+01
1.843749999999999903e-02 -9.950150759951824853e+01
1.874999999999999931e-02 5.549324883913753581e+01
1.906249999999999958e-02 -1.509965651521884809e+02
1.937499999999999986e-02 5.082905862812284425e+01
1.968750000000000014e-02 1.235243358455015255e+02
2.000000000000000042e-02 -3.099705997969523423e+02
2.031250000000000069e-02 1.090140344939868697e+02
2.062500000000000097e-02 -3.105310805941017449e+01
2.093750000000000125e-02 -8.694504437405949204e+01
2.125000000000000153e-02 1.332230892073363826e+01
2.156250000000000180e-02 3.870245744643799668e+01
2.187500000000000208e-02 -4.333119214011878739e+01
2.218749999999999889e-02 -1.232287424500948703e+02
2.249999999999999917e-02 -1.875916413322972573e+02
2.281249999999999944e-02 -1.211192928194130900e+02
2.312499999999999972e-02 4.284356742926294537e+00
2.343750000000000000e-02 -1.152541554814393550e+02
2.375000000000000028e-02 -1.915857440972425252e+01
2.406250000000000056e-02 -9.793905268454759394e+00
2.437500000000000083e-02 4.370628497461650497e+00
2.468750000000000111e-02 -5.138455572106001057e+01
2.500000000000000139e-02 3.341969285929515809e-01
2.531250000000000167e-02 -1.423651319925277221e+02
2.562500000000000194e-02 -1.734467931903137128e+01
2.593750000000000222e-02 -9.855921936770312186e+01
2.624999999999999903e-02 -1.375717999340092490e+02
2.656249999999999931e-02 9.504726281080661465e+01
2.687499999999999958e-02 -9.038681769307324032e+01
2.718749999999999986e-02 -9.812528603026413521e+01
2.750000000000000014e-02 2.462287393655481083e+02
2.781250000000000042e-02 5.126792517362963508e+01
2.812500000000000069e-02 6.600991749325699232e+01
2.843750000000000097e-02 -1.027595923726437945e+02
2.875000000000000125e-02 -2.067965583642486820e+02
2.906250000000000153e-02 4.551468552887152441e+01
2.937500000000000180e-02 -3.785629254909899544e+01
2.968750000000000208e-02 -9.537935006243193925e+01
2.999999999999999889e-02 8.760282311181700976e+00
3.031249999999999917e-02 5.727343655804870792e+01
3.062499999999999944e-02 -7.841126535137286169e+01
3.093749999999999972e-02 7.818337677855994627e+01
3.125000000000000000e-02 -1.113068844479413997e+02
3.156250000000000028e-02 -5.416777162702474868e+01
3.187500000000000056e-02 -7.242349497790934265e+01
3.218750000000000083e-02 -1.548673748634662672e+02
3.250000000000000111e-02 4.091696794976177642e+01
3.281250000000000139e-02 2.668828236065326465e+01
3.312500000000000167e-02 -9.690798961004006173e+01
3.343750000000000194e-02 1.540827981073422892e+00
3.375000000000000222e-02 2.509563427700261684e+02
3.406250000000000250e-02 1.227346060776802261e+02
3.437500000000000278e-02 7.196975670570482464e+01
3.468750000000000305e-02 2.336027875473216042e+01
3.500000000000000333e-02 2.991454725369965573e+01
3.531250000000000361e-02 1.290876811405717035e+02
3.562500000000000389e-02 -4.524969437185463050e+01
3.593750000000000416e-02 1.399583844992860548e+01
3.624999999999999750e-02 1.510555296681774706e+01
3.656249999999999778e-02 5.607501741918305527e+01
3.687499999999999806e-02 -8.214935813106478690e+01
3.718749999999999833e-02 5.917775322967293050e+01
3.749999999999999861e-02 -2.819466930211875138e+02
3.781249999999999889e-02 -2.811798247976428655e+01
3.812499999999999917e-02 -1.313922951737280087e+01
3.843749999999999944e-02 -5.074812260076687664e+01
3.874999999999999972e-02 1.904650293732926798e+02
3.906250000000000000e-02 -1.269550465613941839e+02
3.937500000000000028e-02 -6.604496272451076777e+01
3.968750000000000056e-02 4.558181325069703860e+01
4.000000000000000083e-02 1.443206292697420849e+02
4.031250000000000111e-02 -4.028607662087874131e-01
4.062500000000000139e-02 -1.552858821607810746e+01
4.093750000000000167e-02 6.208245386142839806e+01
4.125000000000000194e-02 1.445637308624808384e+02
4.156250000000000222e-02 -4.840791677594538100e+00
4.187500000000000250e-02 1.698727663802032239e+01
4.218750000000000278e-02 1.476116514933623236e+01
4.250000000000000305e-02 9.598743499093624010e+00
4.281250000000000333e-02 -3.806587250227421038e+01
4.312500000000000361e-02 6.311850108660078007e+00
4.343750000000000389e-02 -5.383842874364927411e+01
4.375000000000000416e-02 -1.699725124025532352e+02
4.406249999999999750e-02 1.260853679977284791e+01
4.437499999999999778e-02 1.341638453349089311e+01
4.468749999999999806e-02 3.968426192621195980e+01
4.499999999999999833e-02 -1.069963957561832899e+02
4.531249999999999861e-02 -1.769645605708642577e+01
4.562499999999999889e-02 -1.290837469575444061e+02
4.593749999999999917e-02 -1.912971529293607986e+01
4.624999999999999944e-02 -1.996604096266714237e+02
4.656249999999999972e-02 -1.046666512830371119e+02
4.687500000000000000e-02 -8.629929494564581205e+01
4.718750000000000028e-02 5.075797552379494704e+01
4.750000000000000056e-02 -7.472886655357589802e+01
4.781250000000000083e-02 -2.959917988018761648e+01
4.812500000000000111e-02 6.148692577130683645e+01
4.843750000000000139e-02 5.638860892928799551e+00
4.875000000000000167e-02 -8.304282126029697508e+00
4.906250000000000194e-02 -8.384642560078371787e+01
4.937500000000000222e-02 1.538949603202241576e+02
4.968750000000000250e-02 -7.099591734556443612e+01
5.000000000000000278e-02 -6.508864473259883709e+01
5.031250000000000305e-02 -1.364191090230964392e+02
5.062500000000000333e-02 1.017076342826617150e+02
5.093750000000000361e-02 4.083014096692313188e+01
5.125000000000000389e-02 -1.924771438549134928e+02
5.156250000000000416e-02 1.239759769056136207e+02
5.187500000000000444e-02 -7.010429811915842890e+01
5.218749999999999778e-02 -1.048550264190855863e+01
5.249999999999999806e-02 -1.159092136275609732e+02
5.281249999999999833e-02 3.095651774648082721e+01
5.312499999999999861e-02 -5.963070071453477539e+01
5.343749999999999889e-02 -9.303251629664299571e+01
5.374999999999999917e-02 -3.072606824341070819e+02
5.406249999999999944e-02 2.138739367278602899e+01
5.437499999999999972e-02 -3.157896435912719824e+01
5.468750000000000000e-02 -2.683584505093148564e+01
5.500000000000000028e-02 -3.321026411178849003e+01
5.531250000000000056e-02 -3.359635577717842381e+01
5.562500000000000083e-02 1.601935636711167774e+02
5.593750000000000111e-02 1.526664580555688389e+01
5.625000000000000139e-02 -1.495426657375712978e+02
5.656250000000000167e-02 -1.062819404876485976e+02
5.687500000000000194e-02 7.741627540553821518e+01
5.718750000000000222e-02 -9.058194791882921493e+01
5.750000000000000250e-02 -8.801444862266180280e+01
5.781250000000000278e-02 1.188944077277621005e+02
5.812500000000000305e-02 -2.439086319853346296e+01
5.843750000000000333e-02 -1.817235554482492432e+01
5.875000000000000361e-02 1.263977191296836651e+02
5.906250000000000389e-02 5.579031937415518883e+01
5.937500000000000416e-02 5.901547469050706951e+01
5.968750000000000444e-02 -1.540343559933203892e+02
5.999999999999999778e-02 -2.201747753990447904e+02
6.031249999999999806e-02 1.157714598232983576e+02
6.062499999999999833e-02 -7.598734098343585686e+01
6.093749999999999861e-02 -4.324650197539379803e+01
6.124999999999999889e-02 -2.416709458932938404e+01
6.156249999999999917e-02 1.364798603203861376e+02
6.187499999999999944e-02 2.294060178890752155e+01
6.218749999999999972e-02 7.611150215344706282e+01
6.250000000000000000e-02 -1.295889882639550308e+02
6.281250000000000722e-02 5.703691232070944750e+01
6.312500000000000056e-02 -4.141891119414626843e+01
6.343750000000000777e-02 -1.334484255841755385e+02
6.375000000000000111e-02 1.062476197628394203e+02
6.406249999999999445e-02 -3.015436037823221938e+01
6.437500000000000167e-02 6.534046370425835448e+01
6.468749999999999500e-02 8.480717446927654635e+01
6.500000000000000222e-02 2.807420918450882041e+01
6.531249999999999556e-02 1.563095752180331033e+02
6.562500000000000278e-02 9.123345130011399817e+01
6.593749999999999611e-02 -2.841749869372520010e+01
6.625000000000000333e-02 7.060816146648109282e+01
6.656249999999999667e-02 8.510838744026837333e+01
6.687500000000000389e-02 -7.122988382125149087e+01
6.718749999999999722e-02 4.772928204411579145e+01
6.750000000000000444e-02 -3.174439067877584009e+00
6.781249999999999778e-02 2.049125330834832823e+02
6.812500000000000500e-02 -5.177776423383760829e+01
6.843749999999999833e-02 1.397412167346953140e+02
6.875000000000000555e-02 -1.790549316813596761e+02
6.906249999999999889e-02 2.377132122745104823e+02
6.937500000000000611e-02 -1.409377812851239185e+02
6.968749999999999944e-02 -1.052063217024505519e+02
7.000000000000000666e-02 1.647413438025240850e+02
7.031250000000000000e-02 -1.303548977861855462e+02
7.062500000000000722e-02 1.138235371638229481e+02
7.093750000000000056e-02 1.159984732519579751e+02
7.125000000000000777e-02 -1.794428865296325171e+02
7.156250000000000111e-02 2.543016032474453070e+01
7.187500000000000833e-02 4.090432854948561214e+01
7.218750000000000167e-02 5.531174285961235171e+01
7.249999999999999500e-02 2.637354271745828669e+02
7.281250000000000222e-02 -3.596222509011330715e+01
7.312499999999999556e-02 1.897308369781262627e+01
7.343750000000000278e-02 1.449758024984417943e+02
7.374999999999999611e-02 1.612044902730056606e+01
7.406250000000000333e-02 5.151538713782373691e+01
7.437499999999999667e-02 -1.232069646369344795e+01
7.468750000000000389e-02 -3.543410787640772330e+00
7.499999999999999722e-02 -2.653801301224500619e+01
7.531250000000000444e-02 2.164986853209358344e+02
7.562499999999999778e-02 -1.047501224449979418e+02
7.593750000000000500e-02 1.742154506815572645e+01
7.624999999999999833e-02 2.107297628665113507e+02
7.656250000000000555e-02 -1.841150692411536056e+02
7.687499999999999889e-02 2.945780973553475235e+01
7.718750000000000611e-02 3.279792394164191194e+01
7.749999999999999944e-02 -3.670815138747078663e+02
7.781250000000000666e-02 -9.976145423720785743e+01
7.812500000000000000e-02 -5.146734123797543248e+01
7.843750000000000722e-02 1.484243849246157083e+02
7.875000000000000056e-02 1.048282618029488305e+02
7.906250000000000777e-02 -1.021278184433369773e+02
7.937500000000000111e-02 8.848385713032105571e+01
7.968750000000000833e-02 1.382413277127416222e+02
8.000000000000000167e-02 2.318069700583316006e+01
8.031249999999999500e-02 -5.755323725614328367e+01
8.062500000000000222e-02 1.061441682962767459e+02
8.093749999999999556e-02 -7.573608023058334027e+01
8.125000000000000278e-02 9.041869697255931726e+01
8.156249999999999611e-02 9.027609405362002803e+01
8.187500000000000333e-02 -3.894513270760762680e+01
8.218749999999999667e-02 1.027868218286411377e+02
8.250000000000000389e-02 -5.690431684817083635e+01
8.281249999999999722e-02 -5.382565706306092324e+01
8.312500000000000444e-02 7.266943069997592319e-01
8.343749999999999778e-02 -6.430660385034211401e+01
8.375000000000000500e-02 -2.737580319438797005e+02
8.406249999999999833e-02 -9.962311703402246366e+00
8.437500000000000555e-02 -8.593659656067787012e+01
8.468749999999999889e-02 6.631963935948105870e+01
8.500000000000000611e-02 -6.414712989068961591e+00
8.531249999999999944e-02 -2.262195710441939696e+02
8.562500000000000666e-02 5.500325271396626903e+01
8.593750000000000000e-02 8.172781870987375896e+01
8.625000000000000722e-02 1.455383237115466688e+00
8.656250000000000056e-02 -3.157870583392505992e+01
8.687500000000000777e-02 8.937714158426580013e+01
8.718750000000000111e-02 -1.142585725647406889e+02
8.750000000000000833e-02 1.042229491654825324e+01
8.781250000000000167e-02 -1.254929943246126527e+02
8.812499999999999500e-02 4.621063504671310085e+01
8.843750000000000222e-02 5.015670896181829619e+01
8.874999999999999556e-02 -1.565525183460567860e+02
8.906250000000000278e-02 8.930546842669632213e+01
8.937499999999999611e-02 1.935137525130807390e+00
8.968750000000000333e-02 -9.906452955977046315e+01
8.999999999999999667e-02 -1.316689593534152323e+02
9.031250000000000389e-02 -2.402972789746645788e+01
9.062499999999999722e-02 -8.693662513586522778e+01
9.093750000000000444e-02 -1.992641941941989359e+01
9.124999999999999778e-02 -9.246859694432281174e+01
9.156250000000000500e-02 -1.099565727941433551e+02
9.187499999999999833e-02 3.863528392532319344e+01
9.218750000000000555e-02 -5.338701429892196160e+01
9.249999999999999889e-02 -1.586135834035502512e+01
9.281250000000000611e-02 9.093638178848019038e+01
9.312499999999999944e-02 -6.276475527528538123e+01
9.343750000000000666e-02 -1.038455169304285306e+02
9.375000000000000000e-02 -2.393600902702701561e+01
9.406250000000000722e-02 -7.307699658613503857e+01
9.437500000000000056e-02 -2.551170612305766738e+01
9.468750000000000777e-02 -3.660713885478336493e+01
9.500000000000000111e-02 -4.472577863717309299e+01
9.531250000000000833e-02 -5.553952450864355228e+01
9.562500000000000167e-02 6.189526594293279516e+01
9.593750000000000888e-02 -5.881742539022614125e+01
9.625000000000000222e-02 -1.797223052676022803e+02
9.656249999999999556e-02 5.134625598882991682e+01
9.687500000000000278e-02 1.571614033680420341e+01
9.718749999999999611e-02 -4.815027881444256508e+01
9.750000000000000333e-02 -1.847475183119242672e+02
9.781249999999999667e-02 -6.631810366204226170e+01
9.812500000000000389e-02 -7.241921946089290074e+00
9.843749999999999722e-02 -5.452216320941142413e+01
9.875000000000000444e-02 -1.479010093767923362e+00
9.906249999999999778e-02 1.535047289266494488e+02
9.937500000000000500e-02 -7.746679998181313920e+01
9.968749999999999833e-02 -6.286519597495043143e+01
1.000000000000000056e-01 -1.837892438212153021e-02
1.003124999999999989e-01 6.015898057122998921e+01
1.006250000000000061e-01 -1.075223956091563906e+02
1.009374999999999994e-01 -4.667936473307915435e+01
1.012500000000000067e-01 -4.999743772150502963e+01
1.015625000000000000e-01 -1.211615832259363117e+02
1.018750000000000072e-01 1.484479022455218171e+02
1.021875000000000006e-01 -2.234271727668740937e+01
1.025000000000000078e-01 -1.429127707278007620e+02
1.028125000000000011e-01 5.485210460419224177e+01
1.031250000000000083e-01 -3.490440667190727453e+01
1.034375000000000017e-01 4.062761225131780662e+01
1.037500000000000089e-01 -2.439932777828712318e+01
1.040625000000000022e-01 -1.254611278990083321e+02
1.043749999999999956e-01 7.899477748749526462e+00
1.046875000000000028e-01 6.413855817411281635e+01
1.049999999999999961e-01 1.535860233723277268e+01
1.053125000000000033e-01 5.106932552668555303e+01
1.056249999999999967e-01 -1.166920713109240211e+02
1.059375000000000039e-01 -7.395208917681269156e+01
1.062499999999999972e-01 1.234579688739051591e+02
1.065625000000000044e-01 2.869359845230433947e+01
1.068749999999999978e-01 -1.428414983849129101e+02
1.071875000000000050e-01 1.068389111786474075e+02
1.074999999999999983e-01 -1.169750586647689374e+02
1.078125000000000056e-01 -1.201862617094067076e+02
1.081249999999999989e-01 8.871495536952217265e+01
1.084375000000000061e-01 -2.886200242899010604e+01
1.087499999999999994e-01 -2.030396819623157398e+02
1.090625000000000067e-01 -3.006308063559648858e+00
1.093750000000000000e-01 -8.531354635567647904e+01
1.096875000000000072e-01 1.041832554812060891e+02
1.100000000000000006e-01 -2.127913180560675812e+02
1.103125000000000078e-01 -1.398017597885871908e+02
1.106250000000000011e-01 6.885616523637025921e+01
1.109375000000000083e-01 1.064755041371895743e+02
1.112500000000000017e-01 3.464648563268026749e+01
1.115625000000000089e-01 -8.395881318225255541e+01
1.118750000000000022e-01 -2.487705400566622060e+01
1.121874999999999956e-01 -1.802964315380170035e+02
1.125000000000000028e-01 2.263780285044496168e+02
1.128124999999999961e-01 -2.975957248104541364e+01
1.131250000000000033e-01 -8.824910903730946643e+01
1.134374999999999967e-01 1.140589201038794158e+02
1.137500000000000039e-01 -6.104718719538601590e+01
1.140624999999999972e-01 -1.066910386867471772e+02
1.143750000000000044e-01 3.146920169626444874e+01
1.146874999999999978e-01 -1.031328688178856794e+02
1.150000000000000050e-01 -6.411449795533775387e+01
1.153124999999999983e-01 8.629314538974765014e+01
1.156250000000000056e-01 -1.089327070358556568e+02
1.159374999999999989e-01 5.666456387993774513e+01
1.162500000000000061e-01 -2.130638802044719569e+02
1.165624999999999994e-01 -1.974797007205605439e+02
1.168750000000000067e-01 1.063653427291881712e+02
1.171875000000000000e-01 6.743892363321202765e+01
1.175000000000000072e-01 1.471272687544761659e+01
1.178125000000000006e-01 -1.845732177674071650e+01
1.181250000000000078e-01 -1.269637620571748471e+02
1.184375000000000011e-01 -1.134940648038666495e+02
1.187500000000000083e-01 1.096507264626859808e+02
1.190625000000000017e-01 -2.384036363888818357e+02
1.193750000000000089e-01 -2.305438896846860874e+00
1.196875000000000022e-01 1.377520039955673781e+02
1.199999999999999956e-01 -2.195117583597761950e+02
1.203125000000000028e-01 2.877772762768686476e+01
1.206249999999999961e-01 -8.489710159312605242e+01
1.209375000000000033e-01 -1.451189523091343290e+02
1.212499999999999967e-01 1.266325159498346835e+02
1.215625000000000039e-01 7.717470077861304389e+01
1.218749999999999972e-01 -7.442922113598197598e+01
1.221875000000000044e-01 -2.470935003808680719e+01
1.224999999999999978e-01 -2.053873366706390868e+02
1.228125000000000050e-01 -1.630955228787910016e+02
1.231249999999999983e-01 8.252338959797440054e+01
1.234375000000000056e-01 2.711020083914480683e+00
1.237499999999999989e-01 5.240331856363630969e+00
1.240625000000000061e-01 1.310672326917465966e+02
1.243749999999999994e-01 -2.200114419546353020e+02
1.246875000000000067e-01 -1.029316548260265591e+02
