0.000000000000000000e+00 2.052300000000000000e+04
3.000000000000000000e+00 9.261000000000000000e+03
6.000000000000000000e+00 3.280000000000000000e+02
9.000000000000000000e+00 6.040000000000000000e+02
1.200000000000000000e+01 4.150000000000000000e+02
1.500000000000000000e+01 5.290000000000000000e+02
1.800000000000000000e+01 5.690000000000000000e+02
2.100000000000000000e+01 3.670000000000000000e+02
2.500000000000000000e+01 9.420000000000000000e+02
2.800000000000000000e+01 1.004000000000000000e+03
3.100000000000000000e+01 9.570000000000000000e+02
3.400000000000000000e+01 9.954000000000000000e+03
3.700000000000000000e+01 5.263300000000000000e+04
4.000000000000000000e+01 4.377500000000000000e+04
4.300000000000000000e+01 4.526000000000000000e+03
4.600000000000000000e+01 2.880000000000000000e+02
5.000000000000000000e+01 7.950000000000000000e+02
5.300000000000000000e+01 3.320000000000000000e+02
5.600000000000000000e+01 4.920000000000000000e+02
5.900000000000000000e+01 9.990000000000000000e+02
6.200000000000000000e+01 1.046000000000000000e+03
6.500000000000000000e+01 9.730000000000000000e+02
6.800000000000000000e+01 1.060000000000000000e+02
7.100000000000000000e+01 9.600000000000000000e+01
7.500000000000000000e+01 2.902000000000000000e+03
7.800000000000000000e+01 4.153000000000000000e+03
8.100000000000000000e+01 1.768000000000000000e+03
8.400000000000000000e+01 4.610000000000000000e+02
8.700000000000000000e+01 5.780000000000000000e+02
9.000000000000000000e+01 6.680000000000000000e+02
9.300000000000000000e+01 6.380000000000000000e+02
9.600000000000000000e+01 4.790000000000000000e+02
1.000000000000000000e+02 6.930000000000000000e+02
1.030000000000000000e+02 3.390000000000000000e+02
1.060000000000000000e+02 2.350000000000000000e+02
1.090000000000000000e+02 8.800000000000000000e+01
1.120000000000000000e+02 1.181000000000000000e+03
1.150000000000000000e+02 3.759000000000000000e+03
1.180000000000000000e+02 1.910000000000000000e+03
1.210000000000000000e+02 6.210000000000000000e+02
1.250000000000000000e+02 1.141000000000000000e+03
1.280000000000000000e+02 9.820000000000000000e+02
1.310000000000000000e+02 1.387000000000000000e+03
1.340000000000000000e+02 6.510000000000000000e+02
1.370000000000000000e+02 2.756000000000000000e+03
1.400000000000000000e+02 3.965000000000000000e+03
1.430000000000000000e+02 8.160000000000000000e+02
1.460000000000000000e+02 3.230000000000000000e+02
1.500000000000000000e+02 3.720000000000000000e+02
1.530000000000000000e+02 2.978000000000000000e+03
1.560000000000000000e+02 2.799000000000000000e+03
1.590000000000000000e+02 3.440000000000000000e+02
1.620000000000000000e+02 4.560000000000000000e+02
1.650000000000000000e+02 1.900000000000000000e+02
1.680000000000000000e+02 5.270000000000000000e+02
1.710000000000000000e+02 3.160000000000000000e+02
1.750000000000000000e+02 8.060000000000000000e+02
1.780000000000000000e+02 9.570000000000000000e+02
1.810000000000000000e+02 3.390000000000000000e+02
1.840000000000000000e+02 6.770000000000000000e+02
1.870000000000000000e+02 5.120000000000000000e+02
1.900000000000000000e+02 3.634000000000000000e+03
1.930000000000000000e+02 6.474000000000000000e+03
1.960000000000000000e+02 2.302000000000000000e+03
2.000000000000000000e+02 6.230000000000000000e+02
2.030000000000000000e+02 3.670000000000000000e+02
2.060000000000000000e+02 3.460000000000000000e+02
2.090000000000000000e+02 4.780000000000000000e+02
2.120000000000000000e+02 7.010000000000000000e+02
2.150000000000000000e+02 2.465000000000000000e+03
2.180000000000000000e+02 2.093000000000000000e+03
2.210000000000000000e+02 4.470000000000000000e+02
2.250000000000000000e+02 8.290000000000000000e+02
2.280000000000000000e+02 8.990000000000000000e+02
2.310000000000000000e+02 5.248000000000000000e+03
2.340000000000000000e+02 3.574000000000000000e+03
2.370000000000000000e+02 6.030000000000000000e+02
2.400000000000000000e+02 7.240000000000000000e+02
2.430000000000000000e+02 5.180000000000000000e+02
2.460000000000000000e+02 1.380000000000000000e+02
2.500000000000000000e+02 3.060000000000000000e+02
2.530000000000000000e+02 4.850000000000000000e+02
2.560000000000000000e+02 1.227000000000000000e+03
2.590000000000000000e+02 1.220000000000000000e+02
2.620000000000000000e+02 1.588000000000000000e+03
2.650000000000000000e+02 1.082000000000000000e+03
2.680000000000000000e+02 9.850000000000000000e+02
2.710000000000000000e+02 1.700000000000000000e+03
2.750000000000000000e+02 1.612000000000000000e+03
2.780000000000000000e+02 1.605000000000000000e+03
2.810000000000000000e+02 7.740000000000000000e+02
2.840000000000000000e+02 2.930000000000000000e+02
2.870000000000000000e+02 3.560000000000000000e+02
2.900000000000000000e+02 8.250000000000000000e+02
2.930000000000000000e+02 9.940000000000000000e+02
2.960000000000000000e+02 6.630000000000000000e+02
3.000000000000000000e+02 1.970000000000000000e+02
3.030000000000000000e+02 2.840000000000000000e+02
3.060000000000000000e+02 9.200000000000000000e+01
3.090000000000000000e+02 6.150000000000000000e+02
3.120000000000000000e+02 4.930000000000000000e+02
3.150000000000000000e+02 4.920000000000000000e+02
3.180000000000000000e+02 5.390000000000000000e+02
3.210000000000000000e+02 1.230000000000000000e+02
3.250000000000000000e+02 4.640000000000000000e+02
3.280000000000000000e+02 3.820000000000000000e+02
3.310000000000000000e+02 1.631000000000000000e+03
3.340000000000000000e+02 1.841000000000000000e+03
3.370000000000000000e+02 4.410000000000000000e+02
3.400000000000000000e+02 6.140000000000000000e+02
3.430000000000000000e+02 8.590000000000000000e+02
3.460000000000000000e+02 1.536000000000000000e+03
3.500000000000000000e+02 1.278000000000000000e+03
3.530000000000000000e+02 8.890000000000000000e+02
3.560000000000000000e+02 1.138000000000000000e+03
3.590000000000000000e+02 3.480000000000000000e+02
3.620000000000000000e+02 1.137000000000000000e+03
3.650000000000000000e+02 5.560000000000000000e+02
3.680000000000000000e+02 1.011000000000000000e+03
3.710000000000000000e+02 1.234000000000000000e+03
3.750000000000000000e+02 3.890000000000000000e+02
3.780000000000000000e+02 9.650000000000000000e+02
3.810000000000000000e+02 1.168000000000000000e+03
3.840000000000000000e+02 1.353000000000000000e+03
3.870000000000000000e+02 2.795000000000000000e+03
3.900000000000000000e+02 5.880000000000000000e+02
3.930000000000000000e+02 7.900000000000000000e+02
3.960000000000000000e+02 6.380000000000000000e+02
4.000000000000000000e+02 6.770000000000000000e+02
4.030000000000000000e+02 5.350000000000000000e+02
4.060000000000000000e+02 6.460000000000000000e+02
4.090000000000000000e+02 2.126000000000000000e+03
4.120000000000000000e+02 1.687000000000000000e+03
4.150000000000000000e+02 1.004000000000000000e+03
4.180000000000000000e+02 7.550000000000000000e+02
4.210000000000000000e+02 9.890000000000000000e+02
4.250000000000000000e+02 2.128000000000000000e+03
4.280000000000000000e+02 6.310000000000000000e+02
4.310000000000000000e+02 6.290000000000000000e+02
4.340000000000000000e+02 2.630000000000000000e+02
4.370000000000000000e+02 2.500000000000000000e+02
4.400000000000000000e+02 5.840000000000000000e+02
4.430000000000000000e+02 5.520000000000000000e+02
4.460000000000000000e+02 3.140000000000000000e+02
4.500000000000000000e+02 1.190000000000000000e+02
4.530000000000000000e+02 4.970000000000000000e+02
4.560000000000000000e+02 2.100000000000000000e+02
4.590000000000000000e+02 9.500000000000000000e+02
4.620000000000000000e+02 1.334000000000000000e+03
4.650000000000000000e+02 4.270000000000000000e+02
4.680000000000000000e+02 3.260000000000000000e+02
4.710000000000000000e+02 6.300000000000000000e+02
4.750000000000000000e+02 8.470000000000000000e+02
4.780000000000000000e+02 1.272000000000000000e+03
4.810000000000000000e+02 1.105000000000000000e+03
4.840000000000000000e+02 1.700000000000000000e+02
4.870000000000000000e+02 9.590000000000000000e+02
4.900000000000000000e+02 1.432000000000000000e+03
4.930000000000000000e+02 4.150000000000000000e+02
4.960000000000000000e+02 5.220000000000000000e+02
5.000000000000000000e+02 1.240000000000000000e+02
5.030000000000000000e+02 4.040000000000000000e+02
5.060000000000000000e+02 1.115000000000000000e+03
5.090000000000000000e+02 8.080000000000000000e+02
5.120000000000000000e+02 4.260000000000000000e+02
5.150000000000000000e+02 7.320000000000000000e+02
5.180000000000000000e+02 1.713000000000000000e+03
5.210000000000000000e+02 3.399000000000000000e+03
5.250000000000000000e+02 1.937000000000000000e+03
5.280000000000000000e+02 9.800000000000000000e+02
5.310000000000000000e+02 3.120000000000000000e+02
5.340000000000000000e+02 6.000000000000000000e+02
5.370000000000000000e+02 6.430000000000000000e+02
5.400000000000000000e+02 9.720000000000000000e+02
5.430000000000000000e+02 1.741000000000000000e+03
5.460000000000000000e+02 8.100000000000000000e+02
5.500000000000000000e+02 1.967000000000000000e+03
5.530000000000000000e+02 8.400000000000000000e+02
5.560000000000000000e+02 7.750000000000000000e+02
5.590000000000000000e+02 1.384000000000000000e+03
5.620000000000000000e+02 1.051000000000000000e+03
5.650000000000000000e+02 1.644000000000000000e+03
5.680000000000000000e+02 8.610000000000000000e+02
5.710000000000000000e+02 1.193000000000000000e+03
5.750000000000000000e+02 9.060000000000000000e+02
5.780000000000000000e+02 1.020000000000000000e+03
5.810000000000000000e+02 1.481000000000000000e+03
5.840000000000000000e+02 1.496000000000000000e+03
5.870000000000000000e+02 8.608000000000000000e+03
5.900000000000000000e+02 5.256000000000000000e+03
5.930000000000000000e+02 3.390000000000000000e+02
5.960000000000000000e+02 8.330000000000000000e+02
6.000000000000000000e+02 1.039000000000000000e+03
6.030000000000000000e+02 2.618000000000000000e+03
6.060000000000000000e+02 2.552000000000000000e+03
6.090000000000000000e+02 5.290000000000000000e+02
6.120000000000000000e+02 9.730000000000000000e+02
6.150000000000000000e+02 8.710000000000000000e+02
6.180000000000000000e+02 6.880000000000000000e+02
6.210000000000000000e+02 1.205000000000000000e+03
6.250000000000000000e+02 5.904000000000000000e+03
6.280000000000000000e+02 7.992000000000000000e+03
6.310000000000000000e+02 2.327000000000000000e+03
6.340000000000000000e+02 2.990000000000000000e+02
6.370000000000000000e+02 2.533000000000000000e+03
6.400000000000000000e+02 1.238000000000000000e+03
6.430000000000000000e+02 2.369000000000000000e+03
6.460000000000000000e+02 3.194000000000000000e+03
6.500000000000000000e+02 2.640000000000000000e+03
6.530000000000000000e+02 4.593000000000000000e+03
6.560000000000000000e+02 3.119000000000000000e+03
6.590000000000000000e+02 2.425000000000000000e+03
6.620000000000000000e+02 2.153000000000000000e+03
6.650000000000000000e+02 6.943000000000000000e+03
6.680000000000000000e+02 2.224000000000000000e+03
6.710000000000000000e+02 2.014000000000000000e+03
6.750000000000000000e+02 2.420000000000000000e+03
6.780000000000000000e+02 2.683000000000000000e+03
6.810000000000000000e+02 1.199000000000000000e+03
6.840000000000000000e+02 2.100000000000000000e+02
6.870000000000000000e+02 8.450000000000000000e+02
6.900000000000000000e+02 2.071000000000000000e+03
6.930000000000000000e+02 2.937000000000000000e+03
6.960000000000000000e+02 1.197000000000000000e+03
7.000000000000000000e+02 1.578000000000000000e+03
7.030000000000000000e+02 2.227000000000000000e+03
7.060000000000000000e+02 1.067000000000000000e+03
7.090000000000000000e+02 8.410000000000000000e+02
7.120000000000000000e+02 4.090000000000000000e+02
7.150000000000000000e+02 1.185000000000000000e+03
7.180000000000000000e+02 1.705000000000000000e+03
7.210000000000000000e+02 1.442000000000000000e+03
7.250000000000000000e+02 1.460000000000000000e+03
7.280000000000000000e+02 2.083000000000000000e+03
7.310000000000000000e+02 2.143000000000000000e+03
7.340000000000000000e+02 7.560000000000000000e+02
7.370000000000000000e+02 1.045000000000000000e+03
7.400000000000000000e+02 1.262000000000000000e+03
7.430000000000000000e+02 2.364000000000000000e+03
7.460000000000000000e+02 2.868000000000000000e+03
7.500000000000000000e+02 1.618000000000000000e+03
7.530000000000000000e+02 1.961000000000000000e+03
7.560000000000000000e+02 2.079000000000000000e+03
7.590000000000000000e+02 2.216000000000000000e+03
7.620000000000000000e+02 1.118000000000000000e+03
7.650000000000000000e+02 5.900000000000000000e+02
7.680000000000000000e+02 2.289000000000000000e+03
7.710000000000000000e+02 2.250000000000000000e+03
7.750000000000000000e+02 4.240000000000000000e+02
7.780000000000000000e+02 5.250000000000000000e+02
7.810000000000000000e+02 6.360000000000000000e+02
7.840000000000000000e+02 7.830000000000000000e+02
7.870000000000000000e+02 7.370000000000000000e+02
7.900000000000000000e+02 7.790000000000000000e+02
7.930000000000000000e+02 4.160000000000000000e+02
7.960000000000000000e+02 3.940000000000000000e+02
8.000000000000000000e+02 4.910000000000000000e+02
8.030000000000000000e+02 9.910000000000000000e+02
8.060000000000000000e+02 4.340000000000000000e+02
8.090000000000000000e+02 9.730000000000000000e+02
8.120000000000000000e+02 9.620000000000000000e+02
8.150000000000000000e+02 8.730000000000000000e+02
8.180000000000000000e+02 6.410000000000000000e+02
8.210000000000000000e+02 1.404000000000000000e+03
8.250000000000000000e+02 1.986000000000000000e+03
8.280000000000000000e+02 9.710000000000000000e+02
8.310000000000000000e+02 1.059000000000000000e+03
8.340000000000000000e+02 9.080000000000000000e+02
8.370000000000000000e+02 1.626000000000000000e+03
8.400000000000000000e+02 1.726000000000000000e+03
8.430000000000000000e+02 5.560000000000000000e+02
8.460000000000000000e+02 4.600000000000000000e+02
8.500000000000000000e+02 8.880000000000000000e+02
8.530000000000000000e+02 1.067000000000000000e+03
8.560000000000000000e+02 1.300000000000000000e+03
8.590000000000000000e+02 1.581000000000000000e+03
8.620000000000000000e+02 1.482000000000000000e+03
8.650000000000000000e+02 9.260000000000000000e+02
8.680000000000000000e+02 9.680000000000000000e+02
8.710000000000000000e+02 1.745000000000000000e+03
8.750000000000000000e+02 1.237000000000000000e+03
8.780000000000000000e+02 1.514000000000000000e+03
8.810000000000000000e+02 5.290000000000000000e+02
8.840000000000000000e+02 1.834000000000000000e+03
8.870000000000000000e+02 2.209000000000000000e+03
8.900000000000000000e+02 2.590000000000000000e+02
8.930000000000000000e+02 9.270000000000000000e+02
8.960000000000000000e+02 1.936000000000000000e+03
9.000000000000000000e+02 2.581000000000000000e+03
9.030000000000000000e+02 2.326000000000000000e+03
9.060000000000000000e+02 5.880000000000000000e+02
9.090000000000000000e+02 8.110000000000000000e+02
9.120000000000000000e+02 1.388000000000000000e+03
9.150000000000000000e+02 2.096000000000000000e+03
9.180000000000000000e+02 1.371000000000000000e+03
9.210000000000000000e+02 8.760000000000000000e+02
9.250000000000000000e+02 1.098000000000000000e+03
9.280000000000000000e+02 2.480000000000000000e+02
9.310000000000000000e+02 1.003000000000000000e+03
9.340000000000000000e+02 2.187000000000000000e+03
9.370000000000000000e+02 1.000000000000000000e+03
9.400000000000000000e+02 2.596000000000000000e+03
9.430000000000000000e+02 8.390000000000000000e+02
9.460000000000000000e+02 1.251000000000000000e+03
9.500000000000000000e+02 1.176000000000000000e+03
9.530000000000000000e+02 4.250000000000000000e+02
9.560000000000000000e+02 2.530000000000000000e+02
9.590000000000000000e+02 5.070000000000000000e+02
9.620000000000000000e+02 6.840000000000000000e+02
9.650000000000000000e+02 5.440000000000000000e+02
9.680000000000000000e+02 1.124000000000000000e+03
9.710000000000000000e+02 9.150000000000000000e+02
9.750000000000000000e+02 9.110000000000000000e+02
9.780000000000000000e+02 1.980000000000000000e+03
9.810000000000000000e+02 1.906000000000000000e+03
9.840000000000000000e+02 1.156000000000000000e+03
9.870000000000000000e+02 2.760000000000000000e+02
9.900000000000000000e+02 1.002000000000000000e+03
9.930000000000000000e+02 1.810000000000000000e+03
9.960000000000000000e+02 1.097000000000000000e+03
1.000000000000000000e+03 4.020000000000000000e+02
1.003000000000000000e+03 3.880000000000000000e+02
1.006000000000000000e+03 1.466000000000000000e+03
1.009000000000000000e+03 1.318000000000000000e+03
1.012000000000000000e+03 5.100000000000000000e+02
1.015000000000000000e+03 5.140000000000000000e+02
1.018000000000000000e+03 5.050000000000000000e+02
1.021000000000000000e+03 6.880000000000000000e+02
1.025000000000000000e+03 4.060000000000000000e+02
1.028000000000000000e+03 5.550000000000000000e+02
1.031000000000000000e+03 9.940000000000000000e+02
1.034000000000000000e+03 8.160000000000000000e+02
1.037000000000000000e+03 1.330000000000000000e+02
1.040000000000000000e+03 3.140000000000000000e+02
1.043000000000000000e+03 8.680000000000000000e+02
1.046000000000000000e+03 1.233000000000000000e+03
1.050000000000000000e+03 1.088000000000000000e+03
1.053000000000000000e+03 8.720000000000000000e+02
1.056000000000000000e+03 3.630000000000000000e+02
1.059000000000000000e+03 4.410000000000000000e+02
1.062000000000000000e+03 2.170000000000000000e+02
1.065000000000000000e+03 4.720000000000000000e+02
1.068000000000000000e+03 2.429000000000000000e+03
1.071000000000000000e+03 3.687000000000000000e+03
1.075000000000000000e+03 1.088000000000000000e+03
1.078000000000000000e+03 8.120000000000000000e+02
1.081000000000000000e+03 1.200000000000000000e+03
1.084000000000000000e+03 3.093000000000000000e+03
1.087000000000000000e+03 3.610000000000000000e+03
1.090000000000000000e+03 1.035000000000000000e+03
1.093000000000000000e+03 6.410000000000000000e+02
1.096000000000000000e+03 4.840000000000000000e+02
1.100000000000000000e+03 3.030000000000000000e+02
1.103000000000000000e+03 9.420000000000000000e+02
1.106000000000000000e+03 1.294000000000000000e+03
1.109000000000000000e+03 2.466000000000000000e+03
1.112000000000000000e+03 1.287000000000000000e+03
1.115000000000000000e+03 1.056000000000000000e+03
1.118000000000000000e+03 2.043000000000000000e+03
1.121000000000000000e+03 1.716000000000000000e+03
1.125000000000000000e+03 1.555000000000000000e+03
1.128000000000000000e+03 1.160000000000000000e+03
1.131000000000000000e+03 8.640000000000000000e+02
1.134000000000000000e+03 2.386000000000000000e+03
1.137000000000000000e+03 1.584000000000000000e+03
1.140000000000000000e+03 4.030000000000000000e+02
1.143000000000000000e+03 1.179000000000000000e+03
1.146000000000000000e+03 4.806000000000000000e+03
1.150000000000000000e+03 5.274000000000000000e+03
1.153000000000000000e+03 1.004000000000000000e+03
1.156000000000000000e+03 1.698000000000000000e+03
1.159000000000000000e+03 1.485000000000000000e+03
1.162000000000000000e+03 3.302000000000000000e+03
1.165000000000000000e+03 2.953000000000000000e+03
1.168000000000000000e+03 1.478000000000000000e+03
1.171000000000000000e+03 1.199000000000000000e+03
1.175000000000000000e+03 4.070000000000000000e+02
1.178000000000000000e+03 1.810000000000000000e+02
1.181000000000000000e+03 6.850000000000000000e+02
1.184000000000000000e+03 6.230000000000000000e+02
1.187000000000000000e+03 1.810000000000000000e+02
1.190000000000000000e+03 9.530000000000000000e+02
1.193000000000000000e+03 1.928000000000000000e+03
1.196000000000000000e+03 1.546000000000000000e+03
1.200000000000000000e+03 5.150000000000000000e+02
1.203000000000000000e+03 1.024000000000000000e+03
1.206000000000000000e+03 2.260000000000000000e+02
1.209000000000000000e+03 7.320000000000000000e+02
1.212000000000000000e+03 3.710000000000000000e+02
1.215000000000000000e+03 6.000000000000000000e+02
1.218000000000000000e+03 4.890000000000000000e+02
1.221000000000000000e+03 8.470000000000000000e+02
1.225000000000000000e+03 8.700000000000000000e+02
1.228000000000000000e+03 1.118000000000000000e+03
1.231000000000000000e+03 1.007000000000000000e+03
1.234000000000000000e+03 5.600000000000000000e+02
1.237000000000000000e+03 1.520000000000000000e+02
1.240000000000000000e+03 1.416000000000000000e+03
1.243000000000000000e+03 8.980000000000000000e+02
1.246000000000000000e+03 8.580000000000000000e+02
1.250000000000000000e+03 1.202000000000000000e+03
1.253000000000000000e+03 1.497000000000000000e+03
1.256000000000000000e+03 1.665000000000000000e+03
1.259000000000000000e+03 1.390000000000000000e+02
1.262000000000000000e+03 1.058000000000000000e+03
1.265000000000000000e+03 1.561000000000000000e+03
1.268000000000000000e+03 1.475000000000000000e+03
1.271000000000000000e+03 8.690000000000000000e+02
1.275000000000000000e+03 4.940000000000000000e+02
1.278000000000000000e+03 9.660000000000000000e+02
1.281000000000000000e+03 1.528000000000000000e+03
1.284000000000000000e+03 7.000000000000000000e+02
1.287000000000000000e+03 4.760000000000000000e+02
1.290000000000000000e+03 5.220000000000000000e+02
1.293000000000000000e+03 1.031000000000000000e+03
1.296000000000000000e+03 7.000000000000000000e+02
1.300000000000000000e+03 3.670000000000000000e+02
1.303000000000000000e+03 8.910000000000000000e+02
1.306000000000000000e+03 1.630000000000000000e+02
1.309000000000000000e+03 5.940000000000000000e+02
1.312000000000000000e+03 5.460000000000000000e+02
1.315000000000000000e+03 1.377000000000000000e+03
1.318000000000000000e+03 1.832000000000000000e+03
1.321000000000000000e+03 9.060000000000000000e+02
1.325000000000000000e+03 6.120000000000000000e+02
1.328000000000000000e+03 1.139000000000000000e+03
1.331000000000000000e+03 1.750000000000000000e+03
1.334000000000000000e+03 1.662000000000000000e+03
1.337000000000000000e+03 9.680000000000000000e+02
1.340000000000000000e+03 7.160000000000000000e+02
1.343000000000000000e+03 1.200000000000000000e+03
1.346000000000000000e+03 1.561000000000000000e+03
1.350000000000000000e+03 1.020000000000000000e+03
1.353000000000000000e+03 1.094000000000000000e+03
1.356000000000000000e+03 6.720000000000000000e+02
1.359000000000000000e+03 6.900000000000000000e+02
1.362000000000000000e+03 1.351000000000000000e+03
1.365000000000000000e+03 8.480000000000000000e+02
1.368000000000000000e+03 4.970000000000000000e+02
1.371000000000000000e+03 9.190000000000000000e+02
1.375000000000000000e+03 1.354000000000000000e+03
1.378000000000000000e+03 3.955000000000000000e+03
1.381000000000000000e+03 4.026000000000000000e+03
1.384000000000000000e+03 1.230000000000000000e+03
1.387000000000000000e+03 8.130000000000000000e+02
1.390000000000000000e+03 1.041000000000000000e+03
1.393000000000000000e+03 1.178000000000000000e+03
1.396000000000000000e+03 5.920000000000000000e+02
1.400000000000000000e+03 6.100000000000000000e+02
1.403000000000000000e+03 6.550000000000000000e+02
1.406000000000000000e+03 1.912000000000000000e+03
1.409000000000000000e+03 1.550000000000000000e+03
1.412000000000000000e+03 8.450000000000000000e+02
1.415000000000000000e+03 1.076000000000000000e+03
1.418000000000000000e+03 8.580000000000000000e+02
1.421000000000000000e+03 1.572000000000000000e+03
1.425000000000000000e+03 1.374000000000000000e+03
1.428000000000000000e+03 2.910000000000000000e+02
1.431000000000000000e+03 3.460000000000000000e+02
1.434000000000000000e+03 2.990000000000000000e+02
1.437000000000000000e+03 3.490000000000000000e+02
1.440000000000000000e+03 8.620000000000000000e+02
1.443000000000000000e+03 1.177000000000000000e+03
1.446000000000000000e+03 1.349000000000000000e+03
1.450000000000000000e+03 6.200000000000000000e+02
1.453000000000000000e+03 1.816000000000000000e+03
1.456000000000000000e+03 2.666000000000000000e+03
1.459000000000000000e+03 1.656000000000000000e+03
1.462000000000000000e+03 9.600000000000000000e+02
1.465000000000000000e+03 1.262000000000000000e+03
1.468000000000000000e+03 1.422000000000000000e+03
1.471000000000000000e+03 5.360000000000000000e+02
1.475000000000000000e+03 5.900000000000000000e+01
1.478000000000000000e+03 3.110000000000000000e+02
1.481000000000000000e+03 7.240000000000000000e+02
1.484000000000000000e+03 9.950000000000000000e+02
1.487000000000000000e+03 1.026000000000000000e+03
1.490000000000000000e+03 3.460000000000000000e+02
1.493000000000000000e+03 4.160000000000000000e+02
1.496000000000000000e+03 5.310000000000000000e+02
1.500000000000000000e+03 2.038000000000000000e+03
1.503000000000000000e+03 1.313000000000000000e+03
1.506000000000000000e+03 1.130000000000000000e+03
1.509000000000000000e+03 4.950000000000000000e+02
1.512000000000000000e+03 1.578000000000000000e+03
1.515000000000000000e+03 2.749000000000000000e+03
1.518000000000000000e+03 1.070000000000000000e+03
1.521000000000000000e+03 1.275000000000000000e+03
1.525000000000000000e+03 1.665000000000000000e+03
1.528000000000000000e+03 1.548000000000000000e+03
1.531000000000000000e+03 1.648000000000000000e+03
1.534000000000000000e+03 8.740000000000000000e+02
1.537000000000000000e+03 3.290000000000000000e+02
1.540000000000000000e+03 4.810000000000000000e+02
1.543000000000000000e+03 1.100000000000000000e+02
1.546000000000000000e+03 8.490000000000000000e+02
1.550000000000000000e+03 1.288000000000000000e+03
1.553000000000000000e+03 6.370000000000000000e+02
1.556000000000000000e+03 2.840000000000000000e+02
1.559000000000000000e+03 5.550000000000000000e+02
1.562000000000000000e+03 7.930000000000000000e+02
1.565000000000000000e+03 1.161000000000000000e+03
1.568000000000000000e+03 7.180000000000000000e+02
1.571000000000000000e+03 5.700000000000000000e+02
1.575000000000000000e+03 2.940000000000000000e+02
1.578000000000000000e+03 6.040000000000000000e+02
1.581000000000000000e+03 6.170000000000000000e+02
1.584000000000000000e+03 5.950000000000000000e+02
1.587000000000000000e+03 1.357000000000000000e+03
1.590000000000000000e+03 1.271000000000000000e+03
1.593000000000000000e+03 1.014000000000000000e+03
1.596000000000000000e+03 8.120000000000000000e+02
1.600000000000000000e+03 4.010000000000000000e+02
