5.000000000000000000e+01 1.550925925925925952e+01
5.500000000000000711e+01 1.736111111111111072e+01
6.000000000000000000e+01 1.938657407407407618e+01
6.500000000000000000e+01 2.199074074074074048e+01
7.000000000000000000e+01 2.546296296296296191e+01
7.500000000000000000e+01 2.986111111111111427e+01
8.000000000000000000e+01 3.547453703703703809e+01
8.500000000000000000e+01 4.363425925925925952e+01
9.000000000000000000e+01 5.567129629629629051e+01
9.500000000000000000e+01 7.638888888888888573e+01
