0.000000000000000000e+00 1.650170906691232813e+04
1.000000000000000000e+00 1.690088765919338766e+04
2.000000000000000000e+00 2.408201002249193698e+04
3.000000000000000000e+00 2.413059576369406204e+04
4.000000000000000000e+00 2.745379704238642807e+04
5.000000000000000000e+00 2.749420300968989250e+04
6.000000000000000000e+00 3.120905031133297962e+04
7.000000000000000000e+00 3.182413227304194515e+04
8.000000000000000000e+00 3.385523838982178131e+04
9.000000000000000000e+00 3.424739888753427658e+04
1.000000000000000000e+01 3.646651029528904473e+04
1.100000000000000000e+01 3.726396366105051129e+04
1.200000000000000000e+01 4.107385642025928973e+04
1.300000000000000000e+01 4.138813827697802481e+04
1.400000000000000000e+01 4.778266219174992148e+04
1.500000000000000000e+01 4.824471833919896017e+04
1.600000000000000000e+01 5.142534364055946935e+04
1.700000000000000000e+01 5.273665871346773201e+04
1.800000000000000000e+01 5.347226697602709464e+04
1.900000000000000000e+01 5.488449515478256944e+04
2.000000000000000000e+01 5.560687982297927374e+04
2.100000000000000000e+01 5.719530520890672051e+04
2.200000000000000000e+01 5.774479213175774203e+04
2.300000000000000000e+01 5.884651317057752021e+04
2.400000000000000000e+01 5.995563837003269145e+04
2.500000000000000000e+01 6.217595351769158879e+04
2.600000000000000000e+01 6.412254200692979066e+04
2.700000000000000000e+01 6.413035144247850258e+04
2.800000000000000000e+01 6.497724204489409749e+04
2.900000000000000000e+01 6.589188320349052083e+04
3.000000000000000000e+01 6.706477341680564859e+04
3.100000000000000000e+01 7.035409577415585227e+04
3.200000000000000000e+01 7.119514565631649748e+04
3.300000000000000000e+01 7.400446103091102850e+04
3.400000000000000000e+01 8.149234882951632608e+04
3.500000000000000000e+01 8.542619326769726467e+04
3.600000000000000000e+01 8.547886759173797327e+04
3.700000000000000000e+01 8.856098457072957535e+04
3.800000000000000000e+01 8.859624197436362738e+04
3.900000000000000000e+01 1.028313947392918344e+05
4.000000000000000000e+01 1.030978966998026735e+05
4.100000000000000000e+01 1.287032380266713008e+05
4.200000000000000000e+01 1.382497539592775574e+05
4.300000000000000000e+01 1.417392958496033389e+05
4.400000000000000000e+01 1.796742659987979278e+05
4.500000000000000000e+01 3.039076927007512422e+05
4.600000000000000000e+01 3.778186707680238760e+05
4.700000000000000000e+01 7.722564595093580429e+05
4.800000000000000000e+01 9.048781028398261406e+05
4.900000000000000000e+01 9.444011920169695513e+05
5.000000000000000000e+01 9.715203554794673109e+05
5.100000000000000000e+01 9.750932868711920455e+05
5.200000000000000000e+01 1.051297548243868398e+06
5.300000000000000000e+01 1.307950551127213053e+06
5.400000000000000000e+01 1.314384344818698941e+06
5.500000000000000000e+01 1.410991757382446667e+06
5.600000000000000000e+01 1.430319959252355853e+06
5.700000000000000000e+01 1.433085964068910107e+06
5.800000000000000000e+01 1.434087537498058286e+06
5.900000000000000000e+01 1.462232931987309828e+06
6.000000000000000000e+01 1.463389014235690003e+06
6.100000000000000000e+01 1.465154760114506353e+06
6.200000000000000000e+01 1.465399187624578830e+06
6.300000000000000000e+01 1.465924910235495074e+06
6.400000000000000000e+01 1.468548406418404775e+06
6.500000000000000000e+01 1.516360479677345837e+06
6.600000000000000000e+01 1.516684249702451983e+06
6.700000000000000000e+01 1.516714457187990891e+06
6.800000000000000000e+01 1.516824141711448086e+06
6.900000000000000000e+01 1.519182787076338427e+06
7.000000000000000000e+01 1.596938317641935078e+06
7.100000000000000000e+01 1.600593205441051163e+06
7.200000000000000000e+01 1.600600538508981466e+06
7.300000000000000000e+01 1.621317945421484299e+06
7.400000000000000000e+01 1.623283378654667642e+06
7.500000000000000000e+01 1.629447905416909605e+06
7.600000000000000000e+01 1.629495987199215218e+06
7.700000000000000000e+01 1.632336113258436322e+06
7.800000000000000000e+01 1.632920244809493190e+06
7.900000000000000000e+01 1.634808340923356824e+06
8.000000000000000000e+01 1.636301648379147286e+06
8.100000000000000000e+01 1.637456020022085169e+06
8.200000000000000000e+01 1.638269936789664440e+06
8.300000000000000000e+01 1.639289575395776425e+06
8.400000000000000000e+01 1.639323694704976166e+06
8.500000000000000000e+01 1.651998802522186190e+06
8.600000000000000000e+01 1.653314668406171026e+06
8.700000000000000000e+01 1.663419751127169933e+06
8.800000000000000000e+01 1.667400416997722117e+06
8.900000000000000000e+01 1.667431868999924278e+06
9.000000000000000000e+01 1.670468315143819433e+06
9.100000000000000000e+01 1.671307036601059604e+06
9.200000000000000000e+01 1.671441134615678573e+06
9.300000000000000000e+01 1.673605605475907680e+06
9.400000000000000000e+01 1.674594909901965177e+06
9.500000000000000000e+01 1.677085255930982064e+06
9.600000000000000000e+01 1.686301500370752998e+06
9.700000000000000000e+01 1.700825266081327572e+06
9.800000000000000000e+01 1.702768588430018397e+06
9.900000000000000000e+01 1.703189095170104643e+06
1.000000000000000000e+02 1.709093432186536491e+06
1.010000000000000000e+02 1.714725686078654137e+06
1.020000000000000000e+02 1.715137160980794113e+06
1.030000000000000000e+02 1.715749673125770409e+06
1.040000000000000000e+02 1.715861632106078789e+06
1.050000000000000000e+02 1.715948928014596924e+06
1.060000000000000000e+02 1.715959572411573725e+06
1.070000000000000000e+02 1.715964335202623159e+06
1.080000000000000000e+02 1.716042273353736615e+06
1.090000000000000000e+02 1.716418871802593581e+06
1.100000000000000000e+02 1.716511981429612963e+06
1.110000000000000000e+02 1.719299978322540177e+06
1.120000000000000000e+02 1.719431268098021857e+06
1.130000000000000000e+02 1.722495250654842239e+06
1.140000000000000000e+02 1.723735795464915689e+06
1.150000000000000000e+02 1.724185539811932715e+06
1.160000000000000000e+02 1.725357964726021746e+06
1.170000000000000000e+02 1.725794034698227886e+06
1.180000000000000000e+02 1.727946462399955373e+06
1.190000000000000000e+02 1.729041663423569174e+06
1.200000000000000000e+02 1.729844968444688246e+06
1.210000000000000000e+02 1.731233963034813292e+06
1.220000000000000000e+02 1.733239011601458304e+06
1.230000000000000000e+02 1.733243025202280376e+06
1.240000000000000000e+02 1.734305747768163914e+06
1.250000000000000000e+02 1.736120978766005952e+06
1.260000000000000000e+02 1.737472314234399004e+06
