3.820000000000000000e+02
2.247000000000000000e+04
6.950000000000000000e+02
1.346900000000000000e+04
2.415100000000000000e+04
2.479600000000000000e+04
1.883100000000000000e+04
3.031000000000000000e+04
2.101400000000000000e+04
1.334400000000000000e+04
