1.000000000000000056e-01 3.119031191528956128e+02
1.500000000000000222e-01 2.785114353584659170e+02
2.000000000000000389e-01 2.718655089952357571e+02
2.500000000000000555e-01 2.474913430467582600e+02
3.000000000000000444e-01 2.349908828173124391e+02
3.500000000000000888e-01 2.185049287460430776e+02
4.000000000000001332e-01 2.024334865299683770e+02
4.500000000000000666e-01 1.872576308127707705e+02
5.000000000000001110e-01 1.726537719068081742e+02
5.500000000000001554e-01 1.584632486346512508e+02
6.000000000000001998e-01 1.447884621322751855e+02
6.500000000000001332e-01 1.315001737942614000e+02
7.000000000000001776e-01 1.180656061901839138e+02
