3.500000000000000000e+01 4.598301738318094749e+02
4.000000000000000000e+01 4.312075837726523559e+02
4.500000000000000000e+01 4.028683634948196186e+02
5.000000000000000000e+01 3.745150087106609362e+02
5.500000000000000711e+01 3.452645809919844169e+02
6.000000000000000000e+01 3.152962196733666929e+02
6.500000000000000000e+01 2.821564451771924951e+02
7.000000000000000000e+01 2.483234056665143612e+02
7.500000000000000000e+01 2.156093903166487280e+02
8.000000000000000000e+01 1.831112403697347304e+02
