3.500000000000000000e+01 2.300561993948774102e+02
4.000000000000000000e+01 2.141112220507946518e+02
4.500000000000000000e+01 1.995552187603407504e+02
5.000000000000000000e+01 1.850203556691010363e+02
5.500000000000000711e+01 1.704804062858160876e+02
6.000000000000000000e+01 1.566697188027168295e+02
6.500000000000000000e+01 1.430997299183824794e+02
7.000000000000000000e+01 1.297793954919034434e+02
7.500000000000000000e+01 1.144977131719717249e+02
8.000000000000000000e+01 9.721415200768967679e+01
