0.000000000000000000e+00 2.432229042053222656e+00
1.000000000000000000e+00 2.435948133468627930e+00
2.000000000000000000e+00 2.436528921127319336e+00
3.000000000000000000e+00 2.446012258529663086e+00
4.000000000000000000e+00 2.446530580520629883e+00
5.000000000000000000e+00 2.448777437210083008e+00
6.000000000000000000e+00 2.449000835418701172e+00
7.000000000000000000e+00 2.449022054672241211e+00
8.000000000000000000e+00 2.449358940124511719e+00
9.000000000000000000e+00 2.451387643814086914e+00
1.000000000000000000e+01 2.454269170761108398e+00
1.100000000000000000e+01 2.454427957534790039e+00
1.200000000000000000e+01 2.455389261245727539e+00
1.300000000000000000e+01 2.456296205520629883e+00
1.400000000000000000e+01 2.456341028213500977e+00
1.500000000000000000e+01 2.456589221954345703e+00
1.600000000000000000e+01 2.458406448364257812e+00
1.700000000000000000e+01 2.459230422973632812e+00
1.800000000000000000e+01 2.460096597671508789e+00
1.900000000000000000e+01 2.460377454757690430e+00
2.000000000000000000e+01 2.461251020431518555e+00
2.100000000000000000e+01 2.461598396301269531e+00
2.200000000000000000e+01 2.462226629257202148e+00
2.300000000000000000e+01 2.462756633758544922e+00
2.400000000000000000e+01 2.463594675064086914e+00
2.500000000000000000e+01 2.464165687561035156e+00
2.600000000000000000e+01 2.464395999908447266e+00
2.700000000000000000e+01 2.466625213623046875e+00
2.800000000000000000e+01 2.467390298843383789e+00
2.900000000000000000e+01 2.467539310455322266e+00
3.000000000000000000e+01 2.467704057693481445e+00
3.100000000000000000e+01 2.469337701797485352e+00
3.200000000000000000e+01 2.469603300094604492e+00
3.300000000000000000e+01 2.470389604568481445e+00
3.400000000000000000e+01 2.471030712127685547e+00
3.500000000000000000e+01 2.471687078475952148e+00
3.600000000000000000e+01 2.471983194351196289e+00
3.700000000000000000e+01 2.472598791122436523e+00
3.800000000000000000e+01 2.472628355026245117e+00
3.900000000000000000e+01 2.472669363021850586e+00
4.000000000000000000e+01 2.473902940750122070e+00
4.100000000000000000e+01 2.473941087722778320e+00
4.200000000000000000e+01 2.474024772644042969e+00
4.300000000000000000e+01 2.474037885665893555e+00
4.400000000000000000e+01 2.474896669387817383e+00
4.500000000000000000e+01 2.475218534469604492e+00
4.600000000000000000e+01 2.475279331207275391e+00
4.700000000000000000e+01 2.475391149520874023e+00
4.800000000000000000e+01 2.475755453109741211e+00
4.900000000000000000e+01 2.475979566574096680e+00
5.000000000000000000e+01 2.476108551025390625e+00
5.100000000000000000e+01 2.477184534072875977e+00
5.200000000000000000e+01 2.477309226989746094e+00
5.300000000000000000e+01 2.478417873382568359e+00
5.400000000000000000e+01 2.479166269302368164e+00
5.500000000000000000e+01 2.479480743408203125e+00
5.600000000000000000e+01 2.479626655578613281e+00
5.700000000000000000e+01 2.480449199676513672e+00
5.800000000000000000e+01 2.480667352676391602e+00
5.900000000000000000e+01 2.480823278427124023e+00
6.000000000000000000e+01 2.480829715728759766e+00
6.100000000000000000e+01 2.480990648269653320e+00
6.200000000000000000e+01 2.481471776962280273e+00
6.300000000000000000e+01 2.481496334075927734e+00
6.400000000000000000e+01 2.481546401977539062e+00
6.500000000000000000e+01 2.481787919998168945e+00
6.600000000000000000e+01 2.481952190399169922e+00
6.700000000000000000e+01 2.482301473617553711e+00
6.800000000000000000e+01 2.482428550720214844e+00
6.900000000000000000e+01 2.482543706893920898e+00
7.000000000000000000e+01 2.482827186584472656e+00
7.100000000000000000e+01 2.483378410339355469e+00
7.200000000000000000e+01 2.483569383621215820e+00
7.300000000000000000e+01 2.483731985092163086e+00
7.400000000000000000e+01 2.485891819000244141e+00
7.500000000000000000e+01 2.486170291900634766e+00
7.600000000000000000e+01 2.486234664916992188e+00
7.700000000000000000e+01 2.486411571502685547e+00
7.800000000000000000e+01 2.486689329147338867e+00
7.900000000000000000e+01 2.487062931060791016e+00
8.000000000000000000e+01 2.487548351287841797e+00
8.100000000000000000e+01 2.488352537155151367e+00
8.200000000000000000e+01 2.489944934844970703e+00
8.300000000000000000e+01 2.490784883499145508e+00
8.400000000000000000e+01 2.492437839508056641e+00
8.500000000000000000e+01 2.493683099746704102e+00
8.600000000000000000e+01 2.494513988494873047e+00
8.700000000000000000e+01 2.495014905929565430e+00
8.800000000000000000e+01 2.495033979415893555e+00
8.900000000000000000e+01 2.495145559310913086e+00
9.000000000000000000e+01 2.495665073394775391e+00
9.100000000000000000e+01 2.496013164520263672e+00
9.200000000000000000e+01 2.496156930923461914e+00
9.300000000000000000e+01 2.496294260025024414e+00
9.400000000000000000e+01 2.496745824813842773e+00
9.500000000000000000e+01 2.497502565383911133e+00
9.600000000000000000e+01 2.498057365417480469e+00
9.700000000000000000e+01 2.498118877410888672e+00
9.800000000000000000e+01 2.498155355453491211e+00
9.900000000000000000e+01 2.499011993408203125e+00
1.000000000000000000e+02 2.499140739440917969e+00
1.010000000000000000e+02 2.500032663345336914e+00
1.020000000000000000e+02 2.500398397445678711e+00
1.030000000000000000e+02 2.500511169433593750e+00
1.040000000000000000e+02 2.500513076782226562e+00
1.050000000000000000e+02 2.500626087188720703e+00
1.060000000000000000e+02 2.500731468200683594e+00
1.070000000000000000e+02 2.500771760940551758e+00
1.080000000000000000e+02 2.501627206802368164e+00
1.090000000000000000e+02 2.502081394195556641e+00
1.100000000000000000e+02 2.502962350845336914e+00
1.110000000000000000e+02 2.503059864044189453e+00
1.120000000000000000e+02 2.503275632858276367e+00
1.130000000000000000e+02 2.503676414489746094e+00
1.140000000000000000e+02 2.503751993179321289e+00
1.150000000000000000e+02 2.504278182983398438e+00
1.160000000000000000e+02 2.505195379257202148e+00
1.170000000000000000e+02 2.505841255187988281e+00
1.180000000000000000e+02 2.506097555160522461e+00
1.190000000000000000e+02 2.506360054016113281e+00
1.200000000000000000e+02 2.506470680236816406e+00
1.210000000000000000e+02 2.506703376770019531e+00
1.220000000000000000e+02 2.507177114486694336e+00
1.230000000000000000e+02 2.507472038269042969e+00
1.240000000000000000e+02 2.507571697235107422e+00
1.250000000000000000e+02 2.507578611373901367e+00
1.260000000000000000e+02 2.507777452468872070e+00
1.270000000000000000e+02 2.508167743682861328e+00
1.280000000000000000e+02 2.508211851119995117e+00
1.290000000000000000e+02 2.508347034454345703e+00
1.300000000000000000e+02 2.508385896682739258e+00
1.310000000000000000e+02 2.508545875549316406e+00
1.320000000000000000e+02 2.508639574050903320e+00
1.330000000000000000e+02 2.509037733078002930e+00
1.340000000000000000e+02 2.509614467620849609e+00
1.350000000000000000e+02 2.509661674499511719e+00
1.360000000000000000e+02 2.509698390960693359e+00
1.370000000000000000e+02 2.509840488433837891e+00
1.380000000000000000e+02 2.509851932525634766e+00
1.390000000000000000e+02 2.510044336318969727e+00
1.400000000000000000e+02 2.510256290435791016e+00
1.410000000000000000e+02 2.510311126708984375e+00
1.420000000000000000e+02 2.510764598846435547e+00
1.430000000000000000e+02 2.511000156402587891e+00
1.440000000000000000e+02 2.511255502700805664e+00
1.450000000000000000e+02 2.511984825134277344e+00
1.460000000000000000e+02 2.512187719345092773e+00
1.470000000000000000e+02 2.512260437011718750e+00
1.480000000000000000e+02 2.512270450592041016e+00
1.490000000000000000e+02 2.512400865554809570e+00
1.500000000000000000e+02 2.512737035751342773e+00
1.510000000000000000e+02 2.512738466262817383e+00
1.520000000000000000e+02 2.512945652008056641e+00
1.530000000000000000e+02 2.513439893722534180e+00
1.540000000000000000e+02 2.513523340225219727e+00
1.550000000000000000e+02 2.513676404953002930e+00
1.560000000000000000e+02 2.513851881027221680e+00
1.570000000000000000e+02 2.513917207717895508e+00
1.580000000000000000e+02 2.513975858688354492e+00
1.590000000000000000e+02 2.514095544815063477e+00
1.600000000000000000e+02 2.514129161834716797e+00
1.610000000000000000e+02 2.514253139495849609e+00
1.620000000000000000e+02 2.514554023742675781e+00
1.630000000000000000e+02 2.514750480651855469e+00
1.640000000000000000e+02 2.515390872955322266e+00
1.650000000000000000e+02 2.515681743621826172e+00
1.660000000000000000e+02 2.516863346099853516e+00
1.670000000000000000e+02 2.517034292221069336e+00
1.680000000000000000e+02 2.517371892929077148e+00
1.690000000000000000e+02 2.517511129379272461e+00
1.700000000000000000e+02 2.517970323562622070e+00
1.710000000000000000e+02 2.517975568771362305e+00
1.720000000000000000e+02 2.517982721328735352e+00
1.730000000000000000e+02 2.518691539764404297e+00
1.740000000000000000e+02 2.518723487854003906e+00
1.750000000000000000e+02 2.519027471542358398e+00
1.760000000000000000e+02 2.519082307815551758e+00
1.770000000000000000e+02 2.519834518432617188e+00
1.780000000000000000e+02 2.519895553588867188e+00
1.790000000000000000e+02 2.519906044006347656e+00
1.800000000000000000e+02 2.521246910095214844e+00
1.810000000000000000e+02 2.521260023117065430e+00
1.820000000000000000e+02 2.521388769149780273e+00
1.830000000000000000e+02 2.521553516387939453e+00
1.840000000000000000e+02 2.521573543548583984e+00
1.850000000000000000e+02 2.521727085113525391e+00
1.860000000000000000e+02 2.522468328475952148e+00
1.870000000000000000e+02 2.522548675537109375e+00
1.880000000000000000e+02 2.522689580917358398e+00
1.890000000000000000e+02 2.522876501083374023e+00
1.900000000000000000e+02 2.525159597396850586e+00
1.910000000000000000e+02 2.525660753250122070e+00
1.920000000000000000e+02 2.526337385177612305e+00
1.930000000000000000e+02 2.526435136795043945e+00
1.940000000000000000e+02 2.526524305343627930e+00
1.950000000000000000e+02 2.526994705200195312e+00
1.960000000000000000e+02 2.527278184890747070e+00
1.970000000000000000e+02 2.528079271316528320e+00
1.980000000000000000e+02 2.528105020523071289e+00
1.990000000000000000e+02 2.528360605239868164e+00
2.000000000000000000e+02 2.528906106948852539e+00
2.010000000000000000e+02 2.528909206390380859e+00
2.020000000000000000e+02 2.529190540313720703e+00
2.030000000000000000e+02 2.529666185379028320e+00
2.040000000000000000e+02 2.530259847640991211e+00
2.050000000000000000e+02 2.530815124511718750e+00
2.060000000000000000e+02 2.530955314636230469e+00
2.070000000000000000e+02 2.531136751174926758e+00
2.080000000000000000e+02 2.531408548355102539e+00
2.090000000000000000e+02 2.531423091888427734e+00
2.100000000000000000e+02 2.531473636627197266e+00
2.110000000000000000e+02 2.531661272048950195e+00
2.120000000000000000e+02 2.531718254089355469e+00
2.130000000000000000e+02 2.532047986984252930e+00
2.140000000000000000e+02 2.532048225402832031e+00
2.150000000000000000e+02 2.532662630081176758e+00
2.160000000000000000e+02 2.533529520034790039e+00
2.170000000000000000e+02 2.533541440963745117e+00
2.180000000000000000e+02 2.533578872680664062e+00
2.190000000000000000e+02 2.534668445587158203e+00
2.200000000000000000e+02 2.535153150558471680e+00
2.210000000000000000e+02 2.536653041839599609e+00
2.220000000000000000e+02 2.537613153457641602e+00
2.230000000000000000e+02 2.539350271224975586e+00
2.240000000000000000e+02 2.539717197418212891e+00
2.250000000000000000e+02 2.540434122085571289e+00
2.260000000000000000e+02 2.540829420089721680e+00
2.270000000000000000e+02 2.541028738021850586e+00
2.280000000000000000e+02 2.541512250900268555e+00
2.290000000000000000e+02 2.542242765426635742e+00
2.300000000000000000e+02 2.542659044265747070e+00
2.310000000000000000e+02 2.542682409286499023e+00
2.320000000000000000e+02 2.543770313262939453e+00
2.330000000000000000e+02 2.546468973159790039e+00
2.340000000000000000e+02 2.549597501754760742e+00
2.350000000000000000e+02 2.550014495849609375e+00
2.360000000000000000e+02 2.550302267074584961e+00
2.370000000000000000e+02 2.551804542541503906e+00
2.380000000000000000e+02 2.552451372146606445e+00
2.390000000000000000e+02 2.552533388137817383e+00
2.400000000000000000e+02 2.554394245147705078e+00
2.410000000000000000e+02 2.556247472763061523e+00
2.420000000000000000e+02 2.558168172836303711e+00
2.430000000000000000e+02 2.559907674789428711e+00
2.440000000000000000e+02 2.561342477798461914e+00
2.450000000000000000e+02 2.561903238296508789e+00
2.460000000000000000e+02 2.562572956085205078e+00
2.470000000000000000e+02 2.566234350204467773e+00
2.480000000000000000e+02 2.566388607025146484e+00
2.490000000000000000e+02 2.566517353057861328e+00
2.500000000000000000e+02 2.568174839019775391e+00
2.510000000000000000e+02 2.569948196411132812e+00
2.520000000000000000e+02 2.572795867919921875e+00
2.530000000000000000e+02 2.574921369552612305e+00
2.540000000000000000e+02 2.591749906539916992e+00
2.550000000000000000e+02 2.608295202255249023e+00
