0.000000000000000000e+00 1.257160902023315430e+00
1.000000000000000000e+00 1.336804389953613281e+00
2.000000000000000000e+00 1.341827034950256348e+00
3.000000000000000000e+00 1.357151389122009277e+00
4.000000000000000000e+00 1.364340543746948242e+00
5.000000000000000000e+00 1.384404182434082031e+00
6.000000000000000000e+00 1.416481256484985352e+00
7.000000000000000000e+00 1.448176383972167969e+00
8.000000000000000000e+00 1.522404074668884277e+00
