0.000000000000000000e+00 1.168496131896972656e+00
1.000000000000000000e+00 1.267867684364318848e+00
2.000000000000000000e+00 1.287400841712951660e+00
3.000000000000000000e+00 1.304993391036987305e+00
4.000000000000000000e+00 1.315612792968750000e+00
5.000000000000000000e+00 1.395359754562377930e+00
6.000000000000000000e+00 1.401497244834899902e+00
7.000000000000000000e+00 1.432136535644531250e+00
8.000000000000000000e+00 1.437082409858703613e+00
9.000000000000000000e+00 1.439373731613159180e+00
1.000000000000000000e+01 1.449387907981872559e+00
1.100000000000000000e+01 1.459485650062561035e+00
1.200000000000000000e+01 1.516551494598388672e+00
1.300000000000000000e+01 1.583956122398376465e+00
1.400000000000000000e+01 1.588164329528808594e+00
1.500000000000000000e+01 1.624607086181640625e+00
