0.000000000000000000e+00 1.204176664352416992e+00
1.000000000000000000e+00 1.210551738739013672e+00
2.000000000000000000e+00 1.217822432518005371e+00
3.000000000000000000e+00 1.224971532821655273e+00
4.000000000000000000e+00 1.227718353271484375e+00
5.000000000000000000e+00 1.227856993675231934e+00
6.000000000000000000e+00 1.237204670906066895e+00
7.000000000000000000e+00 1.240547537803649902e+00
8.000000000000000000e+00 1.244991779327392578e+00
9.000000000000000000e+00 1.264597415924072266e+00
1.000000000000000000e+01 1.272873401641845703e+00
1.100000000000000000e+01 1.274051308631896973e+00
1.200000000000000000e+01 1.274571537971496582e+00
1.300000000000000000e+01 1.278297066688537598e+00
1.400000000000000000e+01 1.284044265747070312e+00
1.500000000000000000e+01 1.290155649185180664e+00
1.600000000000000000e+01 1.294972658157348633e+00
1.700000000000000000e+01 1.300677180290222168e+00
1.800000000000000000e+01 1.302882313728332520e+00
1.900000000000000000e+01 1.309064626693725586e+00
2.000000000000000000e+01 1.310678720474243164e+00
2.100000000000000000e+01 1.312708020210266113e+00
2.200000000000000000e+01 1.328140616416931152e+00
2.300000000000000000e+01 1.345760822296142578e+00
2.400000000000000000e+01 1.347669124603271484e+00
2.500000000000000000e+01 1.358037471771240234e+00
2.600000000000000000e+01 1.362026810646057129e+00
2.700000000000000000e+01 1.365481972694396973e+00
2.800000000000000000e+01 1.372254610061645508e+00
2.900000000000000000e+01 1.396267175674438477e+00
3.000000000000000000e+01 1.401286840438842773e+00
3.100000000000000000e+01 1.420305371284484863e+00
3.200000000000000000e+01 1.431806206703186035e+00
3.300000000000000000e+01 1.461177587509155273e+00
3.400000000000000000e+01 1.474653840065002441e+00
3.500000000000000000e+01 1.482255578041076660e+00
3.600000000000000000e+01 1.580737233161926270e+00
3.700000000000000000e+01 1.780220985412597656e+00
3.800000000000000000e+01 1.818612575531005859e+00
3.900000000000000000e+01 2.002216577529907227e+00
4.000000000000000000e+01 2.056214094161987305e+00
4.100000000000000000e+01 2.071647167205810547e+00
4.200000000000000000e+01 2.411717414855957031e+00
4.300000000000000000e+01 2.436130523681640625e+00
4.400000000000000000e+01 2.530229568481445312e+00
4.500000000000000000e+01 2.548947095870971680e+00
4.600000000000000000e+01 2.611517906188964844e+00
4.700000000000000000e+01 2.638987302780151367e+00
4.800000000000000000e+01 2.797416210174560547e+00
4.900000000000000000e+01 2.810946464538574219e+00
5.000000000000000000e+01 2.824380397796630859e+00
5.100000000000000000e+01 2.835698127746582031e+00
5.200000000000000000e+01 2.886614084243774414e+00
5.300000000000000000e+01 2.942032337188720703e+00
5.400000000000000000e+01 2.950894355773925781e+00
5.500000000000000000e+01 2.983918190002441406e+00
5.600000000000000000e+01 3.132730484008789062e+00
5.700000000000000000e+01 3.145764827728271484e+00
5.800000000000000000e+01 3.153339862823486328e+00
5.900000000000000000e+01 3.199079751968383789e+00
6.000000000000000000e+01 3.245023488998413086e+00
6.100000000000000000e+01 3.259512662887573242e+00
6.200000000000000000e+01 3.261182546615600586e+00
6.300000000000000000e+01 3.268113613128662109e+00
6.400000000000000000e+01 3.302619934082031250e+00
6.500000000000000000e+01 3.331646680831909180e+00
6.600000000000000000e+01 3.372167110443115234e+00
6.700000000000000000e+01 3.387471199035644531e+00
6.800000000000000000e+01 3.404412031173706055e+00
6.900000000000000000e+01 3.423905372619628906e+00
7.000000000000000000e+01 3.456355810165405273e+00
7.100000000000000000e+01 3.460746288299560547e+00
7.200000000000000000e+01 3.480457782745361328e+00
7.300000000000000000e+01 3.520574092864990234e+00
7.400000000000000000e+01 3.604089975357055664e+00
7.500000000000000000e+01 3.610041379928588867e+00
7.600000000000000000e+01 3.632486581802368164e+00
7.700000000000000000e+01 3.672470092773437500e+00
7.800000000000000000e+01 3.678451061248779297e+00
7.900000000000000000e+01 3.713861703872680664e+00
8.000000000000000000e+01 3.732096195220947266e+00
8.100000000000000000e+01 3.738665580749511719e+00
8.200000000000000000e+01 3.773915290832519531e+00
8.300000000000000000e+01 3.787702560424804688e+00
8.400000000000000000e+01 3.795875549316406250e+00
8.500000000000000000e+01 3.828353643417358398e+00
8.600000000000000000e+01 3.831098794937133789e+00
8.700000000000000000e+01 3.858608007431030273e+00
8.800000000000000000e+01 3.898976564407348633e+00
8.900000000000000000e+01 3.899348735809326172e+00
9.000000000000000000e+01 3.923974514007568359e+00
9.100000000000000000e+01 3.924740791320800781e+00
9.200000000000000000e+01 3.946089029312133789e+00
9.300000000000000000e+01 3.986057043075561523e+00
9.400000000000000000e+01 3.996089935302734375e+00
9.500000000000000000e+01 4.003242015838623047e+00
9.600000000000000000e+01 4.017636299133300781e+00
9.700000000000000000e+01 4.025649070739746094e+00
9.800000000000000000e+01 4.105664253234863281e+00
9.900000000000000000e+01 4.115308284759521484e+00
1.000000000000000000e+02 4.118299961090087891e+00
1.010000000000000000e+02 4.121876716613769531e+00
1.020000000000000000e+02 4.122296810150146484e+00
1.030000000000000000e+02 4.122961521148681641e+00
1.040000000000000000e+02 4.138302803039550781e+00
1.050000000000000000e+02 4.144251346588134766e+00
1.060000000000000000e+02 4.148194789886474609e+00
1.070000000000000000e+02 4.149253368377685547e+00
1.080000000000000000e+02 4.162550449371337891e+00
1.090000000000000000e+02 4.163028240203857422e+00
1.100000000000000000e+02 4.165402889251708984e+00
1.110000000000000000e+02 4.171303749084472656e+00
1.120000000000000000e+02 4.186512470245361328e+00
1.130000000000000000e+02 4.200310707092285156e+00
1.140000000000000000e+02 4.209973335266113281e+00
1.150000000000000000e+02 4.214288711547851562e+00
1.160000000000000000e+02 4.220280170440673828e+00
1.170000000000000000e+02 4.227466106414794922e+00
1.180000000000000000e+02 4.229495048522949219e+00
1.190000000000000000e+02 4.231942176818847656e+00
1.200000000000000000e+02 4.244455337524414062e+00
1.210000000000000000e+02 4.247099399566650391e+00
1.220000000000000000e+02 4.249504089355468750e+00
1.230000000000000000e+02 4.251124858856201172e+00
1.240000000000000000e+02 4.252797126770019531e+00
1.250000000000000000e+02 4.253509044647216797e+00
1.260000000000000000e+02 4.258399963378906250e+00
1.270000000000000000e+02 4.269941806793212891e+00
1.280000000000000000e+02 4.290766716003417969e+00
1.290000000000000000e+02 4.291274070739746094e+00
1.300000000000000000e+02 4.294077396392822266e+00
1.310000000000000000e+02 4.295969963073730469e+00
1.320000000000000000e+02 4.307700157165527344e+00
1.330000000000000000e+02 4.312005043029785156e+00
1.340000000000000000e+02 4.323107719421386719e+00
1.350000000000000000e+02 4.323194980621337891e+00
1.360000000000000000e+02 4.329520225524902344e+00
1.370000000000000000e+02 4.332307815551757812e+00
1.380000000000000000e+02 4.341951370239257812e+00
1.390000000000000000e+02 4.351263999938964844e+00
1.400000000000000000e+02 4.359870910644531250e+00
1.410000000000000000e+02 4.360895156860351562e+00
1.420000000000000000e+02 4.361529350280761719e+00
1.430000000000000000e+02 4.364706039428710938e+00
1.440000000000000000e+02 4.364751338958740234e+00
1.450000000000000000e+02 4.367616653442382812e+00
1.460000000000000000e+02 4.369576930999755859e+00
1.470000000000000000e+02 4.373467445373535156e+00
1.480000000000000000e+02 4.375627994537353516e+00
1.490000000000000000e+02 4.378342151641845703e+00
1.500000000000000000e+02 4.383958816528320312e+00
1.510000000000000000e+02 4.387165546417236328e+00
1.520000000000000000e+02 4.390601634979248047e+00
1.530000000000000000e+02 4.391721725463867188e+00
1.540000000000000000e+02 4.393029689788818359e+00
1.550000000000000000e+02 4.394097328186035156e+00
1.560000000000000000e+02 4.400302886962890625e+00
1.570000000000000000e+02 4.406327247619628906e+00
1.580000000000000000e+02 4.412107467651367188e+00
1.590000000000000000e+02 4.412648677825927734e+00
1.600000000000000000e+02 4.414884567260742188e+00
1.610000000000000000e+02 4.416011810302734375e+00
1.620000000000000000e+02 4.416262626647949219e+00
1.630000000000000000e+02 4.416656494140625000e+00
1.640000000000000000e+02 4.429893493652343750e+00
1.650000000000000000e+02 4.430943965911865234e+00
1.660000000000000000e+02 4.431680679321289062e+00
1.670000000000000000e+02 4.438572406768798828e+00
1.680000000000000000e+02 4.440659999847412109e+00
1.690000000000000000e+02 4.446849822998046875e+00
1.700000000000000000e+02 4.449572563171386719e+00
1.710000000000000000e+02 4.450378894805908203e+00
1.720000000000000000e+02 4.454852104187011719e+00
1.730000000000000000e+02 4.455874919891357422e+00
1.740000000000000000e+02 4.456173419952392578e+00
1.750000000000000000e+02 4.456507205963134766e+00
1.760000000000000000e+02 4.459357738494873047e+00
1.770000000000000000e+02 4.465840339660644531e+00
1.780000000000000000e+02 4.469528675079345703e+00
1.790000000000000000e+02 4.470802783966064453e+00
1.800000000000000000e+02 4.474635601043701172e+00
1.810000000000000000e+02 4.486315250396728516e+00
1.820000000000000000e+02 4.489214420318603516e+00
1.830000000000000000e+02 4.490783214569091797e+00
1.840000000000000000e+02 4.492500782012939453e+00
1.850000000000000000e+02 4.504577159881591797e+00
1.860000000000000000e+02 4.506505489349365234e+00
1.870000000000000000e+02 4.515288352966308594e+00
1.880000000000000000e+02 4.516702175140380859e+00
1.890000000000000000e+02 4.523323059082031250e+00
1.900000000000000000e+02 4.526227951049804688e+00
1.910000000000000000e+02 4.537283420562744141e+00
1.920000000000000000e+02 4.539500713348388672e+00
1.930000000000000000e+02 4.540067195892333984e+00
1.940000000000000000e+02 4.540462017059326172e+00
1.950000000000000000e+02 4.543091773986816406e+00
1.960000000000000000e+02 4.545199871063232422e+00
1.970000000000000000e+02 4.547624588012695312e+00
1.980000000000000000e+02 4.548115253448486328e+00
1.990000000000000000e+02 4.551621437072753906e+00
2.000000000000000000e+02 4.552754878997802734e+00
2.010000000000000000e+02 4.561348438262939453e+00
2.020000000000000000e+02 4.562534332275390625e+00
2.030000000000000000e+02 4.569616794586181641e+00
2.040000000000000000e+02 4.573390960693359375e+00
2.050000000000000000e+02 4.579248428344726562e+00
2.060000000000000000e+02 4.581878662109375000e+00
2.070000000000000000e+02 4.582631111145019531e+00
2.080000000000000000e+02 4.585614204406738281e+00
2.090000000000000000e+02 4.588442802429199219e+00
2.100000000000000000e+02 4.590717315673828125e+00
2.110000000000000000e+02 4.595934391021728516e+00
2.120000000000000000e+02 4.596252441406250000e+00
2.130000000000000000e+02 4.598219871520996094e+00
2.140000000000000000e+02 4.601258754730224609e+00
2.150000000000000000e+02 4.610002517700195312e+00
2.160000000000000000e+02 4.611160755157470703e+00
2.170000000000000000e+02 4.612950325012207031e+00
2.180000000000000000e+02 4.614353179931640625e+00
2.190000000000000000e+02 4.616764545440673828e+00
2.200000000000000000e+02 4.629400253295898438e+00
2.210000000000000000e+02 4.632839202880859375e+00
2.220000000000000000e+02 4.640045642852783203e+00
2.230000000000000000e+02 4.641922950744628906e+00
2.240000000000000000e+02 4.645677089691162109e+00
2.250000000000000000e+02 4.656856060028076172e+00
2.260000000000000000e+02 4.666990756988525391e+00
2.270000000000000000e+02 4.667590618133544922e+00
2.280000000000000000e+02 4.667631626129150391e+00
2.290000000000000000e+02 4.689735889434814453e+00
2.300000000000000000e+02 4.699297904968261719e+00
2.310000000000000000e+02 4.702602386474609375e+00
2.320000000000000000e+02 4.726268291473388672e+00
2.330000000000000000e+02 4.728134632110595703e+00
2.340000000000000000e+02 4.729321479797363281e+00
2.350000000000000000e+02 4.736061573028564453e+00
2.360000000000000000e+02 4.739155292510986328e+00
2.370000000000000000e+02 4.740889549255371094e+00
2.380000000000000000e+02 4.757791519165039062e+00
2.390000000000000000e+02 4.762720584869384766e+00
2.400000000000000000e+02 4.771065235137939453e+00
2.410000000000000000e+02 4.785011768341064453e+00
2.420000000000000000e+02 4.796023845672607422e+00
2.430000000000000000e+02 4.808509826660156250e+00
2.440000000000000000e+02 4.810477256774902344e+00
2.450000000000000000e+02 4.830644607543945312e+00
2.460000000000000000e+02 4.855661392211914062e+00
2.470000000000000000e+02 4.855996608734130859e+00
2.480000000000000000e+02 4.859236717224121094e+00
2.490000000000000000e+02 4.863462924957275391e+00
2.500000000000000000e+02 4.866303920745849609e+00
2.510000000000000000e+02 4.867742538452148438e+00
2.520000000000000000e+02 4.880000591278076172e+00
2.530000000000000000e+02 4.888533115386962891e+00
2.540000000000000000e+02 4.890899658203125000e+00
2.550000000000000000e+02 5.019698619842529297e+00
