0.000000000000000000e+00 1.721542358398437500e+02
1.000000000000000000e+01 1.654069255482066865e+02
2.000000000000000000e+01 1.631550394694010322e+02
3.000000000000000000e+01 1.603838791385773561e+02
4.000000000000000000e+01 1.600327029344512084e+02
5.000000000000000000e+01 1.611228963814529607e+02
6.000000000000000000e+01 1.608127351354380039e+02
7.000000000000000000e+01 1.612043805189535703e+02
8.000000000000000000e+01 1.601195978235315067e+02
9.000000000000000000e+01 1.601048319051553790e+02
1.000000000000000000e+02 1.599063565093691750e+02
1.100000000000000000e+02 1.598153631536810053e+02
1.200000000000000000e+02 1.594064964105274669e+02
1.300000000000000000e+02 1.592651628101144752e+02
1.400000000000000000e+02 1.592857150896221015e+02
1.500000000000000000e+02 1.588777138413182684e+02
1.600000000000000000e+02 1.586949210788892799e+02
1.700000000000000000e+02 1.589987471731086259e+02
1.800000000000000000e+02 1.590431487362688472e+02
1.900000000000000000e+02 1.590582934474446404e+02
2.000000000000000000e+02 1.590205108490749808e+02
2.100000000000000000e+02 1.589161726241993051e+02
2.200000000000000000e+02 1.589195949502660028e+02
2.300000000000000000e+02 1.591369348831507011e+02
2.400000000000000000e+02 1.590863511967955901e+02
2.500000000000000000e+02 1.589013463966400082e+02
2.600000000000000000e+02 1.590120085500666107e+02
2.700000000000000000e+02 1.589121228883187200e+02
2.800000000000000000e+02 1.588668667396192404e+02
2.900000000000000000e+02 1.590417949768276742e+02
3.000000000000000000e+02 1.592082107898800984e+02
3.100000000000000000e+02 1.591795290244737089e+02
3.200000000000000000e+02 1.592845017382660444e+02
3.300000000000000000e+02 1.595756367110054157e+02
3.400000000000000000e+02 1.597324421454734988e+02
3.500000000000000000e+02 1.596735507715121969e+02
3.600000000000000000e+02 1.598651115861295864e+02
3.700000000000000000e+02 1.598841332695234030e+02
3.800000000000000000e+02 1.598334306531691027e+02
3.900000000000000000e+02 1.600889415301935230e+02
4.000000000000000000e+02 1.602442648642675920e+02
4.100000000000000000e+02 1.602937664765221371e+02
4.200000000000000000e+02 1.602713382748130755e+02
4.300000000000000000e+02 1.601717963694420064e+02
4.400000000000000000e+02 1.600683060557393844e+02
4.500000000000000000e+02 1.601456373261242732e+02
4.600000000000000000e+02 1.601175422585708930e+02
4.700000000000000000e+02 1.602659784466850965e+02
4.800000000000000000e+02 1.602686279677552079e+02
4.900000000000000000e+02 1.601458771311338865e+02
5.000000000000000000e+02 1.600602640848674127e+02
5.100000000000000000e+02 1.601108431582815115e+02
5.200000000000000000e+02 1.600335526127733203e+02
5.300000000000000000e+02 1.599890571781022288e+02
5.400000000000000000e+02 1.599484241929821167e+02
5.500000000000000000e+02 1.599582401836416636e+02
5.600000000000000000e+02 1.599940165147424977e+02
5.700000000000000000e+02 1.599977097653257658e+02
5.800000000000000000e+02 1.601698877856571812e+02
5.900000000000000000e+02 1.604011803899723532e+02
6.000000000000000000e+02 1.604268638623534855e+02
6.100000000000000000e+02 1.602904472038906363e+02
6.200000000000000000e+02 1.603316852612580021e+02
6.300000000000000000e+02 1.603158151714246458e+02
6.400000000000000000e+02 1.603850558752574500e+02
6.500000000000000000e+02 1.604687856975971272e+02
6.600000000000000000e+02 1.605492712762459746e+02
6.700000000000000000e+02 1.606960692540720856e+02
6.800000000000000000e+02 1.606022200843485450e+02
6.900000000000000000e+02 1.605088813439463706e+02
7.000000000000000000e+02 1.606248289535456593e+02
7.100000000000000000e+02 1.606912681268404413e+02
7.200000000000000000e+02 1.607142121292516492e+02
7.300000000000000000e+02 1.607676212295135940e+02
7.400000000000000000e+02 1.607327501757747257e+02
7.500000000000000000e+02 1.608219492337040890e+02
7.600000000000000000e+02 1.608238736727861635e+02
7.700000000000000000e+02 1.607175935183672664e+02
7.800000000000000000e+02 1.609173369462603205e+02
7.900000000000000000e+02 1.609378019156859807e+02
8.000000000000000000e+02 1.609109414204230006e+02
8.100000000000000000e+02 1.608402102619740788e+02
8.200000000000000000e+02 1.608349809727919251e+02
8.300000000000000000e+02 1.607415572257105794e+02
8.400000000000000000e+02 1.606789382408405800e+02
8.500000000000000000e+02 1.606669489034615310e+02
8.600000000000000000e+02 1.607404582237394948e+02
8.700000000000000000e+02 1.607213178562379596e+02
8.800000000000000000e+02 1.606837262295432538e+02
8.900000000000000000e+02 1.607243901861771462e+02
9.000000000000000000e+02 1.606936171655517853e+02
9.100000000000000000e+02 1.607053211601584621e+02
9.200000000000000000e+02 1.607397124283218659e+02
9.300000000000000000e+02 1.607388178480171348e+02
9.400000000000000000e+02 1.607837274857459988e+02
9.500000000000000000e+02 1.607332777791470164e+02
9.600000000000000000e+02 1.606883818341592303e+02
9.700000000000000000e+02 1.607174429770724657e+02
9.800000000000000000e+02 1.607773910195820690e+02
9.900000000000000000e+02 1.608056272012074146e+02
1.000000000000000000e+03 1.608049736975671351e+02
1.010000000000000000e+03 1.608421485365086312e+02
1.020000000000000000e+03 1.608418496904364474e+02
1.030000000000000000e+03 1.607512326171165284e+02
1.040000000000000000e+03 1.607654576370283905e+02
1.050000000000000000e+03 1.608102480727758063e+02
1.060000000000000000e+03 1.608245637482006316e+02
1.070000000000000000e+03 1.608878368302888191e+02
1.080000000000000000e+03 1.609074175302680771e+02
1.090000000000000000e+03 1.608697673402501493e+02
1.100000000000000000e+03 1.608415862870801618e+02
1.110000000000000000e+03 1.607897004986754155e+02
1.120000000000000000e+03 1.607073344656870972e+02
1.130000000000000000e+03 1.607512711879956839e+02
1.140000000000000000e+03 1.607945680743659977e+02
1.150000000000000000e+03 1.608232165617491773e+02
1.160000000000000000e+03 1.608078814760351634e+02
1.170000000000000000e+03 1.608260699108459733e+02
1.180000000000000000e+03 1.607857980493971297e+02
1.190000000000000000e+03 1.607482379109393662e+02
1.200000000000000000e+03 1.607057451030595416e+02
1.210000000000000000e+03 1.606840165860392347e+02
1.220000000000000000e+03 1.607039911393550540e+02
1.230000000000000000e+03 1.607380350269408780e+02
1.240000000000000000e+03 1.607096072680330963e+02
1.250000000000000000e+03 1.607268302911382705e+02
1.260000000000000000e+03 1.607206783793825764e+02
1.270000000000000000e+03 1.607375492243012616e+02
1.280000000000000000e+03 1.607864904589805519e+02
1.290000000000000000e+03 1.608139780105129830e+02
1.300000000000000000e+03 1.608624404332529423e+02
1.310000000000000000e+03 1.608927067830124145e+02
1.320000000000000000e+03 1.609410558869493286e+02
1.330000000000000000e+03 1.609541802753817876e+02
1.340000000000000000e+03 1.609998209339571531e+02
1.350000000000000000e+03 1.610474313076649082e+02
1.360000000000000000e+03 1.610961678061391069e+02
1.370000000000000000e+03 1.610955562355047448e+02
1.380000000000000000e+03 1.611128891731499948e+02
1.390000000000000000e+03 1.611133209601483998e+02
1.400000000000000000e+03 1.610824420937123875e+02
1.410000000000000000e+03 1.610954098772445491e+02
1.420000000000000000e+03 1.611901615473018126e+02
1.430000000000000000e+03 1.611771713352804056e+02
1.440000000000000000e+03 1.611299737298928108e+02
1.450000000000000000e+03 1.611046341121157184e+02
1.460000000000000000e+03 1.610967296101638908e+02
1.470000000000000000e+03 1.610977591405023190e+02
1.480000000000000000e+03 1.610888657759848570e+02
1.490000000000000000e+03 1.610936618244625436e+02
1.500000000000000000e+03 1.611501895363216477e+02
1.510000000000000000e+03 1.611142807562253552e+02
1.520000000000000000e+03 1.611039636976856855e+02
1.530000000000000000e+03 1.611021874824590157e+02
1.540000000000000000e+03 1.610914512104528455e+02
1.550000000000000000e+03 1.610954447093893691e+02
1.560000000000000000e+03 1.610469704138630789e+02
1.570000000000000000e+03 1.610585657383212492e+02
1.580000000000000000e+03 1.610594144431495920e+02
1.590000000000000000e+03 1.610778827775133948e+02
1.600000000000000000e+03 1.611011066520164263e+02
1.610000000000000000e+03 1.611181911987079616e+02
1.620000000000000000e+03 1.611036027158802142e+02
1.630000000000000000e+03 1.611191228870087855e+02
1.640000000000000000e+03 1.611832043393804099e+02
1.650000000000000000e+03 1.611820198211580077e+02
1.660000000000000000e+03 1.612022609814044074e+02
1.670000000000000000e+03 1.612055821672735476e+02
1.680000000000000000e+03 1.611672174202979875e+02
1.690000000000000000e+03 1.611590322791157917e+02
1.700000000000000000e+03 1.612004534560468869e+02
1.710000000000000000e+03 1.612236024911192942e+02
1.720000000000000000e+03 1.611905948388447314e+02
1.730000000000000000e+03 1.611943063278685315e+02
1.740000000000000000e+03 1.611918871428761975e+02
1.750000000000000000e+03 1.612311232134931913e+02
1.760000000000000000e+03 1.612680502376526306e+02
1.770000000000000000e+03 1.612215631916860445e+02
1.780000000000000000e+03 1.612165285482093111e+02
1.790000000000000000e+03 1.612328387440950621e+02
1.800000000000000000e+03 1.612020309592275282e+02
1.810000000000000000e+03 1.611946770906582174e+02
1.820000000000000000e+03 1.611892176318602878e+02
1.830000000000000000e+03 1.612086056886901133e+02
1.840000000000000000e+03 1.611471100516583022e+02
1.850000000000000000e+03 1.611118268673000955e+02
1.860000000000000000e+03 1.611066935035507015e+02
1.870000000000000000e+03 1.610865400142050134e+02
1.880000000000000000e+03 1.611260849639878643e+02
1.890000000000000000e+03 1.611404978380452633e+02
1.900000000000000000e+03 1.612002146729416836e+02
1.910000000000000000e+03 1.611787901059426815e+02
1.920000000000000000e+03 1.612099934011498306e+02
1.930000000000000000e+03 1.612265920456306105e+02
1.940000000000000000e+03 1.612013171047112507e+02
1.950000000000000000e+03 1.611977853858124661e+02
1.960000000000000000e+03 1.611788229701595299e+02
1.970000000000000000e+03 1.611337309536870634e+02
1.980000000000000000e+03 1.611275631761625107e+02
1.990000000000000000e+03 1.611383778501672737e+02
2.000000000000000000e+03 1.611676511978998008e+02
2.010000000000000000e+03 1.611921645154532996e+02
2.020000000000000000e+03 1.612011523201938417e+02
2.030000000000000000e+03 1.612308298897005727e+02
2.040000000000000000e+03 1.612535031443424600e+02
2.050000000000000000e+03 1.612568201653730284e+02
2.060000000000000000e+03 1.612321604544073921e+02
2.070000000000000000e+03 1.612506293458447715e+02
2.080000000000000000e+03 1.612516243534557532e+02
2.090000000000000000e+03 1.612216802275051748e+02
2.100000000000000000e+03 1.611986219577709676e+02
2.110000000000000000e+03 1.611953387673803206e+02
2.120000000000000000e+03 1.612656320934306677e+02
2.130000000000000000e+03 1.612946143076489989e+02
2.140000000000000000e+03 1.612911344026641700e+02
2.150000000000000000e+03 1.613112203260181730e+02
2.160000000000000000e+03 1.613228062281507107e+02
2.170000000000000000e+03 1.613297498607242346e+02
2.180000000000000000e+03 1.613006163837167435e+02
2.190000000000000000e+03 1.612995854860462259e+02
2.200000000000000000e+03 1.612924776402241775e+02
2.210000000000000000e+03 1.612767204860929837e+02
2.220000000000000000e+03 1.613178069532483505e+02
2.230000000000000000e+03 1.613466164363656219e+02
2.240000000000000000e+03 1.612974816883639448e+02
2.250000000000000000e+03 1.612657582415630486e+02
2.260000000000000000e+03 1.612430996462501014e+02
2.270000000000000000e+03 1.612462620804460300e+02
2.280000000000000000e+03 1.612330542417643642e+02
2.290000000000000000e+03 1.612294192303743898e+02
2.300000000000000000e+03 1.612309979202956356e+02
2.310000000000000000e+03 1.612210491383454780e+02
2.320000000000000000e+03 1.612283588953443711e+02
2.330000000000000000e+03 1.612355336009665905e+02
2.340000000000000000e+03 1.612399357759461225e+02
2.350000000000000000e+03 1.612319984322456321e+02
2.360000000000000000e+03 1.612301020478860778e+02
2.370000000000000000e+03 1.612365986901666588e+02
2.380000000000000000e+03 1.612394244928213709e+02
2.390000000000000000e+03 1.612286898342949542e+02
2.400000000000000000e+03 1.612219105966387929e+02
2.410000000000000000e+03 1.612027953063637540e+02
2.420000000000000000e+03 1.612150830942854043e+02
2.430000000000000000e+03 1.612103455581571723e+02
2.440000000000000000e+03 1.611845705687927079e+02
2.450000000000000000e+03 1.611877843077841419e+02
2.460000000000000000e+03 1.612134544437660963e+02
2.470000000000000000e+03 1.612468304821278764e+02
2.480000000000000000e+03 1.612951394034604675e+02
2.490000000000000000e+03 1.612910503937221449e+02
2.500000000000000000e+03 1.613230420173239281e+02
2.510000000000000000e+03 1.613174112457433580e+02
2.520000000000000000e+03 1.613598142667027275e+02
2.530000000000000000e+03 1.613911474100547991e+02
2.540000000000000000e+03 1.614200470739347395e+02
2.550000000000000000e+03 1.614417183164613618e+02
2.560000000000000000e+03 1.614670559824652969e+02
2.570000000000000000e+03 1.620627140562991428e+02
2.580000000000000000e+03 1.626579528359284552e+02
2.590000000000000000e+03 1.632626674862636946e+02
2.600000000000000000e+03 1.638931407818469950e+02
2.610000000000000000e+03 1.645092794592926566e+02
2.620000000000000000e+03 1.651638570157502670e+02
2.630000000000000000e+03 1.658184553180435330e+02
2.640000000000000000e+03 1.664379513158079931e+02
2.650000000000000000e+03 1.670675141612613857e+02
2.660000000000000000e+03 1.676760488436304399e+02
2.670000000000000000e+03 1.682972579721832744e+02
2.680000000000000000e+03 1.688576897774469785e+02
2.690000000000000000e+03 1.694204847150823525e+02
2.700000000000000000e+03 1.700253804675389233e+02
2.710000000000000000e+03 1.705748635984708415e+02
2.720000000000000000e+03 1.711510979183805432e+02
2.730000000000000000e+03 1.717060389705562784e+02
2.740000000000000000e+03 1.722364745726337958e+02
2.750000000000000000e+03 1.727570329428326659e+02
2.760000000000000000e+03 1.732764233648237280e+02
2.770000000000000000e+03 1.738421236146275533e+02
2.780000000000000000e+03 1.743604874156526137e+02
2.790000000000000000e+03 1.748756838627333821e+02
2.800000000000000000e+03 1.754280431680022900e+02
2.810000000000000000e+03 1.759482660609096172e+02
2.820000000000000000e+03 1.764543552013290935e+02
2.830000000000000000e+03 1.769644976056368080e+02
2.840000000000000000e+03 1.774979554243131474e+02
2.850000000000000000e+03 1.779803694528013125e+02
2.860000000000000000e+03 1.785126472641146052e+02
2.870000000000000000e+03 1.790226500008589028e+02
2.880000000000000000e+03 1.795237848771110976e+02
2.890000000000000000e+03 1.799803635113298981e+02
2.900000000000000000e+03 1.804485260609386614e+02
2.910000000000000000e+03 1.809030406588910864e+02
2.920000000000000000e+03 1.813812952769695528e+02
2.930000000000000000e+03 1.818329192688341607e+02
2.940000000000000000e+03 1.823117516189154230e+02
2.950000000000000000e+03 1.828385327971614913e+02
2.960000000000000000e+03 1.832856239543013430e+02
2.970000000000000000e+03 1.837919697281648155e+02
2.980000000000000000e+03 1.842890498773317347e+02
2.990000000000000000e+03 1.847632920938922894e+02
3.000000000000000000e+03 1.852535292038476769e+02
3.010000000000000000e+03 1.857151586861357941e+02
3.020000000000000000e+03 1.861735264798024332e+02
3.030000000000000000e+03 1.866475351220976222e+02
3.040000000000000000e+03 1.871278748240998482e+02
3.050000000000000000e+03 1.876058069889914179e+02
3.060000000000000000e+03 1.880599919106982156e+02
3.070000000000000000e+03 1.884896768652549781e+02
3.080000000000000000e+03 1.889254442739315607e+02
3.090000000000000000e+03 1.893480662083941297e+02
3.100000000000000000e+03 1.897846318269228902e+02
3.110000000000000000e+03 1.902318228289690296e+02
3.120000000000000000e+03 1.906799944651809824e+02
3.130000000000000000e+03 1.910748512367971443e+02
3.140000000000000000e+03 1.915369942952628719e+02
3.150000000000000000e+03 1.919574644620816457e+02
3.160000000000000000e+03 1.923545552597358892e+02
3.170000000000000000e+03 1.927645655463298340e+02
3.180000000000000000e+03 1.931965070362923882e+02
3.190000000000000000e+03 1.936166085745614396e+02
3.200000000000000000e+03 1.940544906516105641e+02
3.210000000000000000e+03 1.944460361971359816e+02
3.220000000000000000e+03 1.948805219856931785e+02
3.230000000000000000e+03 1.953162379593938454e+02
3.240000000000000000e+03 1.957046639390360383e+02
3.250000000000000000e+03 1.960818243246743577e+02
3.260000000000000000e+03 1.964811424763060757e+02
3.270000000000000000e+03 1.968617373227124858e+02
3.280000000000000000e+03 1.972319293895605483e+02
3.290000000000000000e+03 1.976044597318562239e+02
3.300000000000000000e+03 1.979792596631538970e+02
3.310000000000000000e+03 1.983654933412136927e+02
3.320000000000000000e+03 1.987461344630772828e+02
3.330000000000000000e+03 1.991084834350475319e+02
3.340000000000000000e+03 1.994835206402592576e+02
3.350000000000000000e+03 1.998768289008804402e+02
3.360000000000000000e+03 2.002887371441183006e+02
3.370000000000000000e+03 2.006935908640926129e+02
3.380000000000000000e+03 2.010536160495850879e+02
3.390000000000000000e+03 2.014540196303173047e+02
3.400000000000000000e+03 2.018408164091931098e+02
3.410000000000000000e+03 2.021921577912136740e+02
3.420000000000000000e+03 2.025924207725847737e+02
3.430000000000000000e+03 2.029887246399013918e+02
3.440000000000000000e+03 2.033337095216829766e+02
3.450000000000000000e+03 2.036986736738656987e+02
3.460000000000000000e+03 2.040572839101522220e+02
3.470000000000000000e+03 2.044161541410427390e+02
3.480000000000000000e+03 2.047226339207061869e+02
3.490000000000000000e+03 2.050553204927905426e+02
3.500000000000000000e+03 2.053913456628881136e+02
3.510000000000000000e+03 2.057409820556640057e+02
3.520000000000000000e+03 2.061015022622356696e+02
3.530000000000000000e+03 2.064524819183132820e+02
3.540000000000000000e+03 2.068054870803690051e+02
3.550000000000000000e+03 2.071747388439559074e+02
3.560000000000000000e+03 2.075167510823498560e+02
3.570000000000000000e+03 2.078692237856139684e+02
3.580000000000000000e+03 2.082234155547847934e+02
3.590000000000000000e+03 2.085837055653524033e+02
3.600000000000000000e+03 2.089517792053137271e+02
3.610000000000000000e+03 2.092302410386665201e+02
3.620000000000000000e+03 2.095329694898046853e+02
3.630000000000000000e+03 2.098656458706278727e+02
3.640000000000000000e+03 2.101303609435749422e+02
3.650000000000000000e+03 2.104356661117164435e+02
3.660000000000000000e+03 2.108022094201402865e+02
3.670000000000000000e+03 2.111492580495909976e+02
3.680000000000000000e+03 2.114911823599145464e+02
3.690000000000000000e+03 2.118118602139811628e+02
3.700000000000000000e+03 2.121577701975737682e+02
3.710000000000000000e+03 2.124871910093158363e+02
3.720000000000000000e+03 2.128358542594304197e+02
3.730000000000000000e+03 2.131382655887812803e+02
3.740000000000000000e+03 2.134571746279612228e+02
3.750000000000000000e+03 2.137838972310833583e+02
3.760000000000000000e+03 2.140517053905873013e+02
3.770000000000000000e+03 2.143727470484945172e+02
3.780000000000000000e+03 2.146875345653340617e+02
3.790000000000000000e+03 2.149587147078014198e+02
3.800000000000000000e+03 2.152555463951971433e+02
3.810000000000000000e+03 2.155237053556098772e+02
3.820000000000000000e+03 2.157902461283807156e+02
3.830000000000000000e+03 2.160553410509428147e+02
3.840000000000000000e+03 2.163289065948223424e+02
3.850000000000000000e+03 2.166317043339112729e+02
3.860000000000000000e+03 2.169033834698964824e+02
3.870000000000000000e+03 2.171862344192429362e+02
3.880000000000000000e+03 2.174780744765413090e+02
3.890000000000000000e+03 2.177516107414595865e+02
3.900000000000000000e+03 2.180344242701252426e+02
3.910000000000000000e+03 2.183141501457664333e+02
3.920000000000000000e+03 2.185875376258933045e+02
3.930000000000000000e+03 2.188770442973320485e+02
3.940000000000000000e+03 2.191764293749057799e+02
3.950000000000000000e+03 2.194618827647964281e+02
3.960000000000000000e+03 2.197390874310353013e+02
3.970000000000000000e+03 2.200154598277390789e+02
3.980000000000000000e+03 2.203092704567888234e+02
3.990000000000000000e+03 2.205461651776494136e+02
4.000000000000000000e+03 2.208391963860535725e+02
4.010000000000000000e+03 2.211145828616080564e+02
4.020000000000000000e+03 2.213847220154491140e+02
4.030000000000000000e+03 2.216646126794684335e+02
4.040000000000000000e+03 2.219694884219283608e+02
4.050000000000000000e+03 2.222634953423741706e+02
4.060000000000000000e+03 2.225337530425896944e+02
4.070000000000000000e+03 2.228089063771377880e+02
4.080000000000000000e+03 2.231094058727814513e+02
4.090000000000000000e+03 2.234102211455440283e+02
4.100000000000000000e+03 2.236588108906423145e+02
4.110000000000000000e+03 2.238983965339929227e+02
4.120000000000000000e+03 2.241732358166500489e+02
4.130000000000000000e+03 2.244266821538757881e+02
4.140000000000000000e+03 2.246552537200934410e+02
4.150000000000000000e+03 2.249406491699806452e+02
4.160000000000000000e+03 2.251839421608504210e+02
4.170000000000000000e+03 2.254164635807568118e+02
4.180000000000000000e+03 2.256668390375778586e+02
4.190000000000000000e+03 2.258985586710232667e+02
4.200000000000000000e+03 2.261407642868466326e+02
4.210000000000000000e+03 2.263922913677475037e+02
4.220000000000000000e+03 2.266191247552809216e+02
4.230000000000000000e+03 2.268586891875765730e+02
4.240000000000000000e+03 2.270871708282347754e+02
4.250000000000000000e+03 2.273049161054475746e+02
4.260000000000000000e+03 2.275326158925978461e+02
4.270000000000000000e+03 2.277415530509118184e+02
4.280000000000000000e+03 2.279840940294129723e+02
4.290000000000000000e+03 2.281885704444133296e+02
4.300000000000000000e+03 2.284162199813747236e+02
4.310000000000000000e+03 2.286308454859978667e+02
4.320000000000000000e+03 2.288368843253413161e+02
4.330000000000000000e+03 2.290658705083141911e+02
4.340000000000000000e+03 2.292669517729749487e+02
4.350000000000000000e+03 2.294821828861012705e+02
4.360000000000000000e+03 2.296782419947795120e+02
4.370000000000000000e+03 2.298719447791999073e+02
4.380000000000000000e+03 2.300597841131771872e+02
4.390000000000000000e+03 2.302515968943044413e+02
4.400000000000000000e+03 2.304657387797385013e+02
4.410000000000000000e+03 2.306642050249078295e+02
4.420000000000000000e+03 2.309001199359458383e+02
4.430000000000000000e+03 2.311232954854756940e+02
4.440000000000000000e+03 2.313217053790265822e+02
4.450000000000000000e+03 2.315211372144087534e+02
4.460000000000000000e+03 2.317452641521113605e+02
4.470000000000000000e+03 2.319515306732581337e+02
4.480000000000000000e+03 2.321764505459139798e+02
4.490000000000000000e+03 2.324115940723406766e+02
4.500000000000000000e+03 2.326117696772679722e+02
4.510000000000000000e+03 2.327910537804291948e+02
4.520000000000000000e+03 2.329938814517171863e+02
4.530000000000000000e+03 2.331867103012581026e+02
4.540000000000000000e+03 2.333836753289098453e+02
4.550000000000000000e+03 2.335582341341050210e+02
4.560000000000000000e+03 2.337236332273411108e+02
4.570000000000000000e+03 2.339003617397885932e+02
4.580000000000000000e+03 2.341012224398490957e+02
4.590000000000000000e+03 2.343143631476667395e+02
4.600000000000000000e+03 2.345046653888506967e+02
4.610000000000000000e+03 2.347046286310558116e+02
4.620000000000000000e+03 2.349124417894203987e+02
4.630000000000000000e+03 2.351144182884367240e+02
4.640000000000000000e+03 2.353144044915142672e+02
4.650000000000000000e+03 2.355092468458564952e+02
4.660000000000000000e+03 2.356956818045989621e+02
4.670000000000000000e+03 2.358928399058436582e+02
4.680000000000000000e+03 2.360595546006087773e+02
4.690000000000000000e+03 2.362350954581517612e+02
4.700000000000000000e+03 2.364241426099085572e+02
4.710000000000000000e+03 2.366173386109202568e+02
4.720000000000000000e+03 2.367782282878777380e+02
4.730000000000000000e+03 2.369788681994632498e+02
4.740000000000000000e+03 2.371548128576627619e+02
4.750000000000000000e+03 2.373195675621282703e+02
4.760000000000000000e+03 2.375165972101716818e+02
4.770000000000000000e+03 2.376954359615457122e+02
4.780000000000000000e+03 2.378671325702744070e+02
4.790000000000000000e+03 2.380636423230794207e+02
4.800000000000000000e+03 2.382286757485268254e+02
4.810000000000000000e+03 2.384102613393197316e+02
4.820000000000000000e+03 2.386143669883287544e+02
4.830000000000000000e+03 2.388124320540116230e+02
4.840000000000000000e+03 2.389916282359098432e+02
4.850000000000000000e+03 2.391802353348788870e+02
4.860000000000000000e+03 2.393452596815495212e+02
4.870000000000000000e+03 2.395019065842838017e+02
4.880000000000000000e+03 2.396978659165783370e+02
4.890000000000000000e+03 2.398674278501060257e+02
4.900000000000000000e+03 2.400686251039628587e+02
4.910000000000000000e+03 2.402537589410104317e+02
4.920000000000000000e+03 2.403938939095125704e+02
4.930000000000000000e+03 2.405377357125500737e+02
4.940000000000000000e+03 2.407074681775963256e+02
4.950000000000000000e+03 2.408793506965183440e+02
4.960000000000000000e+03 2.410648808201531494e+02
4.970000000000000000e+03 2.412331966905857712e+02
4.980000000000000000e+03 2.413888886533476636e+02
4.990000000000000000e+03 2.415501048799461046e+02
5.000000000000000000e+03 2.417035794501256873e+02
5.010000000000000000e+03 2.418623413286912296e+02
5.020000000000000000e+03 2.420300691076969883e+02
5.030000000000000000e+03 2.422150542066435150e+02
5.040000000000000000e+03 2.423849711146674508e+02
5.050000000000000000e+03 2.425325125824742827e+02
5.060000000000000000e+03 2.426881922533616205e+02
5.070000000000000000e+03 2.428351413498873512e+02
5.080000000000000000e+03 2.429817609541108823e+02
5.090000000000000000e+03 2.431013038618770281e+02
5.100000000000000000e+03 2.432388410360714488e+02
5.110000000000000000e+03 2.433786446682000246e+02
5.120000000000000000e+03 2.435152166329704926e+02
5.130000000000000000e+03 2.434857446748224845e+02
5.140000000000000000e+03 2.433562597880636247e+02
5.150000000000000000e+03 2.432193549275977773e+02
5.160000000000000000e+03 2.430643790632550747e+02
5.170000000000000000e+03 2.429038383883726340e+02
5.180000000000000000e+03 2.427553832601383590e+02
5.190000000000000000e+03 2.426061041664237621e+02
5.200000000000000000e+03 2.424807142108433311e+02
5.210000000000000000e+03 2.423528351228312658e+02
5.220000000000000000e+03 2.422189030496583086e+02
5.230000000000000000e+03 2.420930901616556241e+02
5.240000000000000000e+03 2.419609490758339518e+02
5.250000000000000000e+03 2.418235478718107743e+02
5.260000000000000000e+03 2.416833761302584094e+02
5.270000000000000000e+03 2.415475870970869892e+02
5.280000000000000000e+03 2.414182808776174340e+02
5.290000000000000000e+03 2.412934137437007109e+02
5.300000000000000000e+03 2.411573513299424292e+02
5.310000000000000000e+03 2.410130234784583365e+02
5.320000000000000000e+03 2.408649555959775910e+02
5.330000000000000000e+03 2.407227259378142605e+02
5.340000000000000000e+03 2.405799768616077756e+02
5.350000000000000000e+03 2.404735847976448895e+02
5.360000000000000000e+03 2.403369504234458702e+02
5.370000000000000000e+03 2.402106354208638095e+02
5.380000000000000000e+03 2.400960121402907816e+02
5.390000000000000000e+03 2.399732015047549964e+02
5.400000000000000000e+03 2.398484540691069355e+02
5.410000000000000000e+03 2.397276496978856528e+02
5.420000000000000000e+03 2.395992393106624263e+02
5.430000000000000000e+03 2.394642207075979172e+02
5.440000000000000000e+03 2.393357040357599317e+02
5.450000000000000000e+03 2.392195613863184178e+02
5.460000000000000000e+03 2.390938805924342887e+02
5.470000000000000000e+03 2.389746409412539094e+02
5.480000000000000000e+03 2.388367873262998842e+02
5.490000000000000000e+03 2.387123485419990345e+02
5.500000000000000000e+03 2.385866871583984903e+02
5.510000000000000000e+03 2.384577438556614482e+02
5.520000000000000000e+03 2.383479594524476397e+02
5.530000000000000000e+03 2.382450369733343223e+02
5.540000000000000000e+03 2.381402501393862678e+02
5.550000000000000000e+03 2.380242464357272922e+02
5.560000000000000000e+03 2.378947478117563890e+02
5.570000000000000000e+03 2.377677343310670324e+02
5.580000000000000000e+03 2.376317367321316567e+02
5.590000000000000000e+03 2.375059530810495403e+02
5.600000000000000000e+03 2.373835739111224257e+02
5.610000000000000000e+03 2.372620095616886999e+02
5.620000000000000000e+03 2.371418115018293236e+02
5.630000000000000000e+03 2.370275064724797858e+02
5.640000000000000000e+03 2.369083521910074808e+02
5.650000000000000000e+03 2.367917986376859005e+02
5.660000000000000000e+03 2.366629143226191729e+02
5.670000000000000000e+03 2.365514360191414767e+02
5.680000000000000000e+03 2.364382168649473783e+02
5.690000000000000000e+03 2.363270968455796606e+02
5.700000000000000000e+03 2.361948615989023494e+02
5.710000000000000000e+03 2.360659036611305055e+02
5.720000000000000000e+03 2.359389071665409574e+02
5.730000000000000000e+03 2.358183535787369749e+02
5.740000000000000000e+03 2.356850525736913369e+02
5.750000000000000000e+03 2.355617366466413500e+02
5.760000000000000000e+03 2.354354084467148027e+02
5.770000000000000000e+03 2.353263985411255419e+02
5.780000000000000000e+03 2.352147546334985861e+02
5.790000000000000000e+03 2.350937549773533135e+02
5.800000000000000000e+03 2.349843417757689679e+02
5.810000000000000000e+03 2.348614604308589264e+02
5.820000000000000000e+03 2.347408984298457710e+02
5.830000000000000000e+03 2.346147306988853813e+02
5.840000000000000000e+03 2.345039521595975884e+02
5.850000000000000000e+03 2.343932788166261503e+02
5.860000000000000000e+03 2.342788016217253073e+02
5.870000000000000000e+03 2.341506355193380386e+02
5.880000000000000000e+03 2.340170204903354261e+02
5.890000000000000000e+03 2.338901884162837632e+02
5.900000000000000000e+03 2.337655850959782526e+02
5.910000000000000000e+03 2.336512139258581442e+02
5.920000000000000000e+03 2.335382182000961109e+02
5.930000000000000000e+03 2.334207693951224485e+02
5.940000000000000000e+03 2.333009513465870555e+02
5.950000000000000000e+03 2.331841190820821907e+02
5.960000000000000000e+03 2.330846129956411801e+02
5.970000000000000000e+03 2.329690901731211738e+02
5.980000000000000000e+03 2.328668145385600212e+02
5.990000000000000000e+03 2.327564949948727531e+02
6.000000000000000000e+03 2.326312621653309236e+02
6.010000000000000000e+03 2.325119435144252975e+02
6.020000000000000000e+03 2.323889667667477852e+02
6.030000000000000000e+03 2.322741211549775073e+02
6.040000000000000000e+03 2.321710044281153102e+02
6.050000000000000000e+03 2.320745977635936868e+02
6.060000000000000000e+03 2.319719277605171897e+02
6.070000000000000000e+03 2.318948738677481742e+02
6.080000000000000000e+03 2.318095112822398107e+02
6.090000000000000000e+03 2.317283845186586575e+02
6.100000000000000000e+03 2.316368247761998305e+02
6.110000000000000000e+03 2.315387134330399590e+02
6.120000000000000000e+03 2.314502189946592239e+02
6.130000000000000000e+03 2.313632525542183203e+02
6.140000000000000000e+03 2.312685672155597558e+02
6.150000000000000000e+03 2.311639539445441471e+02
6.160000000000000000e+03 2.310642452082103091e+02
6.170000000000000000e+03 2.309515030334997618e+02
6.180000000000000000e+03 2.308514752303912587e+02
6.190000000000000000e+03 2.307457183951266302e+02
6.200000000000000000e+03 2.306511688133994653e+02
6.210000000000000000e+03 2.305465877952447329e+02
6.220000000000000000e+03 2.304433125071425934e+02
6.230000000000000000e+03 2.303275266894367519e+02
6.240000000000000000e+03 2.302221500889993138e+02
6.250000000000000000e+03 2.301088863940949807e+02
6.260000000000000000e+03 2.300046351453668763e+02
6.270000000000000000e+03 2.299089582732488282e+02
6.280000000000000000e+03 2.298047118591591129e+02
6.290000000000000000e+03 2.297030260980158403e+02
6.300000000000000000e+03 2.296049038091362604e+02
6.310000000000000000e+03 2.294879377205235471e+02
6.320000000000000000e+03 2.293732123801158593e+02
6.330000000000000000e+03 2.292651195679772229e+02
6.340000000000000000e+03 2.291575050540498353e+02
6.350000000000000000e+03 2.290632620408880769e+02
6.360000000000000000e+03 2.289695579841853146e+02
6.370000000000000000e+03 2.288791223519116045e+02
6.380000000000000000e+03 2.287985505996463189e+02
6.390000000000000000e+03 2.286949821451874527e+02
6.400000000000000000e+03 2.286137052803296399e+02
6.410000000000000000e+03 2.285120778587340737e+02
6.420000000000000000e+03 2.284181546619833796e+02
6.430000000000000000e+03 2.283173321768574908e+02
6.440000000000000000e+03 2.282226607913909504e+02
6.450000000000000000e+03 2.281301354896263547e+02
6.460000000000000000e+03 2.280384340013186772e+02
6.470000000000000000e+03 2.279359033213501107e+02
6.480000000000000000e+03 2.278457014651564805e+02
6.490000000000000000e+03 2.277541657387430405e+02
6.500000000000000000e+03 2.276518871599006388e+02
6.510000000000000000e+03 2.275561613288824958e+02
6.520000000000000000e+03 2.274673480399638095e+02
6.530000000000000000e+03 2.273913720498460407e+02
6.540000000000000000e+03 2.273021857047770595e+02
6.550000000000000000e+03 2.272037745827920219e+02
6.560000000000000000e+03 2.271100150388728025e+02
6.570000000000000000e+03 2.270050712612154484e+02
6.580000000000000000e+03 2.269169790734275978e+02
6.590000000000000000e+03 2.268218355429153235e+02
6.600000000000000000e+03 2.267353382685603833e+02
6.610000000000000000e+03 2.266424619241627738e+02
6.620000000000000000e+03 2.265524226610547203e+02
6.630000000000000000e+03 2.264494129331057479e+02
6.640000000000000000e+03 2.263573968281608018e+02
6.650000000000000000e+03 2.262732206971784876e+02
6.660000000000000000e+03 2.261829211079418087e+02
6.670000000000000000e+03 2.261027049901085491e+02
6.680000000000000000e+03 2.260147855016683138e+02
6.690000000000000000e+03 2.259331436761558223e+02
6.700000000000000000e+03 2.258415366057371045e+02
6.710000000000000000e+03 2.257484992249963796e+02
6.720000000000000000e+03 2.256506309628469467e+02
6.730000000000000000e+03 2.255545508464473414e+02
6.740000000000000000e+03 2.254610426183660650e+02
6.750000000000000000e+03 2.253710292657382013e+02
6.760000000000000000e+03 2.252838084730519483e+02
6.770000000000000000e+03 2.252005945694991169e+02
6.780000000000000000e+03 2.251166687371755870e+02
6.790000000000000000e+03 2.250325166929490308e+02
6.800000000000000000e+03 2.249405111507219601e+02
6.810000000000000000e+03 2.248694647740135224e+02
6.820000000000000000e+03 2.247930625330544387e+02
6.830000000000000000e+03 2.247270394181319375e+02
6.840000000000000000e+03 2.246431462645200270e+02
6.850000000000000000e+03 2.245572511859226950e+02
6.860000000000000000e+03 2.244803638155234182e+02
6.870000000000000000e+03 2.244058993543154372e+02
6.880000000000000000e+03 2.243211723208999899e+02
6.890000000000000000e+03 2.242391306625674758e+02
6.900000000000000000e+03 2.241587417242130584e+02
6.910000000000000000e+03 2.240745729367203296e+02
6.920000000000000000e+03 2.239980420951915505e+02
6.930000000000000000e+03 2.239050744524114123e+02
6.940000000000000000e+03 2.238306141699310956e+02
6.950000000000000000e+03 2.237557132343923456e+02
6.960000000000000000e+03 2.236804476204900141e+02
6.970000000000000000e+03 2.236006632755484418e+02
6.980000000000000000e+03 2.235193838576604435e+02
6.990000000000000000e+03 2.234295831744958889e+02
7.000000000000000000e+03 2.233378050572156610e+02
7.010000000000000000e+03 2.232482602847590556e+02
7.020000000000000000e+03 2.231671551551053483e+02
7.030000000000000000e+03 2.230932741432369539e+02
7.040000000000000000e+03 2.230043169630300781e+02
7.050000000000000000e+03 2.229196435249101000e+02
7.060000000000000000e+03 2.228434155794670346e+02
7.070000000000000000e+03 2.227677788457276336e+02
7.080000000000000000e+03 2.226950080892054302e+02
7.090000000000000000e+03 2.226243237974344709e+02
7.100000000000000000e+03 2.225552717412195420e+02
7.110000000000000000e+03 2.224915594391440550e+02
7.120000000000000000e+03 2.224179695771159970e+02
7.130000000000000000e+03 2.223559561774768554e+02
7.140000000000000000e+03 2.222721544112700371e+02
7.150000000000000000e+03 2.221879195430832681e+02
7.160000000000000000e+03 2.220973100858001033e+02
7.170000000000000000e+03 2.220174934047816180e+02
7.180000000000000000e+03 2.219405225959101813e+02
7.190000000000000000e+03 2.218670504064325826e+02
7.200000000000000000e+03 2.217936537151551875e+02
7.210000000000000000e+03 2.217256652531553698e+02
7.220000000000000000e+03 2.216553016412194381e+02
7.230000000000000000e+03 2.215837406543030284e+02
7.240000000000000000e+03 2.215172433588423360e+02
7.250000000000000000e+03 2.214436761353398424e+02
7.260000000000000000e+03 2.213791061042016111e+02
7.270000000000000000e+03 2.212977400963219452e+02
7.280000000000000000e+03 2.212220407430164641e+02
7.290000000000000000e+03 2.211511340237436229e+02
7.300000000000000000e+03 2.210773535899440105e+02
7.310000000000000000e+03 2.209959075764941190e+02
7.320000000000000000e+03 2.209159681020319681e+02
7.330000000000000000e+03 2.208382988740991664e+02
7.340000000000000000e+03 2.207698458915932349e+02
7.350000000000000000e+03 2.206998802893925529e+02
7.360000000000000000e+03 2.206343294031480298e+02
7.370000000000000000e+03 2.205709693710996362e+02
7.380000000000000000e+03 2.205037749595007028e+02
7.390000000000000000e+03 2.204281705996452558e+02
7.400000000000000000e+03 2.203489183524608848e+02
7.410000000000000000e+03 2.202799422902756703e+02
7.420000000000000000e+03 2.202072047079498418e+02
7.430000000000000000e+03 2.201293222373210483e+02
7.440000000000000000e+03 2.200558182252798076e+02
7.450000000000000000e+03 2.199718960096589910e+02
7.460000000000000000e+03 2.198891020906370102e+02
7.470000000000000000e+03 2.198131290783510678e+02
7.480000000000000000e+03 2.197434255403402688e+02
7.490000000000000000e+03 2.196658794182577026e+02
7.500000000000000000e+03 2.195946991064440681e+02
7.510000000000000000e+03 2.195250912329723008e+02
7.520000000000000000e+03 2.194591339257404172e+02
7.530000000000000000e+03 2.193863573531487248e+02
7.540000000000000000e+03 2.193070483570026283e+02
7.550000000000000000e+03 2.192344692848073748e+02
7.560000000000000000e+03 2.191496371160880301e+02
7.570000000000000000e+03 2.190739941630365877e+02
7.580000000000000000e+03 2.189989164065849820e+02
7.590000000000000000e+03 2.189269317257092382e+02
7.600000000000000000e+03 2.188444110482418239e+02
7.610000000000000000e+03 2.187656792868861828e+02
7.620000000000000000e+03 2.186832092349227423e+02
7.630000000000000000e+03 2.186017748353179115e+02
7.640000000000000000e+03 2.185267929378690326e+02
7.650000000000000000e+03 2.184508884077430366e+02
7.660000000000000000e+03 2.183913034892957228e+02
7.670000000000000000e+03 2.183307349570897316e+02
7.680000000000000000e+03 2.182613789722675222e+02
7.690000000000000000e+03 2.182161683660539211e+02
7.700000000000000000e+03 2.181657477313088123e+02
7.710000000000000000e+03 2.181223919066671044e+02
7.720000000000000000e+03 2.180857073889235096e+02
7.730000000000000000e+03 2.180443795435704715e+02
7.740000000000000000e+03 2.179927635513186033e+02
7.750000000000000000e+03 2.179493138521598894e+02
7.760000000000000000e+03 2.178963357586020209e+02
7.770000000000000000e+03 2.178476733407863151e+02
7.780000000000000000e+03 2.177959173163539788e+02
7.790000000000000000e+03 2.177475707913804399e+02
7.800000000000000000e+03 2.177043757277901079e+02
7.810000000000000000e+03 2.176646532110728458e+02
7.820000000000000000e+03 2.176224676497284065e+02
7.830000000000000000e+03 2.175913163722056822e+02
7.840000000000000000e+03 2.175543241555587031e+02
7.850000000000000000e+03 2.175098837829520448e+02
7.860000000000000000e+03 2.174779822118197217e+02
7.870000000000000000e+03 2.174344488954986900e+02
7.880000000000000000e+03 2.173962370997500670e+02
7.890000000000000000e+03 2.173651697257674300e+02
7.900000000000000000e+03 2.173221275697493127e+02
7.910000000000000000e+03 2.172800016011410094e+02
7.920000000000000000e+03 2.172427431368313648e+02
7.930000000000000000e+03 2.172019442436960617e+02
7.940000000000000000e+03 2.171690500737618379e+02
7.950000000000000000e+03 2.171307149740034390e+02
7.960000000000000000e+03 2.171003630453282085e+02
7.970000000000000000e+03 2.170693010304597124e+02
7.980000000000000000e+03 2.170420535495893830e+02
7.990000000000000000e+03 2.170012204243385270e+02
8.000000000000000000e+03 2.169579923877924159e+02
8.010000000000000000e+03 2.169151100898679374e+02
8.020000000000000000e+03 2.168787836489305221e+02
8.030000000000000000e+03 2.168461090760486343e+02
8.040000000000000000e+03 2.168194850698186258e+02
8.050000000000000000e+03 2.167885715994920304e+02
8.060000000000000000e+03 2.167500373718239643e+02
8.070000000000000000e+03 2.167210001751122093e+02
8.080000000000000000e+03 2.166935364475729955e+02
8.090000000000000000e+03 2.166633484693882963e+02
8.100000000000000000e+03 2.166354569982649991e+02
8.110000000000000000e+03 2.166117580556323219e+02
8.120000000000000000e+03 2.165781555739460771e+02
8.130000000000000000e+03 2.165486909929434773e+02
8.140000000000000000e+03 2.165088829525037966e+02
8.150000000000000000e+03 2.164732433342960576e+02
8.160000000000000000e+03 2.164406180431439850e+02
8.170000000000000000e+03 2.164110656615031303e+02
8.180000000000000000e+03 2.163810641217998807e+02
8.190000000000000000e+03 2.163397678938297872e+02
8.200000000000000000e+03 2.163062209831827261e+02
8.210000000000000000e+03 2.162698333595284907e+02
8.220000000000000000e+03 2.162336527122922121e+02
8.230000000000000000e+03 2.162073993722255523e+02
8.240000000000000000e+03 2.161780997434731546e+02
8.250000000000000000e+03 2.161424869828160240e+02
8.260000000000000000e+03 2.161142978241074104e+02
8.270000000000000000e+03 2.160724072563015739e+02
8.280000000000000000e+03 2.160310851457455783e+02
8.290000000000000000e+03 2.159983759263415948e+02
8.300000000000000000e+03 2.159757808735393496e+02
8.310000000000000000e+03 2.159423089291900340e+02
8.320000000000000000e+03 2.159042065325529620e+02
8.330000000000000000e+03 2.158661597103878478e+02
8.340000000000000000e+03 2.158285947295919414e+02
8.350000000000000000e+03 2.157895836175208899e+02
8.360000000000000000e+03 2.157628403595084023e+02
8.370000000000000000e+03 2.157303107939175675e+02
8.380000000000000000e+03 2.156899094576484117e+02
8.390000000000000000e+03 2.156613219116487983e+02
8.400000000000000000e+03 2.156210373082823821e+02
8.410000000000000000e+03 2.155735371804750855e+02
8.420000000000000000e+03 2.155438128993342275e+02
8.430000000000000000e+03 2.155093876337923007e+02
8.440000000000000000e+03 2.154720803170305601e+02
8.450000000000000000e+03 2.154400838613369444e+02
8.460000000000000000e+03 2.154001582084487438e+02
8.470000000000000000e+03 2.153735184906478253e+02
8.480000000000000000e+03 2.153489516458060962e+02
8.490000000000000000e+03 2.153168897007677742e+02
8.500000000000000000e+03 2.152778431060328330e+02
8.510000000000000000e+03 2.152475885179009083e+02
8.520000000000000000e+03 2.152139903412026740e+02
8.530000000000000000e+03 2.151888973856291045e+02
8.540000000000000000e+03 2.151603203824749926e+02
8.550000000000000000e+03 2.151290406936540762e+02
8.560000000000000000e+03 2.151006074042510647e+02
8.570000000000000000e+03 2.150690858222517647e+02
8.580000000000000000e+03 2.150336595781338076e+02
8.590000000000000000e+03 2.150058026292135480e+02
8.600000000000000000e+03 2.149768002149380095e+02
8.610000000000000000e+03 2.149507146021753101e+02
8.620000000000000000e+03 2.149110782925511387e+02
8.630000000000000000e+03 2.148780418186500185e+02
8.640000000000000000e+03 2.148617132624161457e+02
8.650000000000000000e+03 2.148266527164660147e+02
8.660000000000000000e+03 2.148028295059125981e+02
8.670000000000000000e+03 2.147722204941090922e+02
8.680000000000000000e+03 2.147337476038024704e+02
8.690000000000000000e+03 2.146978422987243960e+02
8.700000000000000000e+03 2.146711723626640662e+02
8.710000000000000000e+03 2.146462304075117231e+02
8.720000000000000000e+03 2.146195790934161494e+02
8.730000000000000000e+03 2.145985269551971157e+02
8.740000000000000000e+03 2.145706731545108994e+02
8.750000000000000000e+03 2.145309345470730307e+02
8.760000000000000000e+03 2.145101662008692927e+02
8.770000000000000000e+03 2.144761761591516631e+02
8.780000000000000000e+03 2.144431955928127138e+02
8.790000000000000000e+03 2.144271786016838348e+02
8.800000000000000000e+03 2.144024919462859771e+02
8.810000000000000000e+03 2.143700566424399483e+02
8.820000000000000000e+03 2.143464694825879633e+02
8.830000000000000000e+03 2.143221840783405412e+02
8.840000000000000000e+03 2.142840425655079457e+02
8.850000000000000000e+03 2.142549719516873665e+02
8.860000000000000000e+03 2.142352490939024108e+02
8.870000000000000000e+03 2.142012859177205257e+02
8.880000000000000000e+03 2.141786524039536062e+02
8.890000000000000000e+03 2.141409527850813674e+02
8.900000000000000000e+03 2.141096023972711748e+02
8.910000000000000000e+03 2.140829452156766877e+02
8.920000000000000000e+03 2.140555348374386995e+02
8.930000000000000000e+03 2.140297572065769884e+02
8.940000000000000000e+03 2.139968022418067903e+02
8.950000000000000000e+03 2.139673246371522168e+02
8.960000000000000000e+03 2.139351591542954907e+02
8.970000000000000000e+03 2.139060184426458306e+02
8.980000000000000000e+03 2.138820992004579011e+02
8.990000000000000000e+03 2.138575476704868379e+02
9.000000000000000000e+03 2.138335461912652704e+02
9.010000000000000000e+03 2.138118867358732587e+02
9.020000000000000000e+03 2.137815863344281979e+02
9.030000000000000000e+03 2.137499514780308516e+02
9.040000000000000000e+03 2.137187153559161743e+02
9.050000000000000000e+03 2.136998703244010187e+02
9.060000000000000000e+03 2.136760035439999967e+02
9.070000000000000000e+03 2.136520900194339845e+02
9.080000000000000000e+03 2.136156484559565456e+02
9.090000000000000000e+03 2.135911704002468241e+02
9.100000000000000000e+03 2.135705800259223679e+02
9.110000000000000000e+03 2.135428060682974660e+02
9.120000000000000000e+03 2.135180924520879842e+02
9.130000000000000000e+03 2.134920278500525228e+02
9.140000000000000000e+03 2.134631058872693075e+02
9.150000000000000000e+03 2.134377278463527716e+02
9.160000000000000000e+03 2.134065190800257596e+02
9.170000000000000000e+03 2.133643384057270396e+02
9.180000000000000000e+03 2.133278653878506077e+02
9.190000000000000000e+03 2.132953864919286389e+02
9.200000000000000000e+03 2.132575249412297467e+02
9.210000000000000000e+03 2.132391213514483184e+02
9.220000000000000000e+03 2.132093507646546868e+02
9.230000000000000000e+03 2.131757315262830161e+02
9.240000000000000000e+03 2.131489606448010079e+02
9.250000000000000000e+03 2.131171442488958689e+02
9.260000000000000000e+03 2.130894829729776632e+02
9.270000000000000000e+03 2.130681877741087362e+02
9.280000000000000000e+03 2.130439762657619269e+02
9.290000000000000000e+03 2.130190927326688097e+02
9.300000000000000000e+03 2.129834337454948923e+02
9.310000000000000000e+03 2.129525625306521874e+02
9.320000000000000000e+03 2.129226477059950753e+02
9.330000000000000000e+03 2.128963039677419431e+02
9.340000000000000000e+03 2.128751287857481032e+02
9.350000000000000000e+03 2.128450002905878478e+02
9.360000000000000000e+03 2.128154069142342735e+02
9.370000000000000000e+03 2.127954976756881251e+02
9.380000000000000000e+03 2.127571556824076708e+02
9.390000000000000000e+03 2.127183030999491677e+02
9.400000000000000000e+03 2.126889384374914016e+02
9.410000000000000000e+03 2.126614665569631484e+02
9.420000000000000000e+03 2.126314206768686859e+02
9.430000000000000000e+03 2.126036081274652361e+02
9.440000000000000000e+03 2.125674006136127332e+02
9.450000000000000000e+03 2.125293611068978805e+02
9.460000000000000000e+03 2.125035922666672832e+02
9.470000000000000000e+03 2.124753631810910122e+02
9.480000000000000000e+03 2.124364809781211818e+02
9.490000000000000000e+03 2.124034323892785778e+02
9.500000000000000000e+03 2.123585237310934417e+02
9.510000000000000000e+03 2.123186506075435602e+02
9.520000000000000000e+03 2.122863505671675455e+02
9.530000000000000000e+03 2.122632085864011913e+02
9.540000000000000000e+03 2.122304958594996265e+02
9.550000000000000000e+03 2.122030242210584845e+02
9.560000000000000000e+03 2.121756074728048702e+02
9.570000000000000000e+03 2.121464650460316648e+02
9.580000000000000000e+03 2.121177267431531277e+02
9.590000000000000000e+03 2.120900499464985671e+02
9.600000000000000000e+03 2.120622636532613967e+02
9.610000000000000000e+03 2.120367756518995463e+02
9.620000000000000000e+03 2.120037855024014561e+02
9.630000000000000000e+03 2.119712031414645708e+02
9.640000000000000000e+03 2.119415700022407236e+02
9.650000000000000000e+03 2.119180669542447788e+02
9.660000000000000000e+03 2.118878352729175845e+02
9.670000000000000000e+03 2.118559834260679793e+02
9.680000000000000000e+03 2.118307319675003555e+02
9.690000000000000000e+03 2.117936968277416270e+02
9.700000000000000000e+03 2.117585288137153725e+02
9.710000000000000000e+03 2.117199777660700022e+02
9.720000000000000000e+03 2.116866021675776892e+02
9.730000000000000000e+03 2.116574087773110477e+02
9.740000000000000000e+03 2.116327329776015631e+02
9.750000000000000000e+03 2.116051744185845109e+02
9.760000000000000000e+03 2.115760092729919677e+02
9.770000000000000000e+03 2.115517043513003728e+02
9.780000000000000000e+03 2.115242087700877107e+02
9.790000000000000000e+03 2.114948990807912992e+02
9.800000000000000000e+03 2.114637541812292625e+02
9.810000000000000000e+03 2.114400681299414089e+02
9.820000000000000000e+03 2.114111039216356289e+02
9.830000000000000000e+03 2.113914215224480131e+02
9.840000000000000000e+03 2.113690532199400423e+02
9.850000000000000000e+03 2.113384339763678383e+02
9.860000000000000000e+03 2.113148813444009306e+02
9.870000000000000000e+03 2.112902824333069987e+02
9.880000000000000000e+03 2.112603474618841801e+02
9.890000000000000000e+03 2.112358841946679888e+02
9.900000000000000000e+03 2.112102045217751254e+02
9.910000000000000000e+03 2.111738612583268093e+02
9.920000000000000000e+03 2.111382599861294409e+02
9.930000000000000000e+03 2.111219005190996256e+02
9.940000000000000000e+03 2.110995349997237440e+02
9.950000000000000000e+03 2.110739214466562714e+02
9.960000000000000000e+03 2.110536310283815737e+02
9.970000000000000000e+03 2.110225192165559349e+02
9.980000000000000000e+03 2.109957512749568878e+02
9.990000000000000000e+03 2.109616833204696604e+02
1.000000000000000000e+04 2.109348796657202172e+02
1.001000000000000000e+04 2.109170534009882090e+02
1.002000000000000000e+04 2.108965011046994675e+02
1.003000000000000000e+04 2.108714732452568796e+02
1.004000000000000000e+04 2.108396598451965076e+02
1.005000000000000000e+04 2.108130706507775187e+02
1.006000000000000000e+04 2.107829004683372602e+02
1.007000000000000000e+04 2.107544655449970037e+02
1.008000000000000000e+04 2.107369154741009822e+02
1.009000000000000000e+04 2.107143276457675540e+02
1.010000000000000000e+04 2.106861257739098505e+02
1.011000000000000000e+04 2.106620617454244098e+02
1.012000000000000000e+04 2.106415175977004424e+02
1.013000000000000000e+04 2.106119074348450226e+02
1.014000000000000000e+04 2.105865057149757718e+02
1.015000000000000000e+04 2.105661484665056662e+02
1.016000000000000000e+04 2.105422607442901608e+02
1.017000000000000000e+04 2.105114734782055734e+02
1.018000000000000000e+04 2.104818696180435609e+02
1.019000000000000000e+04 2.104529724046232388e+02
1.020000000000000000e+04 2.104293462048209733e+02
1.021000000000000000e+04 2.104086470390533918e+02
1.022000000000000000e+04 2.103800293303159208e+02
1.023000000000000000e+04 2.103495350989556130e+02
1.024000000000000000e+04 2.103248590127228681e+02
